<?xml version="1.0" standalone="no"?>
<!DOCTYPE svg PUBLIC "-//W3C//DTD SVG 1.1//EN" "http://www.w3.org/Graphics/SVG/1.1/DTD/svg11.dtd" >
<svg xmlns="http://www.w3.org/2000/svg">
<metadata></metadata>
<defs>
<font id="robotolight" horiz-adv-x="1135" >
<font-face units-per-em="2048" ascent="1536" descent="-512" />
<missing-glyph horiz-adv-x="498" />
<glyph horiz-adv-x="0" />
<glyph horiz-adv-x="0" />
<glyph unicode="&#xd;" horiz-adv-x="498" />
<glyph horiz-adv-x="0" />
<glyph unicode=" "  horiz-adv-x="498" />
<glyph unicode="&#x09;" horiz-adv-x="498" />
<glyph unicode="&#xa0;" horiz-adv-x="498" />
<glyph unicode="!" horiz-adv-x="462" d="M153 70q0 34 22 57.5t60 23.5t60.5 -23.5t22.5 -57.5q0 -33 -22.5 -55.5t-60.5 -22.5t-60 22.5t-22 55.5zM167 1456h124l-7 -1051h-111z" />
<glyph unicode="&#x22;" horiz-adv-x="588" d="M143 1083l3 453h97v-140l-20 -313h-80zM378 1083l4 453h97v-140l-20 -313h-81z" />
<glyph unicode="#" horiz-adv-x="1191" d="M85 410v93h272l83 441h-279v96h297l79 416h99l-79 -416h315l79 416h100l-79 -416h229v-96h-247l-83 -441h255v-93h-273l-77 -410h-100l77 410h-314l-77 -410h-99l77 410h-255zM456 503h315l83 441h-315z" />
<glyph unicode="$" d="M115 418h120q0 -156 91 -244.5t254 -88.5q142 0 231.5 76t89.5 198q0 111 -72 181.5t-254 133.5q-226 71 -317 168.5t-91 252.5q0 163 100 264.5t272 115.5v202h102v-202q176 -16 272.5 -132t96.5 -315h-119q0 157 -81.5 249.5t-222.5 92.5q-142 0 -221.5 -74.5 t-79.5 -198.5q0 -120 73 -187.5t248.5 -127t255 -114t119 -129t39.5 -178.5q0 -164 -102.5 -264.5t-281.5 -114.5v-190h-101v189q-201 13 -311 126.5t-110 310.5z" />
<glyph unicode="%" horiz-adv-x="1513" d="M109 1106v70q0 130 80.5 215.5t204.5 85.5t204.5 -85.5t80.5 -221.5v-71q0 -128 -79.5 -213.5t-203.5 -85.5q-123 0 -205 84t-82 222zM206 1099q0 -93 51.5 -153t138.5 -60q85 0 135.5 60.5t50.5 156.5v73q0 93 -52 153.5t-136 60.5q-83 0 -135.5 -60t-52.5 -160v-71z M359 169l711 1138l75 -48l-711 -1138zM842 284v73q0 130 80.5 215t203.5 85t204.5 -84.5t81.5 -222.5v-71q0 -130 -80.5 -215t-203.5 -85t-204.5 84.5t-81.5 220.5zM938 279q0 -94 51.5 -154t138.5 -60q86 0 136.5 60.5t50.5 158.5v73q0 96 -51.5 154.5t-137.5 58.5 q-84 0 -136 -59t-52 -158v-74z" />
<glyph unicode="&#x26;" horiz-adv-x="1260" d="M108 371q0 106 62.5 200.5t219.5 212.5l14 10q-87 105 -126.5 187.5t-39.5 163.5q0 153 91 242t244 89q139 0 225 -80.5t86 -204.5q0 -144 -166 -283l-160 -124l400 -466q91 147 91 333h111q0 -248 -128 -419l199 -232h-144l-126 146q-79 -78 -182.5 -122t-218.5 -44 q-208 0 -330 106.5t-122 284.5zM227 371q0 -131 90 -210.5t243 -79.5q91 0 176.5 38.5t153.5 109.5l-407 472l-14 15l-46 -35q-196 -160 -196 -310zM358 1149q0 -122 135 -288l131 100q64 46 105 101t41 129q0 78 -54 130.5t-144 52.5q-98 0 -156 -63t-58 -162z" />
<glyph unicode="'" horiz-adv-x="348" d="M119 1090q5 296 5 446h102v-141l-17 -305h-90z" />
<glyph unicode="(" horiz-adv-x="653" d="M140 588q0 218 56 423.5t164 376t232 244.5l29 -81q-66 -47 -131 -137t-116 -214t-82.5 -278.5t-31.5 -350.5q0 -209 47.5 -402t130.5 -340.5t183 -221.5l-29 -77q-127 76 -235 245.5t-162.5 373t-54.5 439.5z" />
<glyph unicode=")" horiz-adv-x="667" d="M33 -393q98 70 181.5 217t131.5 342.5t48 424.5q0 207 -48 399.5t-132.5 344t-180.5 220.5l29 77q126 -77 233 -246t163 -375t56 -438q0 -220 -54.5 -423.5t-161.5 -372.5t-236 -247z" />
<glyph unicode="*" horiz-adv-x="869" d="M29 1108l32 101l332 -123l-4 370h104l-8 -373l324 127l33 -101l-333 -115l223 -294l-85 -63l-214 305l-204 -303l-85 61l217 300z" />
<glyph unicode="+" horiz-adv-x="1156" d="M75 628v112h434v466h121v-466h443v-112h-443v-482h-121v482h-434z" />
<glyph unicode="," horiz-adv-x="392" d="M60 -220q91 122 94 253v155h117v-125q0 -208 -140 -335z" />
<glyph unicode="-" horiz-adv-x="586" d="M49 592v101h479v-101h-479z" />
<glyph unicode="." horiz-adv-x="489" d="M145 72q0 35 22.5 59.5t62.5 24.5t63 -24.5t23 -59.5t-23 -57.5t-63 -22.5t-62.5 22.5t-22.5 57.5z" />
<glyph unicode="/" horiz-adv-x="813" d="M30 -125l608 1581h108l-607 -1581h-109z" />
<glyph unicode="0" d="M120 592v261q0 307 114 465t333 158q216 0 330 -152.5t118 -449.5v-267q0 -308 -113 -467.5t-333 -159.5q-216 0 -331 156.5t-118 455.5zM239 594q0 -249 84.5 -381t245.5 -132q160 0 242.5 129t83.5 378v280q0 250 -81.5 378t-246.5 128q-162 0 -244 -125t-84 -369v-286 z" />
<glyph unicode="1" d="M178 1165v112l496 184h20v-1461h-120v1312z" />
<glyph unicode="2" d="M105 1036q0 123 55.5 224t158 158.5t233.5 57.5q200 0 312.5 -105t112.5 -286q0 -102 -63.5 -223t-223.5 -302l-406 -459h765v-101h-912v92l499 566q124 143 172 236t48 181q0 138 -81 218.5t-223 80.5q-147 0 -237.5 -94t-90.5 -244h-119z" />
<glyph unicode="3" d="M98 395h120q0 -139 97 -226.5t249 -87.5q155 0 241.5 79.5t86.5 230.5q0 146 -93.5 223t-275.5 77h-120v102h124q103 0 180 36.5t117.5 100t40.5 146.5q0 140 -79 219t-227 79q-140 0 -229.5 -82.5t-89.5 -217.5h-120q0 113 57 206.5t158 144.5t224 51q198 0 312 -108 t114 -296q0 -105 -66.5 -193.5t-182.5 -132.5q136 -38 206 -130.5t70 -220.5q0 -187 -122 -301t-326 -114q-130 0 -238.5 52t-168 145.5t-59.5 217.5z" />
<glyph unicode="4" d="M67 368v68l674 1020h131v-987h227v-101h-227v-368h-120v368h-685zM214 469h538v832l-53 -92z" />
<glyph unicode="5" d="M168 383h115q17 -149 101 -225.5t227 -76.5q156 0 235.5 99t79.5 282q0 160 -89 261t-243 101q-85 0 -148 -21.5t-133 -83.5l-95 27l71 710h728v-111h-625l-51 -492q117 80 274 80q197 0 314 -128t117 -341q0 -230 -114 -357t-321 -127q-190 0 -308 106t-135 297z" />
<glyph unicode="6" d="M130 523v120q0 391 178 605.5t505 218.5h30v-105h-14q-261 0 -411 -153.5t-166 -426.5q60 83 153 128.5t208 45.5q192 0 305.5 -132.5t113.5 -346.5q0 -142 -53 -256t-152 -177.5t-226 -63.5q-209 0 -340 151.5t-131 391.5zM250 512q0 -190 97.5 -310t253.5 -120 q140 0 226.5 111t86.5 280q0 172 -86.5 276t-233.5 104q-114 0 -212.5 -67.5t-131.5 -171.5v-102z" />
<glyph unicode="7" d="M77 1354v102h957v-69l-622 -1387h-125l618 1354h-828z" />
<glyph unicode="8" d="M106 386q0 124 73 221t200 140q-108 42 -172 131.5t-64 202.5q0 181 116.5 288t308.5 107t309.5 -108t117.5 -287q0 -113 -66 -202.5t-174 -131.5q126 -43 202 -139t76 -222q0 -187 -127 -296.5t-336 -109.5q-211 0 -337.5 109t-126.5 297zM225 385q0 -139 93 -221.5 t252 -82.5q155 0 249 82t94 222q0 136 -97 223.5t-248 87.5t-247 -86t-96 -225zM263 1082q0 -128 84.5 -206t221.5 -78q135 0 220.5 78.5t85.5 205.5q0 125 -86.5 208.5t-220.5 83.5q-136 0 -220.5 -80.5t-84.5 -211.5z" />
<glyph unicode="9" d="M101 965q0 144 55.5 262t155 183.5t229.5 65.5q219 0 341 -153.5t122 -435.5v-108q0 -394 -168 -592t-513 -198h-22l1 104h42q261 4 397 148t143 433q-64 -94 -159 -145.5t-206 -51.5q-124 0 -219 64t-147 177t-52 247zM219 970q0 -167 87.5 -278.5t227.5 -111.5 q120 0 215.5 71.5t135.5 185.5v69q0 222 -92.5 344.5t-249.5 122.5q-142 0 -233 -114.5t-91 -288.5z" />
<glyph unicode=":" horiz-adv-x="430" d="M127 72q0 35 22.5 59.5t62.5 24.5t63 -24.5t23 -59.5t-23 -57.5t-63 -22.5t-62.5 22.5t-22.5 57.5zM129 995q0 35 22.5 59.5t62.5 24.5t63 -24.5t23 -59.5t-23 -57.5t-63 -22.5t-62.5 22.5t-22.5 57.5z" />
<glyph unicode=";" horiz-adv-x="399" d="M60 -220q91 122 94 253v155h117v-125q0 -208 -140 -335zM118 995q0 35 22.5 59.5t62.5 24.5t63 -24.5t23 -59.5t-23 -57.5t-63 -22.5t-62.5 22.5t-22.5 57.5z" />
<glyph unicode="&#x3c;" horiz-adv-x="1047" d="M77 608v97l827 378v-126l-696 -302l696 -300v-126z" />
<glyph unicode="=" horiz-adv-x="1133" d="M149 418v106h834v-106h-834zM149 829v106h834v-106h-834z" />
<glyph unicode="&#x3e;" horiz-adv-x="1061" d="M124 231v124l711 304l-711 303v123l845 -378v-97z" />
<glyph unicode="?" horiz-adv-x="930" d="M84 1115q2 164 111 262.5t277 98.5q172 0 271.5 -100.5t99.5 -272.5q0 -108 -49 -202.5t-186 -220.5q-113 -95 -113 -276h-119q2 118 32 190t129 169.5t127.5 138t44 89t15.5 110.5q0 125 -66.5 196.5t-185.5 71.5q-120 0 -193.5 -68.5t-75.5 -185.5h-119zM360 70 q0 34 21.5 57.5t60.5 23.5q38 0 60.5 -23.5t22.5 -57.5q0 -33 -22.5 -55.5t-60.5 -22.5q-39 0 -60.5 22.5t-21.5 55.5z" />
<glyph unicode="@" horiz-adv-x="1870" d="M125 478q12 278 122.5 492.5t302.5 332t437 117.5q255 0 432 -106.5t262 -311.5t73 -489q-5 -147 -54 -272.5t-135.5 -193t-200.5 -67.5q-97 0 -158 51t-81 143q-108 -194 -298 -194q-140 0 -209 121t-51 326q15 163 74.5 290.5t155 199t204.5 71.5q77 0 135 -21.5 t135 -86.5l-51 -570q-10 -116 29.5 -180t126.5 -64q123 0 199.5 120.5t85.5 326.5q19 405 -154 609.5t-524 204.5q-211 0 -380.5 -105.5t-267.5 -298.5t-110 -445t66.5 -443.5t237 -294.5t377.5 -103q92 0 181 22t149 57l31 -80q-57 -38 -159 -63.5t-206 -25.5 q-250 0 -430 112.5t-269.5 324t-77.5 494.5zM673 286q11 -100 56 -154.5t119 -54.5q185 0 273 255l45 516q-67 49 -158 49q-111 0 -192.5 -88.5t-119.5 -244t-23 -278.5z" />
<glyph unicode="A" horiz-adv-x="1279" d="M30 0l551 1456h117l551 -1456h-128l-151 408h-661l-150 -408h-129zM347 513h584l-292 793z" />
<glyph unicode="B" horiz-adv-x="1255" d="M184 0v1456h430q234 0 355 -96.5t121 -284.5q0 -113 -61.5 -196.5t-168.5 -119.5q127 -28 204.5 -125t77.5 -224q0 -193 -124.5 -301.5t-346.5 -108.5h-487zM307 104h369q158 0 250.5 80.5t92.5 223.5q0 135 -88.5 213.5t-244.5 78.5h-379v-596zM307 803h336 q154 3 238.5 72.5t84.5 202.5q0 140 -87.5 206.5t-264.5 66.5h-307v-548z" />
<glyph unicode="C" horiz-adv-x="1330" d="M131 630v189q0 194 68 344t195.5 231.5t293.5 81.5q234 0 369.5 -126.5t157.5 -349.5h-124q-46 371 -403 371q-198 0 -315.5 -148t-117.5 -409v-178q0 -252 114.5 -402t309.5 -150q193 0 291 92.5t121 277.5h124q-25 -230 -164.5 -352t-371.5 -122q-162 0 -286.5 81 t-192.5 229.5t-69 339.5z" />
<glyph unicode="D" horiz-adv-x="1341" d="M184 0v1456h407q179 0 321 -81.5t221.5 -233.5t79.5 -346v-134q0 -195 -79 -346t-222.5 -233t-329.5 -82h-398zM307 104h276q230 0 369 152.5t139 412.5v128q0 251 -137 402t-361 152h-286v-1247z" />
<glyph unicode="E" horiz-adv-x="1165" d="M184 0v1456h901v-105h-778v-549h681v-104h-681v-594h783v-104h-906z" />
<glyph unicode="F" horiz-adv-x="1152" d="M184 0v1456h902v-105h-779v-566h679v-105h-679v-680h-123z" />
<glyph unicode="G" horiz-adv-x="1400" d="M145 638v184q0 303 153 478.5t411 175.5q225 0 362 -114.5t163 -315.5h-123q-27 160 -130.5 242.5t-270.5 82.5q-204 0 -323 -145t-119 -409v-172q0 -166 56.5 -293.5t162 -197.5t242.5 -70q159 0 273 50q74 33 110 77v376h-391v104h514v-518q-64 -91 -200.5 -142 t-305.5 -51q-171 0 -304 82t-206 232t-74 344z" />
<glyph unicode="H" horiz-adv-x="1449" d="M184 0v1456h123v-654h832v654h124v-1456h-124v698h-832v-698h-123z" />
<glyph unicode="I" horiz-adv-x="545" d="M211 0v1456h123v-1456h-123z" />
<glyph unicode="J" horiz-adv-x="1127" d="M71 401h123q0 -158 83 -237.5t234 -79.5q139 0 226.5 92t89.5 250v1030h124v-1023q0 -207 -119.5 -330t-320.5 -123q-212 0 -326 111t-114 310z" />
<glyph unicode="K" horiz-adv-x="1292" d="M184 0v1456h123v-785l746 785h155l-610 -648l657 -808h-150l-593 723l-205 -202v-521h-123z" />
<glyph unicode="L" horiz-adv-x="1079" d="M184 0v1456h124v-1352h719v-104h-843z" />
<glyph unicode="M" horiz-adv-x="1772" d="M184 0v1456h163l537 -1285l539 1285h164v-1456h-123v634l10 650l-542 -1284h-95l-540 1279l10 -641v-638h-123z" />
<glyph unicode="N" horiz-adv-x="1454" d="M184 0v1456h124l838 -1247v1247h122v-1456h-123l-837 1246v-1246h-124z" />
<glyph unicode="O" horiz-adv-x="1386" d="M125 655v150q0 199 70.5 352.5t199.5 236t297 82.5t296.5 -81t198.5 -229t73 -343v-174q0 -201 -69.5 -353t-198.5 -234t-298 -82q-255 0 -412 182.5t-157 492.5zM248 649q0 -259 120 -410.5t326 -151.5q209 0 326 149.5t117 416.5v154q0 263 -119 412t-326 149 q-203 0 -323.5 -149.5t-120.5 -417.5v-152z" />
<glyph unicode="P" horiz-adv-x="1261" d="M184 0v1456h496q227 0 358.5 -116t131.5 -319q0 -205 -126.5 -316.5t-366.5 -111.5h-370v-593h-123zM307 697h373q179 0 273 85t94 237q0 151 -93.5 240.5t-265.5 91.5h-381v-654z" />
<glyph unicode="Q" horiz-adv-x="1386" d="M121 642v163q0 199 70.5 352.5t199.5 236t296 82.5q170 0 299 -82t199.5 -235t70.5 -353v-157q0 -208 -73.5 -362.5t-209.5 -233.5l265 -231l-85 -76l-297 257q-82 -23 -167 -23q-166 0 -295.5 82t-200.5 232.5t-72 347.5zM244 649q0 -259 119.5 -410.5t325.5 -151.5 q208 0 326 149t118 416v155q0 263 -119 412t-327 149q-202 0 -322.5 -149.5t-120.5 -417.5v-152z" />
<glyph unicode="R" horiz-adv-x="1300" d="M181 0v1456h473q233 0 364 -113t131 -316q0 -140 -82 -247t-220 -148l364 -619v-13h-131l-352 606h-423v-606h-124zM305 711h377q155 0 249 88t94 228q0 154 -98 239t-275 85h-347v-640z" />
<glyph unicode="S" horiz-adv-x="1213" d="M88 416h123q0 -154 115 -243t306 -89q170 0 273 75t103 199q0 121 -85 191.5t-311 134t-330 138.5q-148 106 -148 278q0 167 137.5 271.5t351.5 104.5q145 0 259.5 -56t177.5 -156t63 -223h-124q0 149 -102 239.5t-274 90.5q-167 0 -266 -74.5t-99 -194.5q0 -111 89 -181 t285 -123.5t297 -111t152 -137.5t51 -189q0 -172 -137.5 -276t-362.5 -104q-154 0 -282.5 55t-195 154t-66.5 227z" />
<glyph unicode="T" horiz-adv-x="1223" d="M52 1351v105h1120v-105h-499v-1351h-123v1351h-498z" />
<glyph unicode="U" horiz-adv-x="1346" d="M162 453v1003h122v-985q0 -184 105 -285.5t285 -101.5t284.5 102t104.5 284v986h124v-994q-1 -147 -65 -256t-180.5 -167.5t-267.5 -58.5q-230 0 -368.5 125.5t-143.5 347.5z" />
<glyph unicode="V" horiz-adv-x="1263" d="M31 1456h134l458 -1276l8 -31l9 31l458 1276h135l-542 -1456h-118z" />
<glyph unicode="W" horiz-adv-x="1836" d="M61 1456h126l266 -1063l45 -226l55 216l316 1073h111l312 -1073l54 -218l48 228l263 1063h126l-373 -1456h-118l-330 1139l-37 144l-36 -144l-338 -1139h-118z" />
<glyph unicode="X" horiz-adv-x="1253" d="M55 0l498 738l-483 718h147l410 -616l410 616h147l-482 -718l497 -738h-148l-424 636l-426 -636h-146z" />
<glyph unicode="Y" horiz-adv-x="1226" d="M24 1456h146l441 -794l445 794h142l-526 -908v-548h-123v548z" />
<glyph unicode="Z" horiz-adv-x="1225" d="M90 0v93l864 1258h-838v105h990v-88l-867 -1264h899v-104h-1048z" />
<glyph unicode="[" horiz-adv-x="491" d="M163 -312v1976h330v-102h-210v-1772h210v-102h-330z" />
<glyph unicode="\" horiz-adv-x="807" d="M48 1456h117l608 -1581h-117z" />
<glyph unicode="]" horiz-adv-x="491" d="M0 -210h211v1772h-211v102h331v-1976h-331v102z" />
<glyph unicode="^" horiz-adv-x="852" d="M77 729l299 727h90l298 -727h-116l-227 569l-228 -569h-116z" />
<glyph unicode="_" horiz-adv-x="884" d="M1 0h881v-101h-881v101z" />
<glyph unicode="`" horiz-adv-x="585" d="M103 1524h144l191 -279h-109z" />
<glyph unicode="a" horiz-adv-x="1097" d="M100 287q0 158 131.5 250t366.5 92h217v123q0 116 -71.5 182.5t-208.5 66.5q-125 0 -207 -64t-82 -154l-120 1q0 129 120 223.5t295 94.5q181 0 285.5 -90.5t107.5 -252.5v-512q0 -157 33 -235v-12h-128q-18 51 -23 151q-63 -82 -160.5 -126.5t-206.5 -44.5 q-156 0 -252.5 87t-96.5 220zM220 297q0 -91 67.5 -151t175.5 -60q120 0 214.5 58t137.5 155v238h-214q-179 -2 -280 -65.5t-101 -174.5z" />
<glyph unicode="b" d="M155 0v1536h119v-611q114 177 338 177q192 0 303.5 -146.5t111.5 -407.5v-18q0 -253 -112 -401.5t-301 -148.5q-226 0 -342 168l-5 -148h-112zM274 288q90 -204 318 -204q148 0 231.5 117t83.5 350q0 214 -83 330.5t-234 116.5q-115 0 -195 -56.5t-121 -165.5v-488z" />
<glyph unicode="c" horiz-adv-x="1055" d="M94 526v36q0 160 56 283t160.5 190t244.5 67q178 0 293.5 -106t123.5 -279h-115q-8 127 -91.5 205t-210.5 78q-162 0 -251.5 -117t-89.5 -328v-35q0 -207 89.5 -323t252.5 -116q125 0 209.5 70.5t91.5 182.5h115q-5 -99 -62 -180.5t-151.5 -127.5t-202.5 -46 q-213 0 -337.5 148t-124.5 398z" />
<glyph unicode="d" horiz-adv-x="1138" d="M108 537v14q0 252 112.5 401.5t305.5 149.5q219 0 334 -173v607h119v-1536h-112l-5 144q-115 -164 -338 -164q-187 0 -301.5 150.5t-114.5 406.5zM229 530q0 -207 83 -326.5t234 -119.5q221 0 314 195v508q-93 211 -312 211q-151 0 -235 -118.5t-84 -349.5z" />
<glyph unicode="e" horiz-adv-x="1058" d="M90 510v43q0 156 60.5 281t168.5 196.5t234 71.5q197 0 312.5 -134.5t115.5 -367.5v-67h-772v-23q0 -184 105.5 -306.5t265.5 -122.5q96 0 169.5 35t133.5 112l75 -57q-132 -191 -383 -191q-138 0 -249.5 68t-173.5 189.5t-62 272.5zM213 635h649v13q-5 156 -89 254 t-220 98q-135 0 -227.5 -99t-112.5 -266z" />
<glyph unicode="f" horiz-adv-x="678" d="M63 984v98h179v131q0 166 84.5 255t235.5 89q68 0 127 -17l-9 -100q-50 12 -109 12q-99 0 -154 -61.5t-55 -174.5v-134h258v-98h-258v-984h-120v984h-179z" />
<glyph unicode="g" horiz-adv-x="1136" d="M108 535v16q0 254 112.5 402.5t305.5 148.5q221 0 336 -176l6 156h112v-1060q0 -209 -117 -331t-317 -122q-113 0 -215.5 50.5t-161.5 134.5l67 72q127 -156 302 -156q150 0 234 88.5t87 245.5v136q-115 -160 -335 -160q-188 0 -302 150t-114 405zM229 530 q0 -207 83 -326.5t234 -119.5q221 0 313 198v503q-42 104 -121 158.5t-190 54.5q-151 0 -235 -118.5t-84 -349.5z" />
<glyph unicode="h" horiz-adv-x="1124" d="M156 0v1536h119v-637q59 97 151 150t201 53q174 0 259 -98t86 -294v-710h-119v711q-1 145 -61.5 216t-193.5 71q-111 0 -196.5 -69.5t-126.5 -187.5v-741h-119z" />
<glyph unicode="i" horiz-adv-x="459" d="M149 1395q0 34 22 57.5t60 23.5t60.5 -23.5t22.5 -57.5t-22.5 -57t-60.5 -23t-60 23t-22 57zM170 0v1082h120v-1082h-120z" />
<glyph unicode="j" horiz-adv-x="467" d="M-104 -418l2 99q44 -13 90 -13q178 0 178 205v1209h119v-1211q0 -150 -72 -229t-212 -79q-54 0 -105 19zM145 1395q0 34 21.5 57.5t59.5 23.5q39 0 61 -23.5t22 -57.5t-22 -57t-61 -23q-38 0 -59.5 23t-21.5 57z" />
<glyph unicode="k" horiz-adv-x="1003" d="M156 0v1536h120v-983l113 122l414 407h151l-459 -456l499 -626h-143l-438 545l-137 -132v-413h-120z" />
<glyph unicode="l" horiz-adv-x="459" d="M170 0v1536h120v-1536h-120z" />
<glyph unicode="m" horiz-adv-x="1815" d="M150 0v1082h115l4 -176q60 98 150 147t200 49q256 0 325 -210q58 101 155 155.5t214 54.5q348 0 355 -380v-722h-120v713q-1 145 -62.5 215t-200.5 70q-129 -2 -218 -83.5t-99 -198.5v-716h-120v722q-1 139 -65.5 207.5t-198.5 68.5q-113 0 -194 -64.5t-120 -191.5v-742 h-120z" />
<glyph unicode="n" horiz-adv-x="1125" d="M156 0v1082h114l4 -185q61 100 152 152.5t201 52.5q174 0 259 -98t86 -294v-710h-119v711q-1 145 -61.5 216t-193.5 71q-111 0 -196.5 -69.5t-126.5 -187.5v-741h-119z" />
<glyph unicode="o" horiz-adv-x="1147" d="M90 533v24q0 156 60.5 281t171 194.5t250.5 69.5q216 0 350 -151.5t134 -401.5v-25q0 -157 -60.5 -282.5t-170.5 -193.5t-251 -68q-215 0 -349.5 151.5t-134.5 401.5zM210 524q0 -194 100.5 -318.5t263.5 -124.5q162 0 262.5 124.5t100.5 328.5v23q0 124 -46 227 t-129 159.5t-190 56.5q-160 0 -261 -125.5t-101 -328.5v-22z" />
<glyph unicode="p" d="M155 -416v1498h111l6 -153q117 173 339 173q194 0 304.5 -147t110.5 -408v-17q0 -253 -112 -401.5t-300 -148.5q-222 0 -340 156v-552h-119zM274 272q43 -93 123 -142t189 -49q151 0 235.5 120.5t84.5 349.5q0 207 -85 327t-237 120q-110 0 -189 -53t-121 -154v-519z" />
<glyph unicode="q" horiz-adv-x="1142" d="M108 535v16q0 254 112.5 402.5t307.5 148.5q219 0 333 -167l6 147h112v-1498h-120v550q-118 -154 -333 -154q-190 0 -304 150t-114 405zM229 530q0 -210 84.5 -329.5t234.5 -119.5q215 0 311 187v530q-45 97 -124.5 149.5t-184.5 52.5q-151 0 -236 -119.5t-85 -350.5z " />
<glyph unicode="r" horiz-adv-x="689" d="M156 0v1082h117l2 -172q95 192 305 192q50 0 79 -13l-3 -109q-38 7 -81 7q-112 0 -189.5 -62.5t-110.5 -181.5v-743h-119z" />
<glyph unicode="s" horiz-adv-x="1037" d="M101 303h120q7 -105 88.5 -163.5t215.5 -58.5q125 0 202 55t77 139q0 89 -71.5 143t-215.5 84.5t-223.5 70t-118 96.5t-38.5 138q0 128 107 211.5t274 83.5q181 0 290.5 -89.5t109.5 -233.5h-120q0 95 -79.5 158t-200.5 63q-118 0 -189.5 -52.5t-71.5 -136.5 q0 -81 59.5 -125.5t217 -81.5t236 -79t116.5 -101t38 -143q0 -137 -110.5 -219t-288.5 -82q-189 0 -306.5 91.5t-117.5 231.5z" />
<glyph unicode="t" horiz-adv-x="658" d="M23 984v98h199v277h120v-277h224v-98h-224v-721q0 -90 32.5 -134t108.5 -44q30 0 97 10l5 -98q-47 -17 -128 -17q-123 0 -179 71.5t-56 210.5v722h-199z" />
<glyph unicode="u" horiz-adv-x="1125" d="M152 378v704h119v-689q0 -309 250 -309q260 0 329 215v783h120v-1082h-116l-2 137q-108 -157 -345 -157q-173 0 -263 100.5t-92 297.5z" />
<glyph unicode="v" horiz-adv-x="985" d="M38 1082h123l332 -917l329 917h123l-404 -1082h-97z" />
<glyph unicode="w" horiz-adv-x="1544" d="M63 1082h123l229 -833l18 -93l24 98l260 828h102l257 -821l28 -114l23 105l222 830h124l-315 -1082h-102l-278 858l-13 59l-13 -60l-273 -857h-102z" />
<glyph unicode="x" horiz-adv-x="996" d="M48 0l382 551l-367 531h141l292 -439l292 439h142l-367 -531l383 -551h-141l-308 458l-308 -458h-141z" />
<glyph unicode="y" horiz-adv-x="973" d="M32 1082h131l336 -910l316 910h129l-462 -1266l-24 -56q-89 -197 -275 -197q-43 0 -92 14l-1 99l62 -6q88 0 142.5 43.5t92.5 149.5l53 146z" />
<glyph unicode="z" horiz-adv-x="996" d="M87 0v88l656 891h-636v103h787v-89l-659 -892h703v-101h-851z" />
<glyph unicode="{" horiz-adv-x="676" d="M68 543v104q231 0 231 261v229q1 183 85 296t253 164l26 -79q-244 -78 -244 -391v-213q0 -246 -184 -319q184 -77 184 -318v-228q4 -292 247 -373l-29 -80q-168 50 -253 163t-85 300v221q0 263 -231 263z" />
<glyph unicode="|" horiz-adv-x="452" d="M178 -270v1726h101v-1726h-101z" />
<glyph unicode="}" horiz-adv-x="676" d="M9 -324q243 81 247 373v224q0 253 193 321q-193 68 -193 319v213q0 316 -244 392l26 79q171 -51 254.5 -165.5t83.5 -300.5v-223q0 -261 231 -261v-104q-231 0 -231 -263v-221q0 -187 -85 -300t-253 -163z" />
<glyph unicode="~" horiz-adv-x="1402" d="M145 449q0 149 81 243.5t215 94.5q74 0 140.5 -31t158.5 -113q67 -63 115 -88.5t103 -25.5q88 0 140 63t52 172h104q0 -149 -83.5 -245t-212.5 -96q-72 0 -134.5 27.5t-153.5 108t-135 101t-94 20.5q-89 0 -138.5 -59t-49.5 -171z" />
<glyph unicode="&#xa2;" horiz-adv-x="1115" d="M119 526v36q0 222 105.5 367.5t291.5 168.5v220h120v-219q155 -16 255 -121t106 -261h-115q-8 127 -91.5 205t-210.5 78q-162 0 -251.5 -117t-89.5 -328v-35q0 -207 89.5 -323t252.5 -116q123 0 207.5 69.5t93.5 183.5h115q-8 -139 -110.5 -237t-250.5 -114v-228h-120 v229q-185 23 -291 166t-106 376z" />
<glyph unicode="&#xa3;" horiz-adv-x="1170" d="M93 645v104h184l-9 290q0 200 110.5 318.5t295.5 118.5q182 0 287.5 -105.5t105.5 -282.5h-123q0 135 -75 209t-204 74q-125 0 -199 -88.5t-74 -243.5l9 -290h344v-104h-341l9 -277q2 -174 -64 -264h745v-104h-997v104h98q51 13 77 107q20 74 18 156l-9 278h-188z" />
<glyph unicode="&#xa5;" horiz-adv-x="1223" d="M44 1456h143l420 -722l421 722h143l-453 -751h367v-89h-418v-204h418v-88h-418v-324h-123v324h-414v88h414v204h-414v89h366z" />
<glyph unicode="&#xa8;" horiz-adv-x="881" d="M143 1396q0 34 21.5 57.5t60.5 23.5q38 0 60.5 -23.5t22.5 -57.5q0 -33 -22.5 -56t-60.5 -23q-39 0 -60.5 23t-21.5 56zM580 1395q0 34 22 57.5t60 23.5q39 0 61 -23.5t22 -57.5q0 -33 -22 -56t-61 -23q-38 0 -60 23t-22 56z" />
<glyph unicode="&#xa9;" horiz-adv-x="1637" d="M107 729q0 202 93.5 375t259 272.5t357.5 99.5t357 -99.5t258.5 -272.5t93.5 -375q0 -197 -90 -369t-255.5 -276.5t-363.5 -104.5q-197 0 -362.5 103.5t-256.5 275.5t-91 371zM192 729q0 -176 81.5 -330t228.5 -244t315 -90q167 0 312 89t228.5 242.5t83.5 332.5 q0 178 -83 330.5t-228.5 241t-312.5 88.5q-171 0 -318 -91t-227 -243t-80 -326zM474 686v90q0 174 92 280.5t241 106.5t232 -80.5t83 -232.5h-99q0 224 -216 224q-106 0 -170 -81t-64 -222v-91q0 -134 63 -215.5t171 -81.5q106 0 160.5 53t54.5 171h99q0 -152 -82 -233 t-232 -81t-241.5 106t-91.5 287z" />
<glyph unicode="&#xab;" horiz-adv-x="933" d="M123 527v19l295 379h105l-276 -389l276 -388h-105zM432 527v19l295 379h105l-276 -389l276 -388h-105z" />
<glyph unicode="&#xad;" horiz-adv-x="586" d="M49 592v101h479v-101h-479z" />
<glyph unicode="&#xae;" horiz-adv-x="1642" d="M102 729q0 202 93.5 375t259 272.5t357.5 99.5t357.5 -99.5t259 -272.5t93.5 -375q0 -199 -91 -371t-256.5 -275.5t-362.5 -103.5t-362.5 103.5t-256.5 275.5t-91 371zM187 729q0 -179 83.5 -333t229 -242.5t312.5 -88.5t313 88.5t228.5 243t82.5 332.5q0 176 -81 328 t-226.5 242t-316.5 90q-168 0 -313.5 -88.5t-228.5 -241t-83 -330.5zM552 321v839h258q147 0 226 -61.5t79 -186.5q0 -133 -141 -197q72 -26 100 -80.5t28 -130.5t4 -110t13 -57v-16h-102q-14 36 -14 182q0 89 -37.5 126t-127.5 37h-188v-345h-98zM650 757h181 q81 0 133.5 42t52.5 111q0 85 -43.5 121.5t-149.5 38.5h-174v-313z" />
<glyph unicode="&#xb4;" horiz-adv-x="576" d="M124 1245l191 279h145l-231 -279h-105z" />
<glyph unicode="&#xb8;" horiz-adv-x="498" d="M98 -357q89 0 145.5 32.5t56.5 87.5q0 58 -43.5 80t-132.5 30l29 127h93l-12 -64q165 -21 165 -171q0 -92 -79 -146t-215 -54z" />
<glyph unicode="&#xbb;" horiz-adv-x="928" d="M115 162l276 388l-276 394h106l295 -384v-19l-295 -379h-106zM434 162l276 388l-276 394h106l295 -384v-19l-295 -379h-106z" />
<glyph unicode="&#xd3;" horiz-adv-x="1386" d="M125 655v150q0 199 70.5 352.5t199.5 236t297 82.5t296.5 -81t198.5 -229t73 -343v-174q0 -201 -69.5 -353t-198.5 -234t-298 -82q-255 0 -412 182.5t-157 492.5zM248 649q0 -259 120 -410.5t326 -151.5q209 0 326 149.5t117 416.5v154q0 263 -119 412t-326 149 q-203 0 -323.5 -149.5t-120.5 -417.5v-152zM620 1572l191 279h145l-231 -279h-105z" />
<glyph unicode="&#xf3;" horiz-adv-x="1147" d="M90 533v24q0 156 60.5 281t171 194.5t250.5 69.5q216 0 350 -151.5t134 -401.5v-25q0 -157 -60.5 -282.5t-170.5 -193.5t-251 -68q-215 0 -349.5 151.5t-134.5 401.5zM210 524q0 -194 100.5 -318.5t263.5 -124.5q162 0 262.5 124.5t100.5 328.5v23q0 124 -46 227 t-129 159.5t-190 56.5q-160 0 -261 -125.5t-101 -328.5v-22zM500 1245l191 279h145l-231 -279h-105z" />
<glyph unicode="&#x104;" horiz-adv-x="1279" d="M30 0l551 1456h117l551 -1456h-19q-105 -80 -142 -132.5t-37 -101.5q0 -84 85 -84q54 0 105 33l15 -84q-65 -44 -143 -44q-80 0 -125 44.5t-45 124.5q0 66 47 130.5t129 118.5l-149 403h-661l-150 -408h-129zM347 513h584l-292 793z" />
<glyph unicode="&#x105;" horiz-adv-x="1097" d="M100 287q0 158 131.5 250t366.5 92h217v123q0 116 -71.5 182.5t-208.5 66.5q-125 0 -207 -64t-82 -154l-120 1q0 129 120 223.5t295 94.5q181 0 285.5 -90.5t107.5 -252.5v-512q0 -157 33 -235v-12h-16q-105 -80 -142 -132.5t-37 -101.5q0 -84 85 -84q54 0 105 33l15 -84 q-65 -44 -143 -44q-80 0 -125 44.5t-45 124.5q0 65 46 129.5t127 118.5q-16 51 -21 147q-63 -82 -160.5 -126.5t-206.5 -44.5q-156 0 -252.5 87t-96.5 220zM220 297q0 -91 67.5 -151t175.5 -60q120 0 214.5 58t137.5 155v238h-214q-179 -2 -280 -65.5t-101 -174.5z" />
<glyph unicode="&#x106;" horiz-adv-x="1330" d="M131 630v189q0 194 68 344t195.5 231.5t293.5 81.5q234 0 369.5 -126.5t157.5 -349.5h-124q-46 371 -403 371q-198 0 -315.5 -148t-117.5 -409v-178q0 -252 114.5 -402t309.5 -150q193 0 291 92.5t121 277.5h124q-25 -230 -164.5 -352t-371.5 -122q-162 0 -286.5 81 t-192.5 229.5t-69 339.5zM607 1587l191 279h145l-231 -279h-105z" />
<glyph unicode="&#x107;" horiz-adv-x="1055" d="M94 526v36q0 160 56 283t160.5 190t244.5 67q178 0 293.5 -106t123.5 -279h-115q-8 127 -91.5 205t-210.5 78q-162 0 -251.5 -117t-89.5 -328v-35q0 -207 89.5 -323t252.5 -116q125 0 209.5 70.5t91.5 182.5h115q-5 -99 -62 -180.5t-151.5 -127.5t-202.5 -46 q-213 0 -337.5 148t-124.5 398zM468 1245l191 279h145l-231 -279h-105z" />
<glyph unicode="&#x118;" horiz-adv-x="1165" d="M184 0v1456h901v-105h-778v-549h681v-104h-681v-594h783v-104h-66q-105 -80 -142 -132.5t-37 -101.5q0 -84 85 -84q54 0 105 33l15 -84q-65 -44 -143 -44q-80 0 -125 44.5t-45 124.5q0 64 45 127t123 117h-721z" />
<glyph unicode="&#x119;" horiz-adv-x="1058" d="M90 510v43q0 156 60.5 281t168.5 196.5t234 71.5q197 0 312.5 -134.5t115.5 -367.5v-67h-772v-23q0 -184 105.5 -306.5t265.5 -122.5q96 0 169.5 35t133.5 112l75 -57q-57 -84 -139 -131l-62 -50q-114 -94 -114 -182q0 -84 85 -84q54 0 105 33l15 -84q-65 -44 -143 -44 q-80 0 -125 44.5t-45 124.5q0 93 94 185l-54 -3q-138 0 -249.5 68t-173.5 189.5t-62 272.5zM213 635h649v13q-5 156 -89 254t-220 98q-135 0 -227.5 -99t-112.5 -266z" />
<glyph unicode="&#x141;" horiz-adv-x="1082" d="M21 637v90l159 50v679h124v-639l307 97v-90l-307 -97v-623h718v-104h-842v687z" />
<glyph unicode="&#x142;" horiz-adv-x="529" d="M25 652v91l180 70v723h120v-676l179 70v-91l-179 -70v-769h-120v722z" />
<glyph unicode="&#x143;" horiz-adv-x="1454" d="M184 0v1456h124l838 -1247v1247h122v-1456h-123l-837 1246v-1246h-124zM655 1560l191 279h145l-231 -279h-105z" />
<glyph unicode="&#x144;" horiz-adv-x="1125" d="M156 0v1082h114l4 -185q61 100 152 152.5t201 52.5q174 0 259 -98t86 -294v-710h-119v711q-1 145 -61.5 216t-193.5 71q-111 0 -196.5 -69.5t-126.5 -187.5v-741h-119zM504 1245l191 279h145l-231 -279h-105z" />
<glyph unicode="&#x15a;" horiz-adv-x="1213" d="M88 416h123q0 -154 115 -243t306 -89q170 0 273 75t103 199q0 121 -85 191.5t-311 134t-330 138.5q-148 106 -148 278q0 167 137.5 271.5t351.5 104.5q145 0 259.5 -56t177.5 -156t63 -223h-124q0 149 -102 239.5t-274 90.5q-167 0 -266 -74.5t-99 -194.5q0 -111 89 -181 t285 -123.5t297 -111t152 -137.5t51 -189q0 -172 -137.5 -276t-362.5 -104q-154 0 -282.5 55t-195 154t-66.5 227zM556 1572l191 279h145l-231 -279h-105z" />
<glyph unicode="&#x15b;" horiz-adv-x="1037" d="M101 303h120q7 -105 88.5 -163.5t215.5 -58.5q125 0 202 55t77 139q0 89 -71.5 143t-215.5 84.5t-223.5 70t-118 96.5t-38.5 138q0 128 107 211.5t274 83.5q181 0 290.5 -89.5t109.5 -233.5h-120q0 95 -79.5 158t-200.5 63q-118 0 -189.5 -52.5t-71.5 -136.5 q0 -81 59.5 -125.5t217 -81.5t236 -79t116.5 -101t38 -143q0 -137 -110.5 -219t-288.5 -82q-189 0 -306.5 91.5t-117.5 231.5zM466 1245l191 279h145l-231 -279h-105z" />
<glyph unicode="&#x179;" horiz-adv-x="1225" d="M90 0v93l864 1258h-838v105h990v-88l-867 -1264h899v-104h-1048zM541 1560l191 279h145l-231 -279h-105z" />
<glyph unicode="&#x17a;" horiz-adv-x="996" d="M87 0v88l656 891h-636v103h787v-89l-659 -892h703v-101h-851zM441 1245l191 279h145l-231 -279h-105z" />
<glyph unicode="&#x17b;" horiz-adv-x="1225" d="M90 0v93l864 1258h-838v105h990v-88l-867 -1264h899v-104h-1048zM534 1697q0 34 22 57.5t60 23.5q39 0 61 -23.5t22 -57.5q0 -33 -22 -56t-61 -23q-38 0 -60 23t-22 56z" />
<glyph unicode="&#x17c;" horiz-adv-x="996" d="M87 0v88l656 891h-636v103h787v-89l-659 -892h703v-101h-851zM434 1382q0 34 22 57.5t60 23.5q39 0 61 -23.5t22 -57.5q0 -33 -22 -56t-61 -23q-38 0 -60 23t-22 56z" />
<glyph unicode="&#x2c6;" horiz-adv-x="880" d="M160 1258v13l238 255h76l241 -258v-10h-111l-168 183l-167 -183h-109z" />
<glyph unicode="&#x2da;" horiz-adv-x="635" d="M117 1395q0 80 56.5 135t136.5 55q79 0 136 -55t57 -135q0 -79 -55 -133t-138 -54t-138 54t-55 133zM194 1395q0 -50 33 -83t83 -33q49 0 83 32.5t34 83.5q0 53 -35 86t-82 33q-49 0 -82.5 -34t-33.5 -85z" />
<glyph unicode="&#x2dc;" horiz-adv-x="891" d="M106 1267q0 92 54.5 152t140.5 60q48 0 82 -17t64 -38t60.5 -38t71.5 -17q46 0 78.5 33t32.5 89l89 -6q0 -96 -56.5 -154.5t-138.5 -58.5q-76 0 -148.5 55t-129.5 55q-47 0 -78.5 -31t-31.5 -87z" />
<glyph unicode="&#x2000;" horiz-adv-x="933" />
<glyph unicode="&#x2001;" horiz-adv-x="1866" />
<glyph unicode="&#x2002;" horiz-adv-x="933" />
<glyph unicode="&#x2003;" horiz-adv-x="1866" />
<glyph unicode="&#x2004;" horiz-adv-x="622" />
<glyph unicode="&#x2005;" horiz-adv-x="466" />
<glyph unicode="&#x2006;" horiz-adv-x="311" />
<glyph unicode="&#x2007;" horiz-adv-x="311" />
<glyph unicode="&#x2008;" horiz-adv-x="233" />
<glyph unicode="&#x2009;" horiz-adv-x="373" />
<glyph unicode="&#x200a;" horiz-adv-x="103" />
<glyph unicode="&#x2010;" horiz-adv-x="586" d="M49 592v101h479v-101h-479z" />
<glyph unicode="&#x2011;" horiz-adv-x="586" d="M49 592v101h479v-101h-479z" />
<glyph unicode="&#x2012;" horiz-adv-x="586" d="M49 592v101h479v-101h-479z" />
<glyph unicode="&#x2013;" horiz-adv-x="1334" d="M159 686v102h1002v-102h-1002z" />
<glyph unicode="&#x2014;" horiz-adv-x="1580" d="M126 686v102h1336v-102h-1336z" />
<glyph unicode="&#x2018;" horiz-adv-x="364" d="M98 1121v112q0 92 37.5 177t102.5 144l72 -51q-90 -118 -93 -254v-128h-119z" />
<glyph unicode="&#x2019;" horiz-adv-x="364" d="M62 1151q90 121 93 254v131h118v-101q0 -209 -140 -336z" />
<glyph unicode="&#x201a;" horiz-adv-x="353" d="M41 -179q83 111 91 230l1 154h119v-101q0 -208 -140 -335z" />
<glyph unicode="&#x201c;" horiz-adv-x="612" d="M99 1121v112q0 92 37.5 177t102.5 144l72 -51q-90 -118 -93 -254v-128h-119zM350 1121v112q0 92 37.5 177t102.5 144l72 -51q-90 -118 -93 -254v-128h-119z" />
<glyph unicode="&#x201d;" horiz-adv-x="617" d="M68 1151q90 121 93 254v131h118v-101q0 -209 -140 -336zM312 1151q90 121 93 254v131h118v-101q0 -209 -140 -336z" />
<glyph unicode="&#x201e;" horiz-adv-x="593" d="M41 -188q89 123 92 261v163h119v-130q0 -217 -140 -346zM275 -188q88 122 91 261v163h120v-130q0 -217 -140 -346z" />
<glyph unicode="&#x2022;" horiz-adv-x="662" d="M146 719v33q0 79 51 129t134 50q82 0 133 -48.5t53 -125.5v-40q0 -81 -51 -129t-134 -48q-84 0 -135 49t-51 130z" />
<glyph unicode="&#x2026;" horiz-adv-x="1313" d="M166 72q0 35 22.5 59.5t62.5 24.5t63 -24.5t23 -59.5t-23 -57.5t-63 -22.5t-62.5 22.5t-22.5 57.5zM576 72q0 35 22.5 59.5t62.5 24.5t63 -24.5t23 -59.5t-23 -57.5t-63 -22.5t-62.5 22.5t-22.5 57.5zM968 72q0 35 22.5 59.5t62.5 24.5t63 -24.5t23 -59.5t-23 -57.5 t-63 -22.5t-62.5 22.5t-22.5 57.5z" />
<glyph unicode="&#x202f;" horiz-adv-x="373" />
<glyph unicode="&#x2039;" horiz-adv-x="609" d="M108 546v19l295 379h105l-276 -389l276 -388h-105z" />
<glyph unicode="&#x203a;" horiz-adv-x="609" d="M97 162l276 388l-276 394h106l295 -384v-19l-295 -379h-106z" />
<glyph unicode="&#x205f;" horiz-adv-x="466" />
<glyph unicode="&#x20ac;" d="M83 563v89h192v164h-192v90h192q0 270 143 420t392 150q99 0 232 -31l-10 -109q-112 35 -221 35q-198 0 -305.5 -118.5t-107.5 -346.5h419v-90h-419v-164h419v-89h-419v-17q0 -221 108.5 -342t306.5 -121q117 0 219 34l10 -107q-116 -30 -230 -30q-249 0 -391.5 147 t-145.5 409v27h-192z" />
<glyph unicode="&#x2122;" horiz-adv-x="1264" d="M107 1387v69h391v-69h-159v-468h-73v468h-159zM580 919v537h91l160 -430l160 430h90v-537h-72v416l-152 -416h-52l-152 423v-423h-73z" />
<glyph unicode="&#x25fc;" horiz-adv-x="1080" d="M0 0v1080h1080v-1080h-1080z" />
<hkern u1="&#x20;" u2="T" k="40" />
<hkern u1="&#x22;" u2="w" k="-11" />
<hkern u1="&#x27;" u2="w" k="-11" />
<hkern u1="&#x28;" u2="Y" k="-22" />
<hkern u1="&#x28;" u2="W" k="-18" />
<hkern u1="&#x28;" u2="V" k="-20" />
<hkern u1="&#x2f;" u2="&#x2f;" k="224" />
<hkern u1="A" u2="w" k="33" />
<hkern u1="A" u2="t" k="17" />
<hkern u1="A" u2="&#x3f;" k="61" />
<hkern u1="C" u2="&#x7d;" k="17" />
<hkern u1="C" u2="]" k="12" />
<hkern u1="C" u2="&#x29;" k="26" />
<hkern u1="E" u2="w" k="22" />
<hkern u1="E" u2="f" k="18" />
<hkern u1="F" u2="&#x2026;" k="234" />
<hkern u1="F" u2="&#x201e;" k="234" />
<hkern u1="F" u2="&#x201a;" k="234" />
<hkern u1="F" u2="&#x119;" k="21" />
<hkern u1="F" u2="&#x107;" k="21" />
<hkern u1="F" u2="&#x105;" k="34" />
<hkern u1="F" u2="&#x104;" k="170" />
<hkern u1="F" u2="&#xf3;" k="21" />
<hkern u1="F" u2="y" k="24" />
<hkern u1="F" u2="v" k="24" />
<hkern u1="F" u2="u" k="22" />
<hkern u1="F" u2="r" k="26" />
<hkern u1="F" u2="q" k="21" />
<hkern u1="F" u2="o" k="21" />
<hkern u1="F" u2="g" k="21" />
<hkern u1="F" u2="e" k="21" />
<hkern u1="F" u2="d" k="21" />
<hkern u1="F" u2="c" k="21" />
<hkern u1="F" u2="a" k="34" />
<hkern u1="F" u2="T" k="-20" />
<hkern u1="F" u2="J" k="264" />
<hkern u1="F" u2="A" k="170" />
<hkern u1="F" u2="&#x2e;" k="234" />
<hkern u1="F" u2="&#x2c;" k="234" />
<hkern u1="K" u2="w" k="63" />
<hkern u1="L" u2="w" k="92" />
<hkern u1="P" u2="t" k="-14" />
<hkern u1="Q" u2="Y" k="35" />
<hkern u1="Q" u2="W" k="20" />
<hkern u1="Q" u2="V" k="28" />
<hkern u1="Q" u2="T" k="43" />
<hkern u1="R" u2="Y" k="48" />
<hkern u1="R" u2="V" k="19" />
<hkern u1="R" u2="T" k="80" />
<hkern u1="T" u2="&#xbb;" k="216" />
<hkern u1="T" u2="&#xab;" k="328" />
<hkern u1="T" u2="w" k="57" />
<hkern u1="T" u2="r" k="75" />
<hkern u1="T" u2="&#x20;" k="40" />
<hkern u1="V" u2="&#x7d;" k="-19" />
<hkern u1="V" u2="r" k="30" />
<hkern u1="V" u2="]" k="-17" />
<hkern u1="V" u2="&#x29;" k="-20" />
<hkern u1="W" u2="&#x7d;" k="-14" />
<hkern u1="W" u2="r" k="21" />
<hkern u1="W" u2="]" k="-12" />
<hkern u1="W" u2="&#x29;" k="-15" />
<hkern u1="Y" u2="&#x2022;" k="45" />
<hkern u1="Y" u2="&#xbb;" k="51" />
<hkern u1="Y" u2="&#xab;" k="82" />
<hkern u1="Y" u2="&#x7d;" k="-19" />
<hkern u1="Y" u2="t" k="22" />
<hkern u1="Y" u2="r" k="40" />
<hkern u1="Y" u2="f" k="22" />
<hkern u1="Y" u2="]" k="-18" />
<hkern u1="Y" u2="&#x2a;" k="49" />
<hkern u1="Y" u2="&#x29;" k="-20" />
<hkern u1="Y" u2="&#x26;" k="30" />
<hkern u1="Z" u2="w" k="27" />
<hkern u1="[" u2="U" k="18" />
<hkern u1="[" u2="J" k="18" />
<hkern u1="e" u2="&#x2019;" k="80" />
<hkern u1="f" u2="&#x201d;" k="-16" />
<hkern u1="f" u2="&#x201c;" k="-16" />
<hkern u1="f" u2="&#x2019;" k="-16" />
<hkern u1="f" u2="&#x2018;" k="-16" />
<hkern u1="f" u2="&#x119;" k="24" />
<hkern u1="f" u2="&#x107;" k="24" />
<hkern u1="f" u2="&#x7d;" k="-19" />
<hkern u1="f" u2="q" k="24" />
<hkern u1="f" u2="g" k="24" />
<hkern u1="f" u2="e" k="24" />
<hkern u1="f" u2="d" k="24" />
<hkern u1="f" u2="c" k="24" />
<hkern u1="f" u2="]" k="-18" />
<hkern u1="f" u2="&#x29;" k="-20" />
<hkern u1="f" u2="&#x27;" k="-16" />
<hkern u1="f" u2="&#x22;" k="-16" />
<hkern u1="h" u2="&#x2019;" k="80" />
<hkern u1="k" u2="&#x119;" k="20" />
<hkern u1="k" u2="&#x107;" k="20" />
<hkern u1="k" u2="q" k="20" />
<hkern u1="k" u2="g" k="20" />
<hkern u1="k" u2="e" k="20" />
<hkern u1="k" u2="d" k="20" />
<hkern u1="k" u2="c" k="20" />
<hkern u1="m" u2="&#x2019;" k="80" />
<hkern u1="n" u2="&#x2019;" k="80" />
<hkern u1="o" u2="&#x2019;" k="80" />
<hkern u1="r" u2="w" k="-17" />
<hkern u1="r" u2="t" k="-50" />
<hkern u1="r" u2="f" k="-15" />
<hkern u1="t" u2="&#xf3;" k="20" />
<hkern u1="t" u2="o" k="20" />
<hkern u1="v" u2="f" k="-13" />
<hkern u1="w" u2="&#x2026;" k="124" />
<hkern u1="w" u2="&#x201e;" k="124" />
<hkern u1="w" u2="&#x201a;" k="124" />
<hkern u1="w" u2="&#x2e;" k="124" />
<hkern u1="w" u2="&#x2c;" k="124" />
<hkern u1="y" u2="f" k="-13" />
<hkern u1="&#x7b;" u2="U" k="20" />
<hkern u1="&#x7b;" u2="J" k="20" />
<hkern u1="&#xf3;" u2="&#x2019;" k="80" />
<hkern u1="&#x104;" u2="w" k="33" />
<hkern u1="&#x104;" u2="t" k="17" />
<hkern u1="&#x104;" u2="&#x3f;" k="61" />
<hkern u1="&#x106;" u2="&#x7d;" k="17" />
<hkern u1="&#x106;" u2="]" k="12" />
<hkern u1="&#x106;" u2="&#x29;" k="26" />
<hkern u1="&#x118;" u2="w" k="22" />
<hkern u1="&#x118;" u2="f" k="18" />
<hkern u1="&#x119;" u2="&#x2019;" k="80" />
<hkern u1="&#x144;" u2="&#x2019;" k="80" />
<hkern u1="&#x179;" u2="w" k="27" />
<hkern u1="&#x17b;" u2="w" k="27" />
<hkern u1="&#x2018;" u2="w" k="-11" />
<hkern u1="&#x2019;" u2="&#x15b;" k="112" />
<hkern u1="&#x2019;" u2="&#xf3;" k="128" />
<hkern u1="&#x2019;" u2="w" k="-11" />
<hkern u1="&#x2019;" u2="s" k="112" />
<hkern u1="&#x2019;" u2="o" k="128" />
<hkern u1="&#x2019;" u2="l" k="-32" />
<hkern u1="&#x2019;" u2="k" k="-32" />
<hkern u1="&#x2019;" u2="h" k="-32" />
<hkern u1="&#x201c;" u2="w" k="-11" />
<hkern u1="&#x201d;" u2="w" k="-11" />
<hkern g1="comma,period,quotesinglbase,quotedblbase,ellipsis" 	g2="quotedbl,quotesingle,quoteleft,quoteright,quotedblleft,quotedblright" 	k="170" />
<hkern g1="A,Aogonek" 	g2="quotedbl,quotesingle,quoteleft,quoteright,quotedblleft,quotedblright" 	k="120" />
<hkern g1="A,Aogonek" 	g2="o,oacute" 	k="12" />
<hkern g1="A,Aogonek" 	g2="C,G,O,Q,Oacute,Cacute" 	k="11" />
<hkern g1="A,Aogonek" 	g2="T" 	k="129" />
<hkern g1="A,Aogonek" 	g2="U" 	k="17" />
<hkern g1="A,Aogonek" 	g2="V" 	k="87" />
<hkern g1="A,Aogonek" 	g2="W" 	k="69" />
<hkern g1="A,Aogonek" 	g2="Y" 	k="94" />
<hkern g1="A,Aogonek" 	g2="u" 	k="11" />
<hkern g1="A,Aogonek" 	g2="v,y" 	k="50" />
<hkern g1="A,Aogonek" 	g2="z,zacute,zdotaccent" 	k="-12" />
<hkern g1="B" 	g2="T" 	k="27" />
<hkern g1="B" 	g2="V" 	k="24" />
<hkern g1="B" 	g2="Y" 	k="55" />
<hkern g1="C,Cacute" 	g2="T" 	k="29" />
<hkern g1="D,O,Oacute" 	g2="A,Aogonek" 	k="21" />
<hkern g1="D,O,Oacute" 	g2="T" 	k="27" />
<hkern g1="D,O,Oacute" 	g2="V" 	k="22" />
<hkern g1="D,O,Oacute" 	g2="Y" 	k="43" />
<hkern g1="D,O,Oacute" 	g2="comma,period,quotesinglbase,quotedblbase,ellipsis" 	k="102" />
<hkern g1="D,O,Oacute" 	g2="X" 	k="22" />
<hkern g1="D,O,Oacute" 	g2="Z,Zacute,Zdotaccent" 	k="23" />
<hkern g1="E,Eogonek" 	g2="c,d,e,g,q,cacute,eogonek" 	k="19" />
<hkern g1="E,Eogonek" 	g2="o,oacute" 	k="19" />
<hkern g1="E,Eogonek" 	g2="T" 	k="-20" />
<hkern g1="E,Eogonek" 	g2="u" 	k="17" />
<hkern g1="E,Eogonek" 	g2="v,y" 	k="26" />
<hkern g1="H,I,M,N,Nacute" 	g2="A,Aogonek" 	k="-18" />
<hkern g1="H,I,M,N,Nacute" 	g2="T" 	k="29" />
<hkern g1="H,I,M,N,Nacute" 	g2="Y" 	k="28" />
<hkern g1="H,I,M,N,Nacute" 	g2="X" 	k="-17" />
<hkern g1="J,U" 	g2="A,Aogonek" 	k="22" />
<hkern g1="K" 	g2="c,d,e,g,q,cacute,eogonek" 	k="26" />
<hkern g1="K" 	g2="m,n,p,nacute" 	k="23" />
<hkern g1="K" 	g2="o,oacute" 	k="27" />
<hkern g1="K" 	g2="C,G,O,Q,Oacute,Cacute" 	k="31" />
<hkern g1="K" 	g2="u" 	k="23" />
<hkern g1="K" 	g2="v,y" 	k="40" />
<hkern g1="K" 	g2="hyphen,endash,emdash" 	k="64" />
<hkern g1="L" 	g2="quotedbl,quotesingle,quoteleft,quoteright,quotedblleft,quotedblright" 	k="336" />
<hkern g1="L" 	g2="A,Aogonek" 	k="-19" />
<hkern g1="L" 	g2="C,G,O,Q,Oacute,Cacute" 	k="65" />
<hkern g1="L" 	g2="T" 	k="275" />
<hkern g1="L" 	g2="U" 	k="54" />
<hkern g1="L" 	g2="V" 	k="175" />
<hkern g1="L" 	g2="W" 	k="143" />
<hkern g1="L" 	g2="Y" 	k="239" />
<hkern g1="L" 	g2="u" 	k="44" />
<hkern g1="L" 	g2="v,y" 	k="133" />
<hkern g1="P" 	g2="A,Aogonek" 	k="138" />
<hkern g1="P" 	g2="a,aogonek" 	k="11" />
<hkern g1="P" 	g2="c,d,e,g,q,cacute,eogonek" 	k="13" />
<hkern g1="P" 	g2="o,oacute" 	k="13" />
<hkern g1="P" 	g2="v,y" 	k="-15" />
<hkern g1="P" 	g2="comma,period,quotesinglbase,quotedblbase,ellipsis" 	k="324" />
<hkern g1="P" 	g2="X" 	k="31" />
<hkern g1="P" 	g2="Z,Zacute,Zdotaccent" 	k="26" />
<hkern g1="P" 	g2="J" 	k="200" />
<hkern g1="T" 	g2="A,Aogonek" 	k="79" />
<hkern g1="T" 	g2="a,aogonek" 	k="113" />
<hkern g1="T" 	g2="c,d,e,g,q,cacute,eogonek" 	k="99" />
<hkern g1="T" 	g2="m,n,p,nacute" 	k="109" />
<hkern g1="T" 	g2="o,oacute" 	k="99" />
<hkern g1="T" 	g2="s,sacute" 	k="116" />
<hkern g1="T" 	g2="C,G,O,Q,Oacute,Cacute" 	k="28" />
<hkern g1="T" 	g2="T" 	k="-16" />
<hkern g1="T" 	g2="V" 	k="-16" />
<hkern g1="T" 	g2="W" 	k="-15" />
<hkern g1="T" 	g2="Y" 	k="-16" />
<hkern g1="T" 	g2="u" 	k="95" />
<hkern g1="T" 	g2="v,y" 	k="72" />
<hkern g1="T" 	g2="z,zacute,zdotaccent" 	k="60" />
<hkern g1="T" 	g2="comma,period,quotesinglbase,quotedblbase,ellipsis" 	k="218" />
<hkern g1="T" 	g2="hyphen,endash,emdash" 	k="232" />
<hkern g1="T" 	g2="J" 	k="240" />
<hkern g1="T" 	g2="S,Sacute" 	k="16" />
<hkern g1="T" 	g2="x" 	k="77" />
<hkern g1="V" 	g2="A,Aogonek" 	k="75" />
<hkern g1="V" 	g2="a,aogonek" 	k="46" />
<hkern g1="V" 	g2="c,d,e,g,q,cacute,eogonek" 	k="44" />
<hkern g1="V" 	g2="o,oacute" 	k="46" />
<hkern g1="V" 	g2="C,G,O,Q,Oacute,Cacute" 	k="13" />
<hkern g1="V" 	g2="u" 	k="28" />
<hkern g1="V" 	g2="v,y" 	k="11" />
<hkern g1="V" 	g2="comma,period,quotesinglbase,quotedblbase,ellipsis" 	k="225" />
<hkern g1="V" 	g2="hyphen,endash,emdash" 	k="37" />
<hkern g1="W" 	g2="A,Aogonek" 	k="43" />
<hkern g1="W" 	g2="a,aogonek" 	k="33" />
<hkern g1="W" 	g2="c,d,e,g,q,cacute,eogonek" 	k="31" />
<hkern g1="W" 	g2="o,oacute" 	k="31" />
<hkern g1="W" 	g2="T" 	k="-14" />
<hkern g1="W" 	g2="u" 	k="19" />
<hkern g1="W" 	g2="comma,period,quotesinglbase,quotedblbase,ellipsis" 	k="123" />
<hkern g1="W" 	g2="hyphen,endash,emdash" 	k="60" />
<hkern g1="X" 	g2="c,d,e,g,q,cacute,eogonek" 	k="26" />
<hkern g1="X" 	g2="o,oacute" 	k="21" />
<hkern g1="X" 	g2="C,G,O,Q,Oacute,Cacute" 	k="25" />
<hkern g1="X" 	g2="V" 	k="-14" />
<hkern g1="X" 	g2="u" 	k="21" />
<hkern g1="X" 	g2="v,y" 	k="31" />
<hkern g1="X" 	g2="hyphen,endash,emdash" 	k="46" />
<hkern g1="Y" 	g2="A,Aogonek" 	k="94" />
<hkern g1="Y" 	g2="a,aogonek" 	k="73" />
<hkern g1="Y" 	g2="c,d,e,g,q,cacute,eogonek" 	k="65" />
<hkern g1="Y" 	g2="m,n,p,nacute" 	k="40" />
<hkern g1="Y" 	g2="o,oacute" 	k="65" />
<hkern g1="Y" 	g2="s,sacute" 	k="58" />
<hkern g1="Y" 	g2="C,G,O,Q,Oacute,Cacute" 	k="29" />
<hkern g1="Y" 	g2="T" 	k="-17" />
<hkern g1="Y" 	g2="U" 	k="96" />
<hkern g1="Y" 	g2="V" 	k="-18" />
<hkern g1="Y" 	g2="W" 	k="-17" />
<hkern g1="Y" 	g2="Y" 	k="-18" />
<hkern g1="Y" 	g2="u" 	k="39" />
<hkern g1="Y" 	g2="v,y" 	k="20" />
<hkern g1="Y" 	g2="z,zacute,zdotaccent" 	k="30" />
<hkern g1="Y" 	g2="comma,period,quotesinglbase,quotedblbase,ellipsis" 	k="211" />
<hkern g1="Y" 	g2="X" 	k="-13" />
<hkern g1="Y" 	g2="hyphen,endash,emdash" 	k="52" />
<hkern g1="Y" 	g2="J" 	k="96" />
<hkern g1="Y" 	g2="S,Sacute" 	k="16" />
<hkern g1="Y" 	g2="x" 	k="23" />
<hkern g1="Z,Zacute,Zdotaccent" 	g2="A,Aogonek" 	k="-13" />
<hkern g1="Z,Zacute,Zdotaccent" 	g2="c,d,e,g,q,cacute,eogonek" 	k="21" />
<hkern g1="Z,Zacute,Zdotaccent" 	g2="o,oacute" 	k="21" />
<hkern g1="Z,Zacute,Zdotaccent" 	g2="C,G,O,Q,Oacute,Cacute" 	k="26" />
<hkern g1="Z,Zacute,Zdotaccent" 	g2="u" 	k="19" />
<hkern g1="Z,Zacute,Zdotaccent" 	g2="v,y" 	k="27" />
<hkern g1="a,aogonek" 	g2="quotedbl,quotesingle,quoteleft,quoteright,quotedblleft,quotedblright" 	k="67" />
<hkern g1="a,aogonek" 	g2="v,y" 	k="15" />
<hkern g1="b,p" 	g2="quotedbl,quotesingle,quoteleft,quoteright,quotedblleft,quotedblright" 	k="29" />
<hkern g1="b,p" 	g2="v,y" 	k="11" />
<hkern g1="b,p" 	g2="z,zacute,zdotaccent" 	k="15" />
<hkern g1="b,p" 	g2="x" 	k="15" />
<hkern g1="c,cacute" 	g2="quotedbl,quotesingle,quoteleft,quoteright,quotedblleft,quotedblright" 	k="11" />
<hkern g1="e,eogonek" 	g2="quotedbl,quotesingle,quoteleft,quoteright,quotedblleft,quotedblright" 	k="14" />
<hkern g1="e,eogonek" 	g2="v,y" 	k="13" />
<hkern g1="h,m,n,nacute" 	g2="quotedbl,quotesingle,quoteleft,quoteright,quotedblleft,quotedblright" 	k="104" />
<hkern g1="o,oacute" 	g2="quotedbl,quotesingle,quoteleft,quoteright,quotedblleft,quotedblright" 	k="136" />
<hkern g1="o,oacute" 	g2="v,y" 	k="15" />
<hkern g1="o,oacute" 	g2="z,zacute,zdotaccent" 	k="16" />
<hkern g1="o,oacute" 	g2="x" 	k="21" />
<hkern g1="r" 	g2="quotedbl,quotesingle,quoteleft,quoteright,quotedblleft,quotedblright" 	k="-16" />
<hkern g1="r" 	g2="a,aogonek" 	k="40" />
<hkern g1="r" 	g2="c,d,e,g,q,cacute,eogonek" 	k="19" />
<hkern g1="r" 	g2="o,oacute" 	k="20" />
<hkern g1="r" 	g2="v,y" 	k="-18" />
<hkern g1="r" 	g2="comma,period,quotesinglbase,quotedblbase,ellipsis" 	k="123" />
<hkern g1="v,y" 	g2="quotedbl,quotesingle,quoteleft,quoteright,quotedblleft,quotedblright" 	k="-15" />
<hkern g1="v,y" 	g2="a,aogonek" 	k="15" />
<hkern g1="v,y" 	g2="c,d,e,g,q,cacute,eogonek" 	k="13" />
<hkern g1="v,y" 	g2="o,oacute" 	k="15" />
<hkern g1="v,y" 	g2="comma,period,quotesinglbase,quotedblbase,ellipsis" 	k="107" />
<hkern g1="x" 	g2="c,d,e,g,q,cacute,eogonek" 	k="20" />
<hkern g1="x" 	g2="o,oacute" 	k="20" />
<hkern g1="z,zacute,zdotaccent" 	g2="c,d,e,g,q,cacute,eogonek" 	k="16" />
<hkern g1="z,zacute,zdotaccent" 	g2="o,oacute" 	k="16" />
</font>
</defs></svg> 