<?xml version="1.0" standalone="no"?>
<!DOCTYPE svg PUBLIC "-//W3C//DTD SVG 1.1//EN" "http://www.w3.org/Graphics/SVG/1.1/DTD/svg11.dtd" >
<svg xmlns="http://www.w3.org/2000/svg">
<metadata></metadata>
<defs>
<font id="source_sans_proregular" horiz-adv-x="1017" >
<font-face units-per-em="2048" ascent="1536" descent="-512" />
<missing-glyph horiz-adv-x="413" />
<glyph horiz-adv-x="0" />
<glyph horiz-adv-x="682" />
<glyph horiz-adv-x="0" />
<glyph horiz-adv-x="0" />
<glyph unicode="&#xd;" horiz-adv-x="413" />
<glyph unicode=" "  horiz-adv-x="413" />
<glyph unicode="&#x09;" horiz-adv-x="413" />
<glyph unicode="&#xa0;" horiz-adv-x="413" />
<glyph unicode="!" horiz-adv-x="591" d="M174 102q0 59 36 95t87 36q49 0 85 -35.5t36 -95.5q0 -55 -36 -91t-85 -36q-51 0 -87 36t-36 91zM211 1372h170l-4 -192l-23 -774h-116l-23 774z" />
<glyph unicode="&#x22;" horiz-adv-x="870" d="M164 1413h180l-6 -188l-33 -342h-102l-33 342zM524 1413h180l-6 -188l-33 -342h-102l-33 342z" />
<glyph unicode="#" d="M72 418v117h178l37 303h-174v118h188l47 375h109l-47 -375h272l49 375h109l-49 -375h165v-118h-178l-37 -303h174v-117h-188l-51 -418h-109l49 418h-270l-51 -418h-111l52 418h-164zM360 535h271l37 303h-271z" />
<glyph unicode="$" d="M106 135l78 117q66 -57 145 -97t173 -40q115 0 171 57t56 154q0 82 -42 136t-105.5 94t-138 75t-138 80t-105.5 109.5t-42 164.5q0 137 80.5 228.5t216.5 113.5v205h123v-203q98 -10 166.5 -53t123.5 -102l-90 -101q-57 55 -111.5 86t-138.5 31q-94 0 -149 -53.5 t-55 -143.5q0 -74 42 -121t105.5 -82.5t138 -69.5t138 -82t105.5 -118.5t42 -181.5q0 -147 -85 -241.5t-232 -114.5v-207h-123v202q-98 10 -190.5 54.5t-158.5 103.5z" />
<glyph unicode="%" horiz-adv-x="1687" d="M72 946q0 203 83 312.5t222 109.5q137 0 221 -109.5t84 -312.5q0 -205 -84 -315.5t-221 -110.5q-139 0 -222 111t-83 315zM199 946q0 -160 49 -240.5t129 -80.5q78 0 127 81t49 240q0 160 -49 239t-127 79q-80 0 -129 -79t-49 -239zM414 -25l741 1393h115l-741 -1393 h-115zM1008 401q0 203 83 312.5t222 109.5q137 0 221 -109.5t84 -312.5q0 -205 -84 -315.5t-221 -110.5q-139 0 -222 111t-83 315zM1135 401q0 -160 49 -240.5t129 -80.5q78 0 127 81t49 240q0 160 -49 239t-127 79q-80 0 -129 -79t-49 -239z" />
<glyph unicode="&#x26;" horiz-adv-x="1247" d="M66 348q0 68 21.5 123t58 102.5t85 87t99.5 74.5q-41 84 -64.5 163t-23.5 153q0 68 22.5 125t63.5 100t98 67.5t127 24.5q125 0 194.5 -73.5t69.5 -192.5q0 -66 -26.5 -121t-69.5 -103.5t-97.5 -90.5t-109.5 -82q66 -104 155 -200.5t185 -176.5q61 84 109.5 182t78.5 215 h158q-41 -133 -98.5 -254t-136.5 -227q70 -47 133 -80t119 -49l-46 -140q-72 20 -149.5 58.5t-159.5 95.5q-78 -70 -173 -112t-214 -42q-92 0 -167 28t-129 77t-83.5 117.5t-29.5 150.5zM229 358q0 -55 20.5 -101t56.5 -79t84 -50t104 -17q70 0 133 28.5t123 79.5 q-98 86 -189.5 188.5t-163.5 210.5q-72 -57 -120 -119.5t-48 -140.5zM387 1053q0 -55 17.5 -114.5t46.5 -121.5q45 31 87 62.5t73.5 65.5t50 72t18.5 83q0 59 -29.5 103t-97.5 44q-76 0 -121 -55t-45 -139z" />
<glyph unicode="'" horiz-adv-x="509" d="M164 1413h180l-6 -188l-33 -342h-102l-33 342z" />
<glyph unicode="(" horiz-adv-x="620" d="M168 569q0 270 71.5 496.5t198.5 433.5l105 -49q-119 -197 -177.5 -421t-58.5 -460t58.5 -460t177.5 -420l-105 -49q-127 205 -198.5 432t-71.5 497z" />
<glyph unicode=")" horiz-adv-x="620" d="M78 -311q119 197 177 421t58 459q0 236 -58 460t-177 421l104 49q127 -207 199 -433t72 -497q0 -270 -72 -497.5t-199 -431.5z" />
<glyph unicode="*" horiz-adv-x="856" d="M119 1194l31 94l208 -51l19 221h100l19 -219l211 49l30 -94l-198 -82l114 -192l-80 -60l-145 176l-145 -176l-82 60l116 192z" />
<glyph unicode="+" d="M70 612v127h372v400h133v-400h373v-127h-373v-399h-133v399h-372z" />
<glyph unicode="," horiz-adv-x="509" d="M96 -250q86 39 135.5 102.5t49.5 147.5q-6 -2 -21 -2q-49 0 -85 29.5t-36 87.5q0 55 37 86.5t88 31.5q66 0 104 -53t38 -145q0 -133 -72 -231.5t-197 -151.5z" />
<glyph unicode="-" horiz-adv-x="636" d="M84 449v129h471v-129h-471z" />
<glyph unicode="." horiz-adv-x="509" d="M133 102q0 59 36 95t87 36q49 0 85 -35.5t36 -95.5q0 -55 -36 -91t-85 -36q-51 0 -87 36t-36 91z" />
<glyph unicode="/" horiz-adv-x="716" d="M20 -328l547 1782h123l-547 -1782h-123z" />
<glyph unicode="0" d="M90 657q0 330 110.5 502t309.5 172q197 0 307.5 -172t110.5 -502t-110.5 -506t-307.5 -176q-199 0 -309.5 176.5t-110.5 505.5zM254 657q0 -287 70.5 -416.5t185.5 -129.5q57 0 103 31.5t80 98t52.5 170t18.5 246.5t-18.5 246t-52.5 167.5t-80 95t-103 30.5t-104.5 -30.5 t-81 -95t-52 -167t-18.5 -246.5z" />
<glyph unicode="1" d="M162 0v139h299v963h-238v108q90 16 156.5 40t120.5 57h129v-1168h270v-139h-737z" />
<glyph unicode="2" d="M74 1133q82 90 174 144t221 54q182 0 286.5 -105.5t104.5 -279.5q0 -92 -40 -185t-110.5 -192.5t-168 -207t-213.5 -228.5q53 4 110.5 8t108.5 4h379v-145h-844v100q147 147 262 266t192.5 220.5t118.5 186.5t41 165q0 113 -61.5 184.5t-185.5 71.5q-82 0 -152 -46 t-127 -112z" />
<glyph unicode="3" d="M53 160l86 110q59 -61 138 -108t196 -47q119 0 194.5 64.5t75.5 174.5q0 57 -21.5 105.5t-70.5 83.5t-129 53t-196 18v129q104 0 174.5 18.5t114.5 51.5t62.5 78t18.5 96q0 96 -60.5 151.5t-164.5 55.5q-82 0 -150.5 -37t-127.5 -96l-91 106q76 72 167 118t208 46 q86 0 158 -22.5t124 -64.5t80.5 -103.5t28.5 -141.5q0 -119 -65.5 -194.5t-171.5 -116.5v-8q59 -14 110.5 -42t90 -70t60 -97t21.5 -123q0 -86 -33.5 -155.5t-92 -117.5t-136.5 -74t-168 -26q-78 0 -142.5 15.5t-117.5 41t-95 58.5t-75 70z" />
<glyph unicode="4" d="M35 360v111l559 836h188v-811h179v-136h-179v-360h-159v360h-588zM213 496h410v378q0 53 3 126t7 126h-8q-25 -47 -51.5 -92t-55.5 -92z" />
<glyph unicode="5" d="M51 154l82 110q57 -59 136 -104t194 -45q59 0 111.5 21.5t91.5 60.5t61.5 94t22.5 123q0 135 -76 210.5t-203 75.5q-68 0 -116 -20.5t-107 -58.5l-90 57l43 629h653v-146h-506l-35 -387q47 25 94.5 39t106.5 14q84 0 157.5 -24.5t129 -74.5t87.5 -127t32 -183t-37 -188.5 t-98.5 -138.5t-140.5 -86t-165 -30q-78 0 -142.5 15.5t-116.5 40t-94 56.5t-75 67z" />
<glyph unicode="6" d="M98 604q0 197 41 335t110.5 225t159 127t187.5 40q106 0 183 -40t132 -99l-94 -105q-41 47 -97 75t-118 28q-68 0 -129 -28.5t-108.5 -94.5t-76 -171t-30.5 -261q61 76 143 120t162 44q170 0 271.5 -100.5t101.5 -303.5q0 -94 -31 -171t-84 -132t-122.5 -86t-149.5 -31 q-96 0 -178 39t-142.5 118t-95.5 196.5t-35 275.5zM262 500q16 -193 89 -292t198 -99q49 0 90 20.5t71.5 58t48 90t17.5 117.5q0 129 -59.5 203t-181.5 74q-61 0 -134 -40t-139 -132z" />
<glyph unicode="7" d="M90 1161v146h842v-105q-117 -147 -189.5 -282.5t-115.5 -275.5t-62.5 -297t-27.5 -347h-175q8 184 33 338t69 292t112.5 267t164.5 264h-651z" />
<glyph unicode="8" d="M84 334q0 63 21.5 117.5t55.5 98.5t78 78t91 58v8q-72 51 -127.5 124t-55.5 177q0 76 29 137.5t78 105.5t116.5 68.5t147.5 24.5q86 0 153.5 -25.5t116 -71.5t74 -110.5t25.5 -140.5q0 -51 -17.5 -98t-43 -88t-57.5 -74t-62 -55v-9q43 -25 83.5 -56.5t72.5 -71t51.5 -91 t19.5 -116.5q0 -74 -31 -137.5t-86 -110.5t-133 -74t-172 -27q-92 0 -171 27t-135 75t-89 113.5t-33 143.5zM236 350q0 -55 21.5 -100t59 -79t89 -52.5t110.5 -18.5q115 0 185.5 63.5t70.5 166.5q0 63 -28.5 108t-78 79t-114 61.5t-133.5 56.5q-78 -53 -130 -124t-52 -161z M303 995q0 -59 24.5 -101t66.5 -75t96.5 -58t113.5 -48q66 59 101.5 124.5t35.5 137.5q0 98 -59 164.5t-168 66.5q-92 0 -151.5 -57t-59.5 -154z" />
<glyph unicode="9" d="M82 911q0 94 30.5 171t83 132.5t123 86t148.5 30.5q96 0 179 -39t143.5 -117.5t94.5 -196.5t34 -276q0 -197 -41 -335t-111 -225t-159 -127t-187 -40q-104 0 -183 39t-133 99l95 106q41 -47 97 -75.5t118 -28.5q70 0 131 28.5t108 95t76 173t31 264.5q-61 -78 -143 -123 t-164 -45q-170 0 -270.5 100.5t-100.5 302.5zM240 911q0 -129 59 -202.5t182 -73.5q63 0 136 40t139 134q-16 193 -90 291t-199 98q-47 0 -89 -20.5t-73 -58.5t-48 -91t-17 -117z" />
<glyph unicode=":" horiz-adv-x="509" d="M133 102q0 59 36 95t87 36q49 0 85 -35.5t36 -95.5q0 -55 -36 -91t-85 -36q-51 0 -87 36t-36 91zM133 841q0 59 36 95t87 36q49 0 85 -35.5t36 -95.5q0 -55 -36 -91t-85 -36q-51 0 -87 36t-36 91z" />
<glyph unicode=";" horiz-adv-x="509" d="M96 -250q86 39 135.5 102.5t49.5 147.5q-6 -2 -21 -2q-49 0 -85 29.5t-36 87.5q0 55 37 86.5t88 31.5q66 0 104 -53t38 -145q0 -133 -72 -231.5t-197 -151.5zM133 841q0 59 36 95t87 36q49 0 85 -35.5t36 -95.5q0 -55 -36 -91t-85 -36q-51 0 -87 36t-36 91z" />
<glyph unicode="&#x3c;" d="M70 612v136l878 344v-146l-432 -160l-274 -102v-8l274 -103l432 -159v-146z" />
<glyph unicode="=" d="M70 395v127h878v-127h-878zM70 831v127h878v-127h-878z" />
<glyph unicode="&#x3e;" d="M70 268v146l432 159l274 103v8l-274 102l-432 160v146l878 -344v-136z" />
<glyph unicode="?" horiz-adv-x="870" d="M78 1227q66 74 149.5 122t194.5 48q160 0 255 -87t95 -241q0 -68 -24.5 -123t-60.5 -104t-76 -97.5t-73.5 -99.5t-52 -109.5t-10.5 -129.5h-147q-12 80 5 144t48 118.5t71 101.5t74.5 93t58 93.5t23.5 102.5q0 82 -50 140t-148 58q-68 0 -128.5 -31.5t-107.5 -86.5z M285 102q0 59 34.5 95t86.5 36q51 0 86.5 -35.5t35.5 -95.5q0 -55 -35.5 -91t-86.5 -36t-86 36t-35 91z" />
<glyph unicode="@" horiz-adv-x="1734" d="M104 416q0 205 69 372.5t186.5 286.5t272 183.5t326.5 64.5q156 0 280 -49t211 -138t134 -214t47 -277q0 -135 -38 -236.5t-97 -170t-132 -103.5t-142 -35q-84 0 -142.5 39t-68.5 117h-4q-51 -59 -117 -99t-133 -40q-104 0 -175 73.5t-71 215.5q0 82 27.5 166.5t79 153.5 t124 112t162.5 43q53 0 94 -23.5t70 -75.5h4l23 82h112l-80 -409q-61 -240 111 -240q49 0 97 28.5t88 83t64.5 133.5t24.5 179q0 123 -35.5 228.5t-107.5 181t-178.5 118.5t-245.5 43q-137 0 -266 -56t-229.5 -158.5t-161 -248t-60.5 -325.5q0 -150 46 -266.5t128 -196.5 t194 -122t243 -42q94 0 178 25.5t153 66.5l45 -100q-174 -104 -389 -104q-152 0 -282.5 47t-228 140t-154 230.5t-56.5 315.5zM645 416q0 -98 41 -141.5t102 -43.5q43 0 89.5 29t99.5 92l59 326q-29 47 -59.5 66.5t-71.5 19.5q-61 0 -109 -33t-82 -84t-51.5 -112.5 t-17.5 -118.5z" />
<glyph unicode="A" horiz-adv-x="1114" d="M6 0l455 1343h192l455 -1343h-182l-127 410h-490l-129 -410h-174zM352 547h404l-64 205q-37 113 -69.5 224t-65.5 228h-8q-31 -117 -63.5 -228.5t-69.5 -223.5z" />
<glyph unicode="B" horiz-adv-x="1204" d="M184 0v1343h400q102 0 187 -18t145.5 -57t94 -101.5t33.5 -150.5q0 -100 -57 -181t-176 -112v-8q147 -23 229 -103t82 -219q0 -98 -36.5 -172t-104.5 -123t-162 -73.5t-207 -24.5h-428zM354 135h234q174 0 270 64.5t96 201.5q0 125 -94 183.5t-272 58.5h-234v-508z M354 770h199q174 0 249 59.5t75 171.5q0 111 -79 159t-237 48h-207v-438z" />
<glyph unicode="C" horiz-adv-x="1169" d="M106 672q0 162 45.5 291t125 219t189 138t239.5 48q123 0 215 -50t151 -116l-96 -108q-53 57 -117.5 91t-150.5 34q-96 0 -174 -38t-133.5 -109t-86 -171t-30.5 -225q0 -127 29.5 -228.5t83 -173t130 -110.5t172.5 -39q98 0 171 39t139 110l96 -104 q-80 -92 -180.5 -143.5t-229.5 -51.5q-127 0 -234.5 47.5t-186 136.5t-123 219t-44.5 294z" />
<glyph unicode="D" horiz-adv-x="1259" d="M184 0v1343h336q311 0 473 -172t162 -493q0 -160 -41 -286t-121 -213t-196.5 -133t-268.5 -46h-344zM354 139h154q236 0 353.5 141.5t117.5 397.5t-118 391t-353 135h-154v-1065z" />
<glyph unicode="E" horiz-adv-x="1079" d="M184 0v1343h774v-143h-604v-422h510v-145h-510v-488h625v-145h-795z" />
<glyph unicode="F" horiz-adv-x="1011" d="M184 0v1343h774v-143h-604v-455h512v-143h-512v-602h-170z" />
<glyph unicode="G" horiz-adv-x="1263" d="M106 672q0 162 46.5 291t129.5 219t195.5 138t247.5 48q139 0 232.5 -52t152.5 -114l-96 -108q-51 53 -118 89t-169 36t-184 -38t-139.5 -109t-89 -171t-31.5 -225q0 -127 29.5 -228.5t86 -173t139.5 -110.5t191 -39q72 0 136.5 21.5t105.5 58.5v350h-285v141h440v-565 q-66 -68 -173 -112t-242 -44q-133 0 -244 47.5t-190.5 136.5t-125 219t-45.5 294z" />
<glyph unicode="H" horiz-adv-x="1335" d="M184 0v1343h170v-563h625v563h172v-1343h-172v633h-625v-633h-170z" />
<glyph unicode="I" horiz-adv-x="538" d="M184 0v1343h170v-1343h-170z" />
<glyph unicode="J" horiz-adv-x="983" d="M63 190l123 86q45 -80 102.5 -115.5t129.5 -35.5q109 0 162 66.5t53 220.5v931h172v-948q0 -86 -21.5 -162.5t-65.5 -134t-115 -90.5t-169 -33q-252 0 -371 215z" />
<glyph unicode="K" horiz-adv-x="1185" d="M184 0v1343h170v-673h6l560 673h192l-420 -512l486 -831h-191l-401 698l-232 -272v-426h-170z" />
<glyph unicode="L" horiz-adv-x="995" d="M184 0v1343h170v-1198h588v-145h-758z" />
<glyph unicode="M" horiz-adv-x="1488" d="M184 0v1343h201l260 -720l98 -275h9l94 275l258 720h201v-1343h-162v739q0 90 7 199t15 199h-8l-108 -299l-258 -703h-97l-260 703l-106 299h-9q6 -90 14.5 -199t8.5 -199v-739h-158z" />
<glyph unicode="N" horiz-adv-x="1325" d="M184 0v1343h176l486 -843l145 -279h8q-6 102 -13 212t-7 216v694h162v-1343h-176l-488 846l-145 276h-8q8 -102 15 -207.5t7 -212.5v-702h-162z" />
<glyph unicode="O" horiz-adv-x="1359" d="M106 678q0 162 42 290t118 217t181.5 136t232.5 47t232.5 -48t182 -137t118.5 -217t42 -288q0 -162 -42 -292t-118.5 -221t-182 -140.5t-232.5 -49.5t-232.5 49.5t-181.5 140.5t-118 221t-42 292zM283 678q0 -127 28.5 -228.5t80.5 -174t125 -111.5t163 -39t162.5 39 t125 111.5t81 174t28.5 228.5q0 125 -28.5 225.5t-81 170t-125 107.5t-162.5 38t-163 -38t-125 -107.5t-80.5 -170t-28.5 -225.5z" />
<glyph unicode="P" horiz-adv-x="1179" d="M184 0v1343h412q111 0 203 -20t156.5 -66.5t100.5 -122t36 -186.5q0 -106 -36 -184t-101.5 -129t-156.5 -77t-202 -26h-242v-532h-170zM354 672h221q176 0 261.5 66.5t85.5 209.5q0 145 -86 201.5t-261 56.5h-221v-534z" />
<glyph unicode="Q" horiz-adv-x="1359" d="M106 678q0 162 42 290t118 217t181.5 136t232.5 47t232.5 -48t182 -137t118.5 -217t42 -288q0 -145 -33.5 -265t-96 -209t-150.5 -145.5t-195 -74.5q47 -90 133 -133.5t197 -43.5q45 0 79 6.5t62 14.5l33 -133q-31 -10 -82 -20.5t-110 -10.5q-186 0 -311.5 89t-184.5 229 q-111 14 -201 69t-154.5 145.5t-99.5 212t-35 269.5zM283 678q0 -129 28.5 -232.5t80.5 -177t125 -112.5t163 -39t162.5 39t125 112.5t81 177t28.5 232.5q0 125 -28.5 225.5t-81 170t-125 107.5t-162.5 38t-163 -38t-125 -107.5t-80.5 -170t-28.5 -225.5z" />
<glyph unicode="R" horiz-adv-x="1189" d="M184 0v1343h420q102 0 189.5 -19t150 -64.5t97 -117t34.5 -175.5q0 -158 -82 -252t-219 -129l340 -586h-192l-324 567h-244v-567h-170zM354 707h226q158 0 241.5 64.5t83.5 195.5q0 133 -84 186t-241 53h-226v-499z" />
<glyph unicode="S" horiz-adv-x="1093" d="M86 174l102 119q72 -76 169.5 -122t201.5 -46q133 0 207 60.5t74 158.5q0 51 -17.5 87t-47.5 61.5t-70.5 46t-88.5 43.5l-192 84q-47 20 -96 48.5t-88 69.5t-63.5 97.5t-24.5 130.5q0 76 31.5 141.5t88 113.5t133 74.5t168.5 26.5q121 0 223.5 -46t174.5 -120l-92 -110 q-61 59 -136 93t-170 34q-113 0 -181 -52.5t-68 -144.5q0 -49 19 -83t52 -59.5t72 -45t80 -35.5l190 -82q57 -25 108.5 -56.5t88.5 -73.5t58.5 -98.5t21.5 -130.5q0 -80 -32 -149.5t-91.5 -121.5t-143 -82t-190.5 -30q-141 0 -262 53.5t-209 145.5z" />
<glyph unicode="T" horiz-adv-x="1097" d="M57 1200v143h983v-143h-405v-1200h-172v1200h-406z" />
<glyph unicode="U" horiz-adv-x="1320" d="M178 555v788h170v-792q0 -121 24.5 -203t66.5 -131t99.5 -70.5t123.5 -21.5q68 0 125 21.5t100 70.5t67.5 131t24.5 203v792h164v-788q0 -162 -37 -272.5t-101.5 -179t-152.5 -98.5t-190 -30t-191.5 30t-154 98.5t-101.5 179t-37 272.5z" />
<glyph unicode="V" horiz-adv-x="1054" d="M0 1343h182l215 -725q37 -121 64.5 -223t66.5 -221h9q37 119 65.5 221.5t63.5 222.5l215 725h174l-426 -1343h-199z" />
<glyph unicode="W" horiz-adv-x="1609" d="M47 1343h176l142 -731q18 -111 38.5 -217t38.5 -217h9q23 111 47 218.5t47 215.5l186 731h156l186 -731q25 -106 49.5 -214.5t48.5 -219.5h9q18 111 36.5 218.5t38.5 215.5l142 731h164l-279 -1343h-205l-203 809q-18 78 -33.5 152.5t-31.5 152.5h-8 q-16 -78 -33.5 -152.5t-34.5 -152.5l-198 -809h-203z" />
<glyph unicode="X" horiz-adv-x="1050" d="M31 0l391 694l-365 649h189l182 -344q27 -47 50.5 -91t53.5 -103h9q29 59 50 103t46 91l178 344h180l-366 -657l391 -686h-189l-196 362q-27 49 -54.5 101.5t-60.5 114.5h-8q-29 -61 -55.5 -113.5t-50.5 -102.5l-195 -362h-180z" />
<glyph unicode="Y" horiz-adv-x="974" d="M-2 1343h182l174 -378q33 -74 64 -145.5t65 -147.5h9q35 76 69.5 147.5t65.5 145.5l172 378h178l-404 -823v-520h-172v520z" />
<glyph unicode="Z" horiz-adv-x="1103" d="M92 0v102l707 1098h-643v143h856v-100l-709 -1098h715v-145h-926z" />
<glyph unicode="[" horiz-adv-x="620" d="M193 -311v1761h366v-96h-240v-1569h240v-96h-366z" />
<glyph unicode="\" horiz-adv-x="716" d="M29 1454h121l546 -1782h-121z" />
<glyph unicode="]" horiz-adv-x="620" d="M63 -215h238v1569h-238v96h365v-1761h-365v96z" />
<glyph unicode="^" d="M123 582l311 790h150l311 -790h-147l-134 360l-100 272h-8l-103 -272l-133 -360h-147z" />
<glyph unicode="_" horiz-adv-x="1024" d="M25 -145h974v-113h-974v113z" />
<glyph unicode="`" horiz-adv-x="1110" d="M328 1462h176l184 -288h-129z" />
<glyph unicode="a" horiz-adv-x="1048" d="M119 258q0 164 146.5 251t465.5 122q0 47 -9 92t-32.5 80t-62.5 56.5t-101 21.5q-88 0 -162.5 -33t-134.5 -74l-67 117q70 45 170 87t221 42q182 0 264 -111.5t82 -298.5v-610h-139l-15 119h-4q-72 -59 -154.5 -101.5t-174.5 -42.5q-127 0 -210 74t-83 209zM285 270 q0 -86 50 -122.5t124 -36.5q72 0 136 33.5t136 99.5v276q-125 -16 -211 -38.5t-138 -53.5t-74.5 -71t-22.5 -87z" />
<glyph unicode="b" horiz-adv-x="1136" d="M168 0v1458h168v-397l-4 -180q68 59 147.5 99t163.5 40q96 0 170 -36t124 -102.5t75.5 -159.5t25.5 -208q0 -127 -34.5 -227.5t-94 -170t-137.5 -105.5t-164 -36q-70 0 -144.5 32t-139.5 91h-7l-14 -98h-135zM336 221q66 -57 130 -80.5t114 -23.5q61 0 113 27.5t90 77.5 t59.5 124t21.5 166q0 82 -14 149.5t-46 115.5t-82 75t-120 27q-121 0 -266 -136v-522z" />
<glyph unicode="c" horiz-adv-x="933" d="M94 496q0 125 39 222t104.5 164.5t152.5 102.5t183 35q98 0 169 -36t122 -83l-84 -108q-45 39 -93 63.5t-107 24.5q-68 0 -125.5 -28t-98.5 -79t-64.5 -121.5t-23.5 -156.5t22.5 -156t62.5 -120t97.5 -77.5t124.5 -27.5q72 0 130.5 29.5t103.5 70.5l76 -111 q-68 -59 -151 -94t-173 -35q-98 0 -184 35t-148.5 101.5t-98.5 164t-36 220.5z" />
<glyph unicode="d" horiz-adv-x="1136" d="M96 496q0 121 36 218t95.5 164.5t137 104.5t163.5 37t149.5 -31t129.5 -84l-8 170v383h170v-1458h-140l-14 117h-6q-59 -57 -136 -99.5t-165 -42.5q-188 0 -300 135.5t-112 385.5zM270 498q0 -180 72 -280.5t203 -100.5q70 0 131 33.5t123 103.5v520q-63 57 -122 81 t-120 24q-59 0 -111.5 -28t-91.5 -78t-61.5 -119.5t-22.5 -155.5z" />
<glyph unicode="e" horiz-adv-x="1015" d="M94 496q0 123 38 220t100.5 164.5t142.5 103.5t166 36q94 0 168.5 -33t125 -94.5t77 -147.5t26.5 -192q0 -55 -6 -92h-672q10 -162 99.5 -256t232.5 -94q72 0 132 21.5t116 55.5l59 -110q-66 -41 -145.5 -72t-182.5 -31q-100 0 -187 36t-151.5 102.5t-101.5 163 t-37 219.5zM258 571h533q0 154 -64.5 235t-181.5 81q-53 0 -101.5 -21.5t-87.5 -61.5t-64.5 -98.5t-33.5 -134.5z" />
<glyph unicode="f" horiz-adv-x="598" d="M61 858v127l136 10v158q0 154 70.5 242t219.5 88q47 0 89 -9.5t77 -23.5l-37 -129q-55 25 -112 25q-139 0 -139 -193v-158h210v-137h-210v-858h-168v858h-136z" />
<glyph unicode="g" horiz-adv-x="1032" d="M92 -190q0 63 39 120.5t107 104.5v8q-37 23 -62.5 62.5t-25.5 99.5q0 63 34.5 110t73.5 74v8q-49 41 -89 109.5t-40 159.5q0 82 29.5 147.5t81 111.5t120 70.5t144.5 24.5q41 0 76.5 -7t64.5 -18h346v-129h-205q35 -35 58.5 -88t23.5 -116q0 -80 -28.5 -144.5 t-77.5 -108.5t-115.5 -69t-142.5 -25q-37 0 -76 9.5t-74 25.5q-27 -23 -45 -50.5t-18 -68.5q0 -47 37 -77.5t139 -30.5h192q174 0 261.5 -56.5t87.5 -181.5q0 -70 -35 -132t-100.5 -109t-158.5 -75t-210 -28q-92 0 -168 17.5t-130 52.5t-84 84t-30 115zM240 -168 q0 -80 76.5 -127t211.5 -47q72 0 130.5 17.5t99.5 45t63.5 64.5t22.5 76q0 70 -51.5 96.5t-149.5 26.5h-172q-29 0 -62.5 3t-66.5 13q-53 -39 -77.5 -82t-24.5 -86zM293 666q0 -55 16.5 -99.5t46 -75t67.5 -47t81 -16.5t81 16.5t67.5 47t46 74.5t16.5 100q0 111 -61.5 171 t-149.5 60t-149.5 -60.5t-61.5 -170.5z" />
<glyph unicode="h" horiz-adv-x="1114" d="M168 0v1458h168v-397l-6 -205q72 68 149.5 116t182.5 48q158 0 230.5 -98.5t72.5 -290.5v-631h-168v608q0 141 -45 203.5t-144 62.5q-78 0 -137 -38.5t-135 -114.5v-721h-168z" />
<glyph unicode="i" horiz-adv-x="503" d="M137 1309q0 49 34 78.5t83 29.5t83 -29.5t34 -78.5q0 -47 -34 -78t-83 -31t-83 31t-34 78zM168 0v995h168v-995h-168z" />
<glyph unicode="j" horiz-adv-x="505" d="M-82 -418l35 127q18 -6 42.5 -11t51.5 -5q74 0 98.5 51t24.5 143v1108h168v-1108q0 -152 -61.5 -241.5t-210.5 -89.5q-47 0 -84 8t-64 18zM139 1309q0 49 34 78.5t83 29.5q47 0 81 -29.5t34 -78.5q0 -47 -34 -78t-81 -31q-49 0 -83 31t-34 78z" />
<glyph unicode="k" horiz-adv-x="1013" d="M168 0v1458h166v-987h6l424 524h186l-334 -399l379 -596h-184l-291 479l-186 -217v-262h-166z" />
<glyph unicode="l" horiz-adv-x="522" d="M168 201v1257h168v-1270q0 -41 14.5 -57t32.5 -16h15.5t21.5 4l22 -127q-16 -8 -38.5 -12.5t-57.5 -4.5q-96 0 -137 57.5t-41 168.5z" />
<glyph unicode="m" horiz-adv-x="1697" d="M168 0v995h139l15 -143h6q66 72 142.5 120t166.5 48q115 0 179.5 -50t94.5 -141q78 86 157 138.5t171 52.5q154 0 228.5 -98.5t74.5 -290.5v-631h-168v608q0 141 -45 203.5t-139 62.5q-113 0 -250 -153v-721h-168v608q0 141 -45 203.5t-141 62.5q-113 0 -250 -153v-721 h-168z" />
<glyph unicode="n" horiz-adv-x="1120" d="M168 0v995h139l15 -143h6q72 72 150.5 120t183.5 48q158 0 230.5 -98.5t72.5 -290.5v-631h-168v608q0 141 -45 203.5t-144 62.5q-78 0 -137 -38.5t-135 -114.5v-721h-168z" />
<glyph unicode="o" horiz-adv-x="1110" d="M94 496q0 125 38 222t101.5 164.5t146.5 102.5t175 35t175 -35t146.5 -102.5t101.5 -164.5t38 -222q0 -123 -38 -220.5t-101.5 -164t-146.5 -101.5t-175 -35t-175 35t-146.5 101.5t-101.5 164t-38 220.5zM268 496q0 -86 20.5 -156t58.5 -120t91.5 -77.5t116.5 -27.5 t116.5 27.5t91.5 77.5t58.5 120t20.5 156t-20.5 156.5t-58.5 121.5t-91.5 79t-116.5 28t-116.5 -28t-91.5 -79t-58.5 -121.5t-20.5 -156.5z" />
<glyph unicode="p" horiz-adv-x="1136" d="M168 -420v1415h139l15 -114h6q68 57 148.5 98t168.5 41q96 0 170 -36t123 -102.5t74.5 -159.5t25.5 -210q0 -127 -34.5 -226.5t-94 -169t-137.5 -105.5t-164 -36q-70 0 -138.5 31t-137.5 84l4 -174v-336h-168zM336 221q68 -57 131 -80.5t113 -23.5q61 0 113 27.5t90 77.5 t59.5 124t21.5 166q0 82 -14 149.5t-46 115.5t-82 75t-120 27q-63 0 -127.5 -35t-138.5 -101v-522z" />
<glyph unicode="q" horiz-adv-x="1126" d="M96 496q0 121 36 218t95.5 164.5t137 104.5t163.5 37t151.5 -29.5t133.5 -89.5h4l17 94h135v-1415h-170v354l8 177q-59 -55 -136 -95.5t-163 -40.5q-188 0 -300 135.5t-112 385.5zM270 498q0 -180 72 -280.5t203 -100.5q70 0 131 33.5t123 103.5v520q-63 57 -122 81 t-120 24q-59 0 -111.5 -28t-91.5 -78t-61.5 -119.5t-22.5 -155.5z" />
<glyph unicode="r" horiz-adv-x="710" d="M168 0v995h139l15 -180h6q51 94 123.5 149.5t158.5 55.5q59 0 107 -21l-33 -147q-25 8 -45.5 12t-50.5 4q-63 0 -132 -51t-120 -178v-639h-168z" />
<glyph unicode="s" horiz-adv-x="858" d="M57 113l84 112q66 -53 134.5 -86t158.5 -33q98 0 147.5 45.5t49.5 110.5q0 39 -20.5 67.5t-52.5 50t-73 38t-82 33.5q-53 18 -106 41.5t-95 57.5t-69 79t-27 108q0 59 24 111.5t68 90.5t107.5 59.5t143.5 21.5q94 0 172.5 -33t136.5 -80l-80 -106q-51 39 -106.5 63.5 t-120.5 24.5q-94 0 -138.5 -43t-44.5 -101q0 -35 18.5 -60.5t49.5 -44.5t70.5 -34.5t82.5 -32.5q53 -20 107.5 -42.5t97.5 -56.5t71 -83t28 -119q0 -61 -24 -114.5t-70 -94t-114.5 -64.5t-156.5 -24q-106 0 -202.5 39t-168.5 99z" />
<glyph unicode="t" horiz-adv-x="692" d="M49 858v127l156 10l20 279h142v-279h268v-137h-268v-553q0 -92 33.5 -142t119.5 -50q27 0 57.5 8t55.5 18l33 -127q-41 -14 -89.5 -25.5t-95.5 -11.5q-80 0 -134 25t-88 68t-48 104t-14 135v551h-148z" />
<glyph unicode="u" horiz-adv-x="1114" d="M154 365v630h170v-608q0 -141 44 -203.5t142 -62.5q78 0 137.5 40t130.5 128v706h168v-995h-139l-14 156h-7q-70 -82 -146.5 -131.5t-180.5 -49.5q-160 0 -232.5 98.5t-72.5 291.5z" />
<glyph unicode="v" horiz-adv-x="956" d="M25 995h174l188 -565q23 -74 46.5 -147.5t45.5 -145.5h8q23 72 45.5 145.5t45.5 147.5l188 565h166l-352 -995h-197z" />
<glyph unicode="w" horiz-adv-x="1470" d="M49 995h172l148 -575q16 -72 30.5 -139.5t28.5 -137.5h8q16 70 32.5 138.5t35.5 138.5l153 575h164l156 -575q18 -72 35.5 -139.5t34.5 -137.5h8q16 70 30.5 137.5t30.5 139.5l146 575h159l-266 -995h-205l-143 535q-18 72 -33.5 141t-34.5 145h-8q-16 -76 -32.5 -146.5 t-36.5 -142.5l-140 -532h-196z" />
<glyph unicode="x" horiz-adv-x="913" d="M29 0l325 520l-301 475h183l133 -219q23 -41 47 -83t51 -83h8q23 41 45.5 83t44.5 83l121 219h176l-301 -493l324 -502h-183l-145 231q-27 45 -53.5 90.5t-54.5 88.5h-9q-27 -43 -51 -87t-49 -92l-135 -231h-176z" />
<glyph unicode="y" horiz-adv-x="956" d="M25 995h174l202 -551q23 -66 48.5 -138.5t48.5 -141.5h8q23 68 43 141.5t41 138.5l178 551h164l-375 -1077q-27 -74 -59.5 -137.5t-77.5 -109.5t-102.5 -72.5t-133.5 -26.5q-35 0 -63.5 5t-52.5 15l32 134q16 -4 37 -9.5t39 -5.5q86 0 140.5 60.5t84.5 152.5l23 74z" />
<glyph unicode="z" horiz-adv-x="870" d="M63 0v90l525 768h-467v137h680v-90l-525 -768h541v-137h-754z" />
<glyph unicode="{" horiz-adv-x="620" d="M70 516v107q51 0 85.5 14t54 35.5t28 50.5t8.5 57q0 104 -9.5 194.5t-9.5 203.5q0 158 59.5 215t180.5 57h92v-96h-55q-84 0 -111.5 -43t-27.5 -144q0 -94 6 -180t6 -190q0 -100 -29 -152.5t-94 -71.5v-8q66 -18 94.5 -71.5t28.5 -151.5q0 -104 -6 -190t-6 -181 q0 -100 27.5 -143t111.5 -43h55v-96h-92q-121 0 -180.5 57t-59.5 215q0 55 3 105.5t6.5 97.5t6.5 94t3 98q0 31 -8.5 58.5t-28 50t-54 37t-85.5 14.5z" />
<glyph unicode="|" horiz-adv-x="493" d="M188 -512v2048h119v-2048h-119z" />
<glyph unicode="}" horiz-adv-x="620" d="M63 -215h54q84 0 111.5 43t27.5 143q0 94 -5 180.5t-5 190.5q0 98 27.5 151.5t93.5 71.5v8q-66 18 -93.5 70.5t-27.5 153.5q0 104 5 190t5 180q0 100 -27.5 143.5t-111.5 43.5h-54v96h91q61 0 106 -13.5t75 -44t44 -83t14 -131.5q0 -113 -9 -203t-9 -195q0 -59 37 -107 t139 -50v-107q-51 0 -85 -14.5t-54.5 -37t-28.5 -50t-8 -58.5q0 -51 3 -98l6 -94t6 -97.5t3 -105.5q0 -80 -14 -132t-44 -83t-75 -44t-106 -13h-91v96z" />
<glyph unicode="~" d="M74 641q55 98 122.5 141t133.5 43q61 0 109 -26.5t90 -59t81 -59.5t82 -27q45 0 84 30t74 95l94 -69q-55 -98 -122.5 -140.5t-133.5 -42.5q-61 0 -109.5 27t-90.5 59.5t-80.5 59t-81.5 26.5q-45 0 -84 -29.5t-74 -95.5z" />
<glyph unicode="&#xa2;" d="M125 635q0 106 31.5 190t87 145.5t131.5 99.5t162 50v217h106v-211q90 -4 155.5 -38.5t112.5 -79.5l-82 -107q-41 37 -87 59.5t-99 26.5v-704q66 4 119 31.5t94 64.5l74 -107q-59 -53 -133 -87.5t-154 -41.5v-211h-106v213q-92 10 -168 48t-130.5 99.5t-84 147.5 t-29.5 195zM293 635q0 -137 63.5 -227.5t180.5 -116.5v686q-113 -27 -178.5 -117t-65.5 -225z" />
<glyph unicode="&#xa3;" d="M109 584v106l137 8h37q-20 66 -38 128.5t-18 127.5q0 86 28 156t78 119t119.5 75.5t155.5 26.5q111 0 187.5 -44t130.5 -109l-99 -97q-39 47 -88 78t-118 31q-111 0 -169.5 -66.5t-58.5 -173.5q0 -66 15.5 -126t33.5 -126h326v-114h-299q4 -29 7 -56.5t3 -58.5 q0 -109 -32.5 -180.5t-94.5 -134.5v-9h576v-145h-817v102q104 57 160.5 154.5t56.5 214.5q0 29 -4.5 56.5t-10.5 56.5h-204z" />
<glyph unicode="&#xa5;" d="M47 1307h176l160 -351q31 -68 60.5 -136t62.5 -140h8q35 72 64.5 140.5t60.5 135.5l160 351h172l-336 -656h291v-96h-334v-133h334v-98h-334v-324h-168v324h-332v98h332v133h-332v96h289z" />
<glyph unicode="&#xa8;" horiz-adv-x="1110" d="M279 1305q0 43 27.5 71.5t72.5 28.5q43 0 71.5 -28.5t28.5 -71.5t-28.5 -72t-71.5 -29q-45 0 -72.5 29t-27.5 72zM631 1305q0 43 28.5 71.5t71.5 28.5q45 0 72.5 -28.5t27.5 -71.5t-27.5 -72t-72.5 -29q-43 0 -71.5 29t-28.5 72z" />
<glyph unicode="&#xa9;" horiz-adv-x="1523" d="M100 662q0 156 53.5 280.5t143.5 212.5t211 135t254 47t253 -47t211 -135t144 -213t53 -280q0 -158 -53 -284t-144 -215t-211 -137.5t-253 -48.5t-254 48.5t-211 137.5t-143.5 215t-53.5 284zM197 662q0 -135 45 -245t121.5 -188.5t179 -122t219.5 -43.5t219 43.5 t179 122t122 188t45 245.5q0 133 -45 242.5t-122 187t-179 119.5t-219 42t-219.5 -42t-179 -119.5t-121.5 -187t-45 -242.5zM406 662q0 88 31.5 159.5t83.5 122.5t121 78t142 27q86 0 146.5 -34t109.5 -83l-71 -80q-41 41 -83 62.5t-95 21.5q-113 0 -181.5 -77t-68.5 -197 q0 -135 66.5 -214t176.5 -79q66 0 115 25.5t94 64.5l62 -86q-57 -49 -121 -83t-156 -34q-78 0 -145.5 27.5t-118.5 80t-79.5 127.5t-28.5 171z" />
<glyph unicode="&#xab;" horiz-adv-x="878" d="M92 453v127l279 317l73 -61l-241 -320l241 -323l-73 -58zM416 453v127l279 317l73 -61l-241 -320l241 -323l-73 -58z" />
<glyph unicode="&#xad;" horiz-adv-x="636" d="M84 449v129h471v-129h-471z" />
<glyph unicode="&#xae;" horiz-adv-x="866" d="M47 1057q0 90 31 163.5t83 127t121.5 83t149.5 29.5t150.5 -29.5t123 -83t83 -127t30.5 -163.5t-30.5 -164t-83 -127t-123 -83t-150.5 -30t-149.5 30t-121.5 83t-83 127t-31 164zM129 1057q0 -74 23.5 -134.5t63.5 -103.5t95 -66.5t121 -23.5q63 0 119.5 23.5t97.5 66.5 t64.5 103.5t23.5 134.5q0 72 -23.5 132t-64.5 104t-97 68.5t-120 24.5q-66 0 -121 -24.5t-95 -68.5t-63.5 -104.5t-23.5 -131.5zM285 854v416h155q66 0 113 -30t47 -103q0 -37 -20.5 -69t-55.5 -44l94 -170h-94l-71 143h-84v-143h-84zM369 1063h53q88 0 88 70q0 31 -18.5 49 t-65.5 18h-57v-137z" />
<glyph unicode="&#xb4;" horiz-adv-x="1110" d="M422 1174l184 288h176l-231 -288h-129z" />
<glyph unicode="&#xb8;" horiz-adv-x="1110" d="M393 -352q82 10 132 33.5t50 64.5t-33.5 62.5t-95.5 37.5l82 160h109l-52 -108q49 -16 85 -49t36 -97q0 -45 -24.5 -77.5t-65.5 -55t-95 -36t-112 -19.5z" />
<glyph unicode="&#xbb;" horiz-adv-x="878" d="M111 193l241 323l-241 320l71 61l281 -317v-127l-281 -318zM435 193l241 323l-241 320l71 61l281 -317v-127l-281 -318z" />
<glyph unicode="&#xd3;" horiz-adv-x="1359" d="M106 678q0 162 42 290t118 217t181.5 136t232.5 47t232.5 -48t182 -137t118.5 -217t42 -288q0 -162 -42 -292t-118.5 -221t-182 -140.5t-232.5 -49.5t-232.5 49.5t-181.5 140.5t-118 221t-42 292zM283 678q0 -127 28.5 -228.5t80.5 -174t125 -111.5t163 -39t162.5 39 t125 111.5t81 174t28.5 228.5q0 125 -28.5 225.5t-81 170t-125 107.5t-162.5 38t-163 -38t-125 -107.5t-80.5 -170t-28.5 -225.5zM576 1446l180 229h192l-231 -229h-141z" />
<glyph unicode="&#xf3;" horiz-adv-x="1110" d="M94 496q0 125 38 222t101.5 164.5t146.5 102.5t175 35t175 -35t146.5 -102.5t101.5 -164.5t38 -222q0 -123 -38 -220.5t-101.5 -164t-146.5 -101.5t-175 -35t-175 35t-146.5 101.5t-101.5 164t-38 220.5zM268 496q0 -86 20.5 -156t58.5 -120t91.5 -77.5t116.5 -27.5 t116.5 27.5t91.5 77.5t58.5 120t20.5 156t-20.5 156.5t-58.5 121.5t-91.5 79t-116.5 28t-116.5 -28t-91.5 -79t-58.5 -121.5t-20.5 -156.5zM422 1174l184 288h176l-231 -288h-129z" />
<glyph unicode="&#x104;" horiz-adv-x="1114" d="M6 0l455 1343h192l455 -1343q-72 -29 -118 -92.5t-46 -126.5q0 -47 28.5 -70.5t65.5 -23.5q47 0 86 28l47 -92q-31 -23 -76.5 -40t-86.5 -17q-82 0 -139.5 45t-57.5 133q0 41 14.5 80t37 71.5t49 59.5t53.5 45h-39l-127 410h-490l-129 -410h-174zM352 547h404l-64 205 q-37 113 -69.5 224t-65.5 228h-8q-31 -117 -63.5 -228.5t-69.5 -223.5z" />
<glyph unicode="&#x105;" horiz-adv-x="1048" d="M119 258q0 164 146.5 251t465.5 122q0 47 -9 92t-32.5 80t-62.5 56.5t-101 21.5q-88 0 -162.5 -33t-134.5 -74l-67 117q70 45 170 87t221 42q182 0 264 -111.5t82 -298.5v-610q-86 -35 -132 -95.5t-46 -119.5q0 -47 29.5 -70.5t66.5 -23.5q25 0 44.5 7t37.5 19l43 -84 q-29 -23 -75 -39t-85 -16q-78 0 -131 44t-53 130q0 41 14.5 79t38 70.5t52 60.5t59.5 46l-17 111h-4q-72 -59 -154.5 -101.5t-174.5 -42.5q-127 0 -210 74t-83 209zM285 270q0 -86 50 -122.5t124 -36.5q72 0 136 33.5t136 99.5v276q-125 -16 -211 -38.5t-138 -53.5 t-74.5 -71t-22.5 -87z" />
<glyph unicode="&#x106;" horiz-adv-x="1169" d="M106 672q0 162 45.5 291t125 219t189 138t239.5 48q123 0 215 -50t151 -116l-96 -108q-53 57 -117.5 91t-150.5 34q-96 0 -174 -38t-133.5 -109t-86 -171t-30.5 -225q0 -127 29.5 -228.5t83 -173t130 -110.5t172.5 -39q98 0 171 39t139 110l96 -104 q-80 -92 -180.5 -143.5t-229.5 -51.5q-127 0 -234.5 47.5t-186 136.5t-123 219t-44.5 294zM572 1446l180 229h192l-231 -229h-141z" />
<glyph unicode="&#x107;" horiz-adv-x="933" d="M94 496q0 125 39 222t104.5 164.5t152.5 102.5t183 35q98 0 169 -36t122 -83l-84 -108q-45 39 -93 63.5t-107 24.5q-68 0 -125.5 -28t-98.5 -79t-64.5 -121.5t-23.5 -156.5t22.5 -156t62.5 -120t97.5 -77.5t124.5 -27.5q72 0 130.5 29.5t103.5 70.5l76 -111 q-68 -59 -151 -94t-173 -35q-98 0 -184 35t-148.5 101.5t-98.5 164t-36 220.5zM438 1174l184 288h176l-231 -288h-129z" />
<glyph unicode="&#x118;" horiz-adv-x="1079" d="M184 0v1343h774v-143h-604v-422h510v-145h-510v-488h625v-145h-6q-35 -4 -69 -23.5t-60.5 -49t-43 -67.5t-16.5 -79q0 -47 31 -70.5t68 -23.5q43 0 82 28l47 -92q-29 -23 -76 -40t-88 -17q-82 0 -139.5 45t-57.5 133q0 86 48.5 152.5t105.5 103.5h-621z" />
<glyph unicode="&#x119;" horiz-adv-x="1015" d="M94 496q0 123 38 220t100.5 164.5t142.5 103.5t166 36q94 0 168.5 -33t125 -94.5t77 -147.5t26.5 -192q0 -55 -6 -92h-672q10 -162 99.5 -256t232.5 -94q72 0 132 21.5t116 55.5l59 -110q-68 -47 -111 -87t-69.5 -75t-36.5 -66.5t-10 -64.5q0 -47 28.5 -70.5t67.5 -23.5 q25 0 44 7t38 19l43 -84q-29 -23 -75 -39t-85 -16q-78 0 -131 44t-53 130q0 39 11 74t29.5 65.5t40 55t42.5 43.5q-27 -10 -51.5 -12.5t-49.5 -2.5q-100 0 -187 36t-151.5 102.5t-101.5 163t-37 219.5zM258 571h533q0 154 -63.5 235t-182.5 81q-53 0 -101.5 -21.5 t-87.5 -61.5t-64.5 -98.5t-33.5 -134.5z" />
<glyph unicode="&#x141;" horiz-adv-x="1001" d="M27 397v138l168 96v712h172v-636l378 204v-139l-378 -203v-424h585v-145h-757v492z" />
<glyph unicode="&#x142;" horiz-adv-x="536" d="M47 596v143l129 82v637h170v-549l143 92v-143l-143 -92v-578q0 -41 14.5 -57t32.5 -16h13.5t23.5 4l23 -127q-18 -8 -41 -12.5t-58 -4.5q-94 0 -136 57.5t-42 168.5v477z" />
<glyph unicode="&#x143;" horiz-adv-x="1325" d="M184 0v1343h176l486 -843l145 -279h8q-6 102 -13 212t-7 216v694h162v-1343h-176l-488 846l-145 276h-8q8 -102 15 -207.5t7 -212.5v-702h-162zM564 1446l180 229h192l-231 -229h-141z" />
<glyph unicode="&#x144;" horiz-adv-x="1120" d="M168 0v995h139l15 -143h6q72 72 150.5 120t183.5 48q158 0 230.5 -98.5t72.5 -290.5v-631h-168v608q0 141 -45 203.5t-144 62.5q-78 0 -137 -38.5t-135 -114.5v-721h-168zM465 1174l184 288h176l-231 -288h-129z" />
<glyph unicode="&#x15a;" horiz-adv-x="1093" d="M86 174l102 119q72 -76 169.5 -122t201.5 -46q133 0 207 60.5t74 158.5q0 51 -17.5 87t-47.5 61.5t-70.5 46t-88.5 43.5l-192 84q-47 20 -96 48.5t-88 69.5t-63.5 97.5t-24.5 130.5q0 76 31.5 141.5t88 113.5t133 74.5t168.5 26.5q121 0 223.5 -46t174.5 -120l-92 -110 q-61 59 -136 93t-170 34q-113 0 -181 -52.5t-68 -144.5q0 -49 19 -83t52 -59.5t72 -45t80 -35.5l190 -82q57 -25 108.5 -56.5t88.5 -73.5t58.5 -98.5t21.5 -130.5q0 -80 -32 -149.5t-91.5 -121.5t-143 -82t-190.5 -30q-141 0 -262 53.5t-209 145.5zM467 1446l180 229h192 l-231 -229h-141z" />
<glyph unicode="&#x15b;" horiz-adv-x="858" d="M57 113l84 112q66 -53 134.5 -86t158.5 -33q98 0 147.5 45.5t49.5 110.5q0 39 -20.5 67.5t-52.5 50t-73 38t-82 33.5q-53 18 -106 41.5t-95 57.5t-69 79t-27 108q0 59 24 111.5t68 90.5t107.5 59.5t143.5 21.5q94 0 172.5 -33t136.5 -80l-80 -106q-51 39 -106.5 63.5 t-120.5 24.5q-94 0 -138.5 -43t-44.5 -101q0 -35 18.5 -60.5t49.5 -44.5t70.5 -34.5t82.5 -32.5q53 -20 107.5 -42.5t97.5 -56.5t71 -83t28 -119q0 -61 -24 -114.5t-70 -94t-114.5 -64.5t-156.5 -24q-106 0 -202.5 39t-168.5 99zM316 1174l184 288h176l-231 -288h-129z" />
<glyph unicode="&#x179;" horiz-adv-x="1103" d="M92 0v102l707 1098h-643v143h856v-100l-709 -1098h715v-145h-926zM469 1446l180 229h192l-231 -229h-141z" />
<glyph unicode="&#x17a;" horiz-adv-x="870" d="M63 0v90l525 768h-467v137h680v-90l-525 -768h541v-137h-754zM334 1174l184 288h176l-231 -288h-129z" />
<glyph unicode="&#x17b;" horiz-adv-x="1103" d="M92 0v102l707 1098h-643v143h856v-100l-709 -1098h715v-145h-926zM456 1573q0 47 34 77.5t83 30.5t83 -30.5t34 -77.5q0 -49 -34 -80t-83 -31t-83 31t-34 80z" />
<glyph unicode="&#x17c;" horiz-adv-x="870" d="M63 0v90l525 768h-467v137h680v-90l-525 -768h541v-137h-754zM356 1311q0 47 32 78.5t79 31.5t79 -31.5t32 -78.5q0 -49 -32 -80t-79 -31t-79 31t-32 80z" />
<glyph unicode="&#x2c6;" horiz-adv-x="1110" d="M291 1174l194 288h140l194 -288h-123l-137 186h-8l-137 -186h-123z" />
<glyph unicode="&#x2da;" horiz-adv-x="1110" d="M365 1300q0 86 53 137.5t137 51.5t137 -51.5t53 -137.5t-53 -138t-137 -52t-137 52t-53 138zM457 1300q0 -53 28.5 -83.5t69.5 -30.5t69.5 30.5t28.5 83.5q0 51 -28.5 82t-69.5 31t-69.5 -30.5t-28.5 -82.5z" />
<glyph unicode="&#x2dc;" horiz-adv-x="1110" d="M270 1186q8 92 49 154.5t117 62.5q39 0 72 -16.5t60.5 -36t52 -36t49.5 -16.5q57 0 75 105h95q-8 -92 -49 -154.5t-117 -62.5q-39 0 -71 16.5t-59.5 35.5t-52 35.5t-51.5 16.5q-57 0 -75 -104h-95z" />
<glyph unicode="&#x2000;" horiz-adv-x="840" />
<glyph unicode="&#x2001;" horiz-adv-x="1681" />
<glyph unicode="&#x2002;" horiz-adv-x="840" />
<glyph unicode="&#x2003;" horiz-adv-x="1681" />
<glyph unicode="&#x2004;" horiz-adv-x="560" />
<glyph unicode="&#x2005;" horiz-adv-x="420" />
<glyph unicode="&#x2006;" horiz-adv-x="280" />
<glyph unicode="&#x2007;" horiz-adv-x="280" />
<glyph unicode="&#x2008;" horiz-adv-x="210" />
<glyph unicode="&#x2009;" horiz-adv-x="336" />
<glyph unicode="&#x200a;" horiz-adv-x="93" />
<glyph unicode="&#x2010;" horiz-adv-x="636" d="M84 449v129h471v-129h-471z" />
<glyph unicode="&#x2011;" horiz-adv-x="636" d="M84 449v129h471v-129h-471z" />
<glyph unicode="&#x2012;" horiz-adv-x="636" d="M84 449v129h471v-129h-471z" />
<glyph unicode="&#x2013;" horiz-adv-x="983" d="M84 457v116h815v-116h-815z" />
<glyph unicode="&#x2014;" horiz-adv-x="1638" d="M84 457v116h1470v-116h-1470z" />
<glyph unicode="&#x2018;" horiz-adv-x="509" d="M117 1061q0 123 55 213t162 151l49 -79q-78 -51 -117 -108.5t-39 -145.5q6 2 19 2q41 0 74.5 -27t33.5 -78q0 -53 -30.5 -82.5t-77.5 -29.5q-61 0 -95 47t-34 137z" />
<glyph unicode="&#x2019;" horiz-adv-x="509" d="M129 961q78 51 116 108t38 148q-6 -2 -17 -3q-43 0 -75.5 27t-32.5 76q0 53 30.5 84t77.5 31q59 0 94 -48.5t35 -138.5q0 -123 -56 -212t-163 -150z" />
<glyph unicode="&#x201a;" horiz-adv-x="509" d="M129 -217q78 51 116 108t38 148q-6 -2 -17 -3q-43 0 -75.5 27t-32.5 76q0 53 30.5 84t77.5 31q59 0 94 -48.5t35 -138.5q0 -123 -56 -212t-163 -150z" />
<glyph unicode="&#x201c;" horiz-adv-x="870" d="M117 1061q0 123 55 213t162 151l49 -79q-78 -51 -117 -108.5t-39 -145.5q6 2 19 2q41 0 74.5 -27t33.5 -78q0 -53 -30.5 -82.5t-77.5 -29.5q-61 0 -95 47t-34 137zM477 1061q0 123 55 213t162 151l49 -79q-78 -51 -117 -108.5t-39 -145.5q6 2 19 2q41 0 74.5 -27 t33.5 -78q0 -53 -30.5 -82.5t-77.5 -29.5q-61 0 -95 47t-34 137z" />
<glyph unicode="&#x201d;" horiz-adv-x="870" d="M129 961q78 51 116 108t38 148q-6 -2 -17 -3q-43 0 -75.5 27t-32.5 76q0 53 30.5 84t77.5 31q59 0 94 -48.5t35 -138.5q0 -123 -56 -212t-163 -150zM489 961q78 51 116 108t38 148q-6 -2 -17 -3q-43 0 -75.5 27t-32.5 76q0 53 30.5 84t77.5 31q59 0 94 -48.5t35 -138.5 q0 -123 -56 -212t-163 -150z" />
<glyph unicode="&#x201e;" horiz-adv-x="870" d="M129 -217q78 51 116 108t38 148q-6 -2 -17 -3q-43 0 -75.5 27t-32.5 76q0 53 30.5 84t77.5 31q59 0 94 -48.5t35 -138.5q0 -123 -56 -212t-163 -150zM489 -217q78 51 116 108t38 148q-6 -2 -17 -3q-43 0 -75.5 27t-32.5 76q0 53 30.5 84t77.5 31q59 0 94 -48.5t35 -138.5 q0 -123 -56 -212t-163 -150z" />
<glyph unicode="&#x2026;" horiz-adv-x="1941" d="M192 102q0 59 36 95t87 36q49 0 85 -35.5t36 -95.5q0 -55 -36 -91t-85 -36q-51 0 -87 36t-36 91zM878 102q0 59 36 95t87 36q49 0 85 -35.5t36 -95.5q0 -55 -36 -91t-85 -36q-51 0 -87 36t-36 91zM1565 102q0 59 36 95t87 36q49 0 85 -35.5t36 -95.5q0 -55 -36 -91 t-85 -36q-51 0 -87 36t-36 91z" />
<glyph unicode="&#x202f;" horiz-adv-x="336" />
<glyph unicode="&#x2039;" horiz-adv-x="555" d="M92 453v127l279 317l73 -61l-241 -320l241 -323l-73 -58z" />
<glyph unicode="&#x203a;" horiz-adv-x="555" d="M111 193l241 323l-241 320l71 61l281 -317v-127l-281 -318z" />
<glyph unicode="&#x205f;" horiz-adv-x="420" />
<glyph unicode="&#x20ac;" d="M47 481v88l121 9q-2 18 -2 36.5v36.5v32.5t2 33.5h-121v90l131 10q18 121 61.5 216t108 162t149.5 101.5t185 34.5q92 0 172 -46t133 -114l-100 -96q-43 53 -94.5 87t-116.5 34q-135 0 -218 -100.5t-108 -278.5h520v-100h-528q-2 -14 -2 -28.5v-31.5v-39.5t2 -37.5h446 v-99h-436q27 -174 106 -272t206 -98q76 0 132 36.5t109 108.5l101 -90q-68 -90 -154 -140.5t-199 -50.5q-92 0 -171 34t-140 99.5t-103 158.5t-61 214h-131z" />
<glyph unicode="&#x2122;" horiz-adv-x="1304" d="M6 1274v110h531v-110h-205v-524h-123v524h-203zM635 750v634h153l95 -229l55 -162h8l55 162l93 229h151v-634h-117v280l13 215h-8l-146 -397h-92l-147 397h-9l15 -215v-280h-119z" />
<glyph unicode="&#x25fc;" horiz-adv-x="993" d="M0 0v993h993v-993h-993z" />
<hkern u1="F" u2="&#x2122;" k="-78" />
<hkern u1="F" u2="&#xae;" k="-41" />
<hkern u1="F" u2="x" k="53" />
<hkern u1="F" u2="v" k="41" />
<hkern u1="F" u2="X" k="49" />
<hkern u1="F" u2="V" k="-8" />
<hkern u1="F" u2="&#x2f;" k="141" />
<hkern u1="P" u2="&#xae;" k="-61" />
<hkern u1="P" u2="x" k="29" />
<hkern u1="P" u2="X" k="49" />
<hkern u1="P" u2="&#x2f;" k="154" />
<hkern u1="V" u2="&#x2122;" k="-111" />
<hkern u1="V" u2="&#xae;" k="-109" />
<hkern u1="V" u2="x" k="31" />
<hkern u1="V" u2="v" k="18" />
<hkern u1="V" u2="&#x2f;" k="96" />
<hkern u1="X" u2="&#x2122;" k="-43" />
<hkern u1="X" u2="&#xae;" k="-16" />
<hkern u1="X" u2="x" k="20" />
<hkern u1="X" u2="v" k="33" />
<hkern u1="X" u2="&#x2a;" k="20" />
<hkern u1="\" u2="v" k="41" />
<hkern u1="\" u2="V" k="109" />
<hkern u1="v" u2="&#x2122;" k="-27" />
<hkern u1="v" u2="&#xae;" k="-92" />
<hkern u1="v" u2="V" k="8" />
<hkern u1="v" u2="&#x2f;" k="41" />
<hkern u1="v" u2="&#x2a;" k="16" />
<hkern u1="x" u2="&#x2122;" k="-27" />
<hkern u1="x" u2="&#xae;" k="-78" />
<hkern u1="x" u2="X" k="20" />
<hkern u1="x" u2="V" k="14" />
<hkern u1="x" u2="&#x2a;" k="31" />
<hkern u1="&#xa3;" u2="&#x35;" k="12" />
<hkern u1="&#xa3;" u2="&#x33;" k="12" />
<hkern g1="exclam" 	g2="quoteright,quotedblright" 	k="66" />
<hkern g1="slash" 	g2="g" 	k="20" />
<hkern g1="slash" 	g2="j" 	k="-51" />
<hkern g1="slash" 	g2="A,Aogonek" 	k="82" />
<hkern g1="slash" 	g2="a,aogonek" 	k="49" />
<hkern g1="slash" 	g2="c,d,e,o,q,oacute,cacute,eogonek" 	k="63" />
<hkern g1="slash" 	g2="J" 	k="164" />
<hkern g1="slash" 	g2="i" 	k="-51" />
<hkern g1="slash" 	g2="t" 	k="-18" />
<hkern g1="slash" 	g2="u" 	k="41" />
<hkern g1="A,Aogonek" 	g2="T" 	k="82" />
<hkern g1="A,Aogonek" 	g2="U" 	k="31" />
<hkern g1="A,Aogonek" 	g2="Y" 	k="29" />
<hkern g1="A,Aogonek" 	g2="w" 	k="8" />
<hkern g1="A,Aogonek" 	g2="y" 	k="29" />
<hkern g1="A,Aogonek" 	g2="quoteright,quotedblright" 	k="113" />
<hkern g1="A,Aogonek" 	g2="Z,Zacute,Zdotaccent" 	k="16" />
<hkern g1="A,Aogonek" 	g2="C,G,O,Q,Oacute,Cacute" 	k="20" />
<hkern g1="A,Aogonek" 	g2="f" 	k="20" />
<hkern g1="A,Aogonek" 	g2="t" 	k="29" />
<hkern g1="A,Aogonek" 	g2="u" 	k="12" />
<hkern g1="A,Aogonek" 	g2="asterisk" 	k="193" />
<hkern g1="A,Aogonek" 	g2="backslash" 	k="82" />
<hkern g1="A,Aogonek" 	g2="registered" 	k="164" />
<hkern g1="A,Aogonek" 	g2="trademark" 	k="106" />
<hkern g1="A,Aogonek" 	g2="V" 	k="29" />
<hkern g1="A,Aogonek" 	g2="X" 	k="-8" />
<hkern g1="A,Aogonek" 	g2="question" 	k="53" />
<hkern g1="A,Aogonek" 	g2="quotedbl,quotesingle" 	k="106" />
<hkern g1="A,Aogonek" 	g2="quoteleft,quotedblleft" 	k="119" />
<hkern g1="A,Aogonek" 	g2="v" 	k="29" />
<hkern g1="B" 	g2="T" 	k="49" />
<hkern g1="B" 	g2="W" 	k="8" />
<hkern g1="B" 	g2="Y" 	k="29" />
<hkern g1="B" 	g2="w" 	k="20" />
<hkern g1="B" 	g2="y" 	k="29" />
<hkern g1="B" 	g2="S,Sacute" 	k="29" />
<hkern g1="B" 	g2="Z,Zacute,Zdotaccent" 	k="8" />
<hkern g1="B" 	g2="J" 	k="33" />
<hkern g1="B" 	g2="t" 	k="20" />
<hkern g1="B" 	g2="asterisk" 	k="61" />
<hkern g1="B" 	g2="trademark" 	k="41" />
<hkern g1="B" 	g2="V" 	k="12" />
<hkern g1="B" 	g2="X" 	k="8" />
<hkern g1="B" 	g2="v" 	k="29" />
<hkern g1="B" 	g2="x" 	k="20" />
<hkern g1="C,Cacute" 	g2="T" 	k="37" />
<hkern g1="C,Cacute" 	g2="U" 	k="29" />
<hkern g1="C,Cacute" 	g2="W" 	k="8" />
<hkern g1="C,Cacute" 	g2="Y" 	k="14" />
<hkern g1="C,Cacute" 	g2="g" 	k="41" />
<hkern g1="C,Cacute" 	g2="w" 	k="20" />
<hkern g1="C,Cacute" 	g2="y" 	k="29" />
<hkern g1="C,Cacute" 	g2="S,Sacute" 	k="49" />
<hkern g1="C,Cacute" 	g2="Z,Zacute,Zdotaccent" 	k="20" />
<hkern g1="C,Cacute" 	g2="C,G,O,Q,Oacute,Cacute" 	k="59" />
<hkern g1="C,Cacute" 	g2="J" 	k="20" />
<hkern g1="C,Cacute" 	g2="t" 	k="29" />
<hkern g1="C,Cacute" 	g2="u" 	k="20" />
<hkern g1="C,Cacute" 	g2="registered" 	k="-29" />
<hkern g1="C,Cacute" 	g2="trademark" 	k="-41" />
<hkern g1="C,Cacute" 	g2="V" 	k="8" />
<hkern g1="C,Cacute" 	g2="X" 	k="8" />
<hkern g1="C,Cacute" 	g2="v" 	k="29" />
<hkern g1="C,Cacute" 	g2="hyphen,endash,emdash" 	k="53" />
<hkern g1="C,Cacute" 	g2="guillemotleft,guilsinglleft" 	k="29" />
<hkern g1="G" 	g2="T" 	k="41" />
<hkern g1="G" 	g2="W" 	k="8" />
<hkern g1="G" 	g2="A,Aogonek" 	k="8" />
<hkern g1="G" 	g2="asterisk" 	k="57" />
<hkern g1="G" 	g2="registered" 	k="-16" />
<hkern g1="G" 	g2="trademark" 	k="-31" />
<hkern g1="G" 	g2="V" 	k="29" />
<hkern g1="K" 	g2="T" 	k="33" />
<hkern g1="K" 	g2="U" 	k="29" />
<hkern g1="K" 	g2="W" 	k="20" />
<hkern g1="K" 	g2="Y" 	k="33" />
<hkern g1="K" 	g2="j" 	k="20" />
<hkern g1="K" 	g2="w" 	k="33" />
<hkern g1="K" 	g2="y" 	k="41" />
<hkern g1="K" 	g2="quoteright,quotedblright" 	k="37" />
<hkern g1="K" 	g2="A,Aogonek" 	k="20" />
<hkern g1="K" 	g2="S,Sacute" 	k="29" />
<hkern g1="K" 	g2="C,G,O,Q,Oacute,Cacute" 	k="45" />
<hkern g1="K" 	g2="c,d,e,o,q,oacute,cacute,eogonek" 	k="14" />
<hkern g1="K" 	g2="t" 	k="53" />
<hkern g1="K" 	g2="u" 	k="29" />
<hkern g1="K" 	g2="asterisk" 	k="41" />
<hkern g1="K" 	g2="trademark" 	k="-31" />
<hkern g1="K" 	g2="V" 	k="25" />
<hkern g1="K" 	g2="question" 	k="14" />
<hkern g1="K" 	g2="quotedbl,quotesingle" 	k="41" />
<hkern g1="K" 	g2="quoteleft,quotedblleft" 	k="37" />
<hkern g1="K" 	g2="v" 	k="41" />
<hkern g1="K" 	g2="x" 	k="33" />
<hkern g1="K" 	g2="hyphen,endash,emdash" 	k="61" />
<hkern g1="K" 	g2="guillemotleft,guilsinglleft" 	k="20" />
<hkern g1="K" 	g2="z,zacute,zdotaccent" 	k="29" />
<hkern g1="L,Lslash" 	g2="T" 	k="246" />
<hkern g1="L,Lslash" 	g2="U" 	k="59" />
<hkern g1="L,Lslash" 	g2="W" 	k="115" />
<hkern g1="L,Lslash" 	g2="Y" 	k="156" />
<hkern g1="L,Lslash" 	g2="g" 	k="8" />
<hkern g1="L,Lslash" 	g2="w" 	k="70" />
<hkern g1="L,Lslash" 	g2="y" 	k="74" />
<hkern g1="L,Lslash" 	g2="quoteright,quotedblright" 	k="160" />
<hkern g1="L,Lslash" 	g2="A,Aogonek" 	k="-6" />
<hkern g1="L,Lslash" 	g2="S,Sacute" 	k="45" />
<hkern g1="L,Lslash" 	g2="C,G,O,Q,Oacute,Cacute" 	k="53" />
<hkern g1="L,Lslash" 	g2="f" 	k="29" />
<hkern g1="L,Lslash" 	g2="c,d,e,o,q,oacute,cacute,eogonek" 	k="25" />
<hkern g1="L,Lslash" 	g2="t" 	k="41" />
<hkern g1="L,Lslash" 	g2="u" 	k="20" />
<hkern g1="L,Lslash" 	g2="asterisk" 	k="311" />
<hkern g1="L,Lslash" 	g2="backslash" 	k="164" />
<hkern g1="L,Lslash" 	g2="registered" 	k="188" />
<hkern g1="L,Lslash" 	g2="trademark" 	k="201" />
<hkern g1="L,Lslash" 	g2="V" 	k="156" />
<hkern g1="L,Lslash" 	g2="question" 	k="66" />
<hkern g1="L,Lslash" 	g2="quotedbl,quotesingle" 	k="182" />
<hkern g1="L,Lslash" 	g2="quoteleft,quotedblleft" 	k="160" />
<hkern g1="L,Lslash" 	g2="v" 	k="74" />
<hkern g1="L,Lslash" 	g2="hyphen,endash,emdash" 	k="111" />
<hkern g1="L,Lslash" 	g2="guillemotleft,guilsinglleft" 	k="70" />
<hkern g1="D,O,Q,Oacute" 	g2="T" 	k="41" />
<hkern g1="D,O,Q,Oacute" 	g2="W" 	k="12" />
<hkern g1="D,O,Q,Oacute" 	g2="Y" 	k="41" />
<hkern g1="D,O,Q,Oacute" 	g2="A,Aogonek" 	k="20" />
<hkern g1="D,O,Q,Oacute" 	g2="Z,Zacute,Zdotaccent" 	k="41" />
<hkern g1="D,O,Q,Oacute" 	g2="J" 	k="82" />
<hkern g1="D,O,Q,Oacute" 	g2="asterisk" 	k="70" />
<hkern g1="D,O,Q,Oacute" 	g2="registered" 	k="-12" />
<hkern g1="D,O,Q,Oacute" 	g2="trademark" 	k="53" />
<hkern g1="D,O,Q,Oacute" 	g2="slash" 	k="29" />
<hkern g1="D,O,Q,Oacute" 	g2="V" 	k="20" />
<hkern g1="D,O,Q,Oacute" 	g2="X" 	k="35" />
<hkern g1="D,O,Q,Oacute" 	g2="z,zacute,zdotaccent" 	k="14" />
<hkern g1="R" 	g2="T" 	k="41" />
<hkern g1="R" 	g2="Y" 	k="29" />
<hkern g1="R" 	g2="g" 	k="20" />
<hkern g1="R" 	g2="A,Aogonek" 	k="20" />
<hkern g1="R" 	g2="S,Sacute" 	k="29" />
<hkern g1="R" 	g2="Z,Zacute,Zdotaccent" 	k="20" />
<hkern g1="R" 	g2="a,aogonek" 	k="20" />
<hkern g1="R" 	g2="c,d,e,o,q,oacute,cacute,eogonek" 	k="20" />
<hkern g1="R" 	g2="J" 	k="37" />
<hkern g1="R" 	g2="asterisk" 	k="20" />
<hkern g1="R" 	g2="registered" 	k="-29" />
<hkern g1="R" 	g2="V" 	k="29" />
<hkern g1="R" 	g2="X" 	k="20" />
<hkern g1="R" 	g2="x" 	k="29" />
<hkern g1="R" 	g2="hyphen,endash,emdash" 	k="78" />
<hkern g1="R" 	g2="guillemotleft,guilsinglleft" 	k="61" />
<hkern g1="R" 	g2="z,zacute,zdotaccent" 	k="29" />
<hkern g1="R" 	g2="guillemotright,guilsinglright" 	k="29" />
<hkern g1="S,Sacute" 	g2="T" 	k="41" />
<hkern g1="S,Sacute" 	g2="Y" 	k="14" />
<hkern g1="S,Sacute" 	g2="S,Sacute" 	k="29" />
<hkern g1="S,Sacute" 	g2="J" 	k="29" />
<hkern g1="S,Sacute" 	g2="asterisk" 	k="37" />
<hkern g1="S,Sacute" 	g2="registered" 	k="-8" />
<hkern g1="T" 	g2="Y" 	k="29" />
<hkern g1="T" 	g2="g" 	k="150" />
<hkern g1="T" 	g2="w" 	k="70" />
<hkern g1="T" 	g2="y" 	k="68" />
<hkern g1="T" 	g2="comma,period,ellipsis" 	k="217" />
<hkern g1="T" 	g2="A,Aogonek" 	k="82" />
<hkern g1="T" 	g2="S,Sacute" 	k="80" />
<hkern g1="T" 	g2="Z,Zacute,Zdotaccent" 	k="111" />
<hkern g1="T" 	g2="C,G,O,Q,Oacute,Cacute" 	k="49" />
<hkern g1="T" 	g2="a,aogonek" 	k="150" />
<hkern g1="T" 	g2="f" 	k="37" />
<hkern g1="T" 	g2="c,d,e,o,q,oacute,cacute,eogonek" 	k="135" />
<hkern g1="T" 	g2="J" 	k="258" />
<hkern g1="T" 	g2="t" 	k="37" />
<hkern g1="T" 	g2="u" 	k="94" />
<hkern g1="T" 	g2="registered" 	k="-41" />
<hkern g1="T" 	g2="trademark" 	k="-70" />
<hkern g1="T" 	g2="slash" 	k="182" />
<hkern g1="T" 	g2="X" 	k="41" />
<hkern g1="T" 	g2="v" 	k="68" />
<hkern g1="T" 	g2="x" 	k="80" />
<hkern g1="T" 	g2="hyphen,endash,emdash" 	k="164" />
<hkern g1="T" 	g2="guillemotleft,guilsinglleft" 	k="96" />
<hkern g1="T" 	g2="m,n,p,r,nacute" 	k="94" />
<hkern g1="T" 	g2="s,sacute" 	k="121" />
<hkern g1="T" 	g2="z,zacute,zdotaccent" 	k="154" />
<hkern g1="T" 	g2="guillemotright,guilsinglright" 	k="82" />
<hkern g1="U" 	g2="Y" 	k="29" />
<hkern g1="U" 	g2="g" 	k="20" />
<hkern g1="U" 	g2="comma,period,ellipsis" 	k="33" />
<hkern g1="U" 	g2="A,Aogonek" 	k="37" />
<hkern g1="U" 	g2="S,Sacute" 	k="20" />
<hkern g1="U" 	g2="a,aogonek" 	k="8" />
<hkern g1="U" 	g2="J" 	k="96" />
<hkern g1="U" 	g2="slash" 	k="63" />
<hkern g1="U" 	g2="V" 	k="20" />
<hkern g1="U" 	g2="X" 	k="20" />
<hkern g1="U" 	g2="x" 	k="14" />
<hkern g1="U" 	g2="s,sacute" 	k="8" />
<hkern g1="W" 	g2="g" 	k="27" />
<hkern g1="W" 	g2="comma,period,ellipsis" 	k="70" />
<hkern g1="W" 	g2="S,Sacute" 	k="12" />
<hkern g1="W" 	g2="Z,Zacute,Zdotaccent" 	k="12" />
<hkern g1="W" 	g2="C,G,O,Q,Oacute,Cacute" 	k="12" />
<hkern g1="W" 	g2="a,aogonek" 	k="33" />
<hkern g1="W" 	g2="J" 	k="133" />
<hkern g1="W" 	g2="registered" 	k="-80" />
<hkern g1="W" 	g2="trademark" 	k="-70" />
<hkern g1="W" 	g2="slash" 	k="59" />
<hkern g1="W" 	g2="hyphen,endash,emdash" 	k="8" />
<hkern g1="W" 	g2="guillemotleft,guilsinglleft" 	k="20" />
<hkern g1="W" 	g2="z,zacute,zdotaccent" 	k="20" />
<hkern g1="W" 	g2="guillemotright,guilsinglright" 	k="33" />
<hkern g1="Y" 	g2="T" 	k="29" />
<hkern g1="Y" 	g2="U" 	k="20" />
<hkern g1="Y" 	g2="g" 	k="123" />
<hkern g1="Y" 	g2="w" 	k="49" />
<hkern g1="Y" 	g2="y" 	k="29" />
<hkern g1="Y" 	g2="quoteright,quotedblright" 	k="-18" />
<hkern g1="Y" 	g2="comma,period,ellipsis" 	k="186" />
<hkern g1="Y" 	g2="A,Aogonek" 	k="29" />
<hkern g1="Y" 	g2="S,Sacute" 	k="33" />
<hkern g1="Y" 	g2="Z,Zacute,Zdotaccent" 	k="53" />
<hkern g1="Y" 	g2="C,G,O,Q,Oacute,Cacute" 	k="29" />
<hkern g1="Y" 	g2="a,aogonek" 	k="137" />
<hkern g1="Y" 	g2="c,d,e,o,q,oacute,cacute,eogonek" 	k="84" />
<hkern g1="Y" 	g2="J" 	k="205" />
<hkern g1="Y" 	g2="t" 	k="29" />
<hkern g1="Y" 	g2="u" 	k="70" />
<hkern g1="Y" 	g2="registered" 	k="-68" />
<hkern g1="Y" 	g2="trademark" 	k="-94" />
<hkern g1="Y" 	g2="slash" 	k="137" />
<hkern g1="Y" 	g2="question" 	k="14" />
<hkern g1="Y" 	g2="v" 	k="29" />
<hkern g1="Y" 	g2="x" 	k="70" />
<hkern g1="Y" 	g2="hyphen,endash,emdash" 	k="135" />
<hkern g1="Y" 	g2="guillemotleft,guilsinglleft" 	k="113" />
<hkern g1="Y" 	g2="m,n,p,r,nacute" 	k="82" />
<hkern g1="Y" 	g2="s,sacute" 	k="84" />
<hkern g1="Y" 	g2="z,zacute,zdotaccent" 	k="96" />
<hkern g1="Y" 	g2="guillemotright,guilsinglright" 	k="92" />
<hkern g1="Y" 	g2="colon,semicolon" 	k="51" />
<hkern g1="Z,Zacute,Zdotaccent" 	g2="U" 	k="20" />
<hkern g1="Z,Zacute,Zdotaccent" 	g2="W" 	k="12" />
<hkern g1="Z,Zacute,Zdotaccent" 	g2="Y" 	k="29" />
<hkern g1="Z,Zacute,Zdotaccent" 	g2="g" 	k="29" />
<hkern g1="Z,Zacute,Zdotaccent" 	g2="w" 	k="33" />
<hkern g1="Z,Zacute,Zdotaccent" 	g2="y" 	k="33" />
<hkern g1="Z,Zacute,Zdotaccent" 	g2="A,Aogonek" 	k="12" />
<hkern g1="Z,Zacute,Zdotaccent" 	g2="S,Sacute" 	k="61" />
<hkern g1="Z,Zacute,Zdotaccent" 	g2="Z,Zacute,Zdotaccent" 	k="20" />
<hkern g1="Z,Zacute,Zdotaccent" 	g2="C,G,O,Q,Oacute,Cacute" 	k="41" />
<hkern g1="Z,Zacute,Zdotaccent" 	g2="a,aogonek" 	k="33" />
<hkern g1="Z,Zacute,Zdotaccent" 	g2="f" 	k="41" />
<hkern g1="Z,Zacute,Zdotaccent" 	g2="c,d,e,o,q,oacute,cacute,eogonek" 	k="43" />
<hkern g1="Z,Zacute,Zdotaccent" 	g2="J" 	k="68" />
<hkern g1="Z,Zacute,Zdotaccent" 	g2="t" 	k="29" />
<hkern g1="Z,Zacute,Zdotaccent" 	g2="u" 	k="47" />
<hkern g1="Z,Zacute,Zdotaccent" 	g2="registered" 	k="-41" />
<hkern g1="Z,Zacute,Zdotaccent" 	g2="trademark" 	k="-41" />
<hkern g1="Z,Zacute,Zdotaccent" 	g2="V" 	k="12" />
<hkern g1="Z,Zacute,Zdotaccent" 	g2="v" 	k="33" />
<hkern g1="Z,Zacute,Zdotaccent" 	g2="hyphen,endash,emdash" 	k="70" />
<hkern g1="Z,Zacute,Zdotaccent" 	g2="guillemotleft,guilsinglleft" 	k="70" />
<hkern g1="a,aogonek" 	g2="T" 	k="49" />
<hkern g1="a,aogonek" 	g2="W" 	k="8" />
<hkern g1="a,aogonek" 	g2="Y" 	k="49" />
<hkern g1="a,aogonek" 	g2="quoteright,quotedblright" 	k="33" />
<hkern g1="a,aogonek" 	g2="asterisk" 	k="111" />
<hkern g1="a,aogonek" 	g2="V" 	k="33" />
<hkern g1="a,aogonek" 	g2="question" 	k="25" />
<hkern g1="c,cacute" 	g2="T" 	k="41" />
<hkern g1="c,cacute" 	g2="Y" 	k="49" />
<hkern g1="c,cacute" 	g2="g" 	k="20" />
<hkern g1="c,cacute" 	g2="w" 	k="-12" />
<hkern g1="c,cacute" 	g2="y" 	k="-12" />
<hkern g1="c,cacute" 	g2="a,aogonek" 	k="20" />
<hkern g1="c,cacute" 	g2="c,d,e,o,q,oacute,cacute,eogonek" 	k="43" />
<hkern g1="c,cacute" 	g2="registered" 	k="-41" />
<hkern g1="c,cacute" 	g2="V" 	k="29" />
<hkern g1="c,cacute" 	g2="v" 	k="-12" />
<hkern g1="c,cacute" 	g2="x" 	k="-16" />
<hkern g1="c,cacute" 	g2="hyphen,endash,emdash" 	k="41" />
<hkern g1="colon,semicolon" 	g2="Y" 	k="53" />
<hkern g1="colon,semicolon" 	g2="j" 	k="-8" />
<hkern g1="colon,semicolon" 	g2="asterisk" 	k="100" />
<hkern g1="comma,period,ellipsis" 	g2="T" 	k="217" />
<hkern g1="comma,period,ellipsis" 	g2="U" 	k="41" />
<hkern g1="comma,period,ellipsis" 	g2="W" 	k="70" />
<hkern g1="comma,period,ellipsis" 	g2="Y" 	k="188" />
<hkern g1="comma,period,ellipsis" 	g2="j" 	k="-53" />
<hkern g1="comma,period,ellipsis" 	g2="w" 	k="45" />
<hkern g1="comma,period,ellipsis" 	g2="y" 	k="41" />
<hkern g1="comma,period,ellipsis" 	g2="quoteright,quotedblright" 	k="213" />
<hkern g1="comma,period,ellipsis" 	g2="c,d,e,o,q,oacute,cacute,eogonek" 	k="16" />
<hkern g1="comma,period,ellipsis" 	g2="t" 	k="57" />
<hkern g1="comma,period,ellipsis" 	g2="asterisk" 	k="283" />
<hkern g1="comma,period,ellipsis" 	g2="V" 	k="147" />
<hkern g1="comma,period,ellipsis" 	g2="quotedbl,quotesingle" 	k="197" />
<hkern g1="comma,period,ellipsis" 	g2="quoteleft,quotedblleft" 	k="172" />
<hkern g1="comma,period,ellipsis" 	g2="v" 	k="72" />
<hkern g1="e,eogonek" 	g2="T" 	k="49" />
<hkern g1="e,eogonek" 	g2="W" 	k="20" />
<hkern g1="e,eogonek" 	g2="Y" 	k="53" />
<hkern g1="e,eogonek" 	g2="g" 	k="20" />
<hkern g1="e,eogonek" 	g2="w" 	k="-10" />
<hkern g1="e,eogonek" 	g2="y" 	k="-10" />
<hkern g1="e,eogonek" 	g2="quoteright,quotedblright" 	k="20" />
<hkern g1="e,eogonek" 	g2="S,Sacute" 	k="41" />
<hkern g1="e,eogonek" 	g2="a,aogonek" 	k="29" />
<hkern g1="e,eogonek" 	g2="J" 	k="41" />
<hkern g1="e,eogonek" 	g2="t" 	k="29" />
<hkern g1="e,eogonek" 	g2="asterisk" 	k="70" />
<hkern g1="e,eogonek" 	g2="backslash" 	k="41" />
<hkern g1="e,eogonek" 	g2="trademark" 	k="35" />
<hkern g1="e,eogonek" 	g2="V" 	k="33" />
<hkern g1="e,eogonek" 	g2="question" 	k="14" />
<hkern g1="e,eogonek" 	g2="v" 	k="-10" />
<hkern g1="e,eogonek" 	g2="x" 	k="14" />
<hkern g1="e,eogonek" 	g2="hyphen,endash,emdash" 	k="-12" />
<hkern g1="e,eogonek" 	g2="z,zacute,zdotaccent" 	k="-8" />
<hkern g1="f" 	g2="T" 	k="-94" />
<hkern g1="f" 	g2="W" 	k="-94" />
<hkern g1="f" 	g2="Y" 	k="-94" />
<hkern g1="f" 	g2="g" 	k="29" />
<hkern g1="f" 	g2="j" 	k="20" />
<hkern g1="f" 	g2="quoteright,quotedblright" 	k="-70" />
<hkern g1="f" 	g2="comma,period,ellipsis" 	k="102" />
<hkern g1="f" 	g2="a,aogonek" 	k="41" />
<hkern g1="f" 	g2="c,d,e,o,q,oacute,cacute,eogonek" 	k="20" />
<hkern g1="f" 	g2="u" 	k="31" />
<hkern g1="f" 	g2="backslash" 	k="-127" />
<hkern g1="f" 	g2="registered" 	k="-154" />
<hkern g1="f" 	g2="trademark" 	k="-156" />
<hkern g1="f" 	g2="slash" 	k="29" />
<hkern g1="f" 	g2="exclam" 	k="-29" />
<hkern g1="f" 	g2="V" 	k="-111" />
<hkern g1="f" 	g2="X" 	k="-68" />
<hkern g1="f" 	g2="question" 	k="-53" />
<hkern g1="f" 	g2="quotedbl,quotesingle" 	k="-82" />
<hkern g1="f" 	g2="quoteleft,quotedblleft" 	k="-70" />
<hkern g1="f" 	g2="v" 	k="-27" />
<hkern g1="f" 	g2="x" 	k="8" />
<hkern g1="f" 	g2="hyphen,endash,emdash" 	k="29" />
<hkern g1="f" 	g2="s,sacute" 	k="8" />
<hkern g1="f" 	g2="z,zacute,zdotaccent" 	k="29" />
<hkern g1="f" 	g2="parenright,bracketright,braceright" 	k="-100" />
<hkern g1="g" 	g2="T" 	k="53" />
<hkern g1="g" 	g2="Y" 	k="29" />
<hkern g1="g" 	g2="j" 	k="-76" />
<hkern g1="g" 	g2="w" 	k="8" />
<hkern g1="g" 	g2="y" 	k="8" />
<hkern g1="g" 	g2="a,aogonek" 	k="33" />
<hkern g1="g" 	g2="c,d,e,o,q,oacute,cacute,eogonek" 	k="29" />
<hkern g1="g" 	g2="asterisk" 	k="70" />
<hkern g1="g" 	g2="registered" 	k="-29" />
<hkern g1="g" 	g2="slash" 	k="-98" />
<hkern g1="g" 	g2="question" 	k="74" />
<hkern g1="g" 	g2="v" 	k="8" />
<hkern g1="g" 	g2="z,zacute,zdotaccent" 	k="29" />
<hkern g1="g" 	g2="parenright,bracketright,braceright" 	k="-29" />
<hkern g1="k" 	g2="T" 	k="45" />
<hkern g1="k" 	g2="Y" 	k="23" />
<hkern g1="k" 	g2="g" 	k="20" />
<hkern g1="k" 	g2="j" 	k="20" />
<hkern g1="k" 	g2="quoteright,quotedblright" 	k="53" />
<hkern g1="k" 	g2="comma,period,ellipsis" 	k="-29" />
<hkern g1="k" 	g2="a,aogonek" 	k="20" />
<hkern g1="k" 	g2="c,d,e,o,q,oacute,cacute,eogonek" 	k="37" />
<hkern g1="k" 	g2="t" 	k="29" />
<hkern g1="k" 	g2="u" 	k="29" />
<hkern g1="k" 	g2="asterisk" 	k="29" />
<hkern g1="k" 	g2="registered" 	k="14" />
<hkern g1="k" 	g2="trademark" 	k="41" />
<hkern g1="k" 	g2="question" 	k="25" />
<hkern g1="k" 	g2="x" 	k="8" />
<hkern g1="k" 	g2="hyphen,endash,emdash" 	k="90" />
<hkern g1="k" 	g2="guillemotleft,guilsinglleft" 	k="53" />
<hkern g1="k" 	g2="z,zacute,zdotaccent" 	k="14" />
<hkern g1="k" 	g2="guillemotright,guilsinglright" 	k="14" />
<hkern g1="h,m,n,nacute" 	g2="T" 	k="49" />
<hkern g1="h,m,n,nacute" 	g2="Y" 	k="33" />
<hkern g1="h,m,n,nacute" 	g2="asterisk" 	k="70" />
<hkern g1="h,m,n,nacute" 	g2="trademark" 	k="41" />
<hkern g1="h,m,n,nacute" 	g2="V" 	k="20" />
<hkern g1="h,m,n,nacute" 	g2="question" 	k="14" />
<hkern g1="b,o,p,oacute" 	g2="T" 	k="117" />
<hkern g1="b,o,p,oacute" 	g2="Y" 	k="94" />
<hkern g1="b,o,p,oacute" 	g2="w" 	k="8" />
<hkern g1="b,o,p,oacute" 	g2="y" 	k="8" />
<hkern g1="b,o,p,oacute" 	g2="quoteright,quotedblright" 	k="53" />
<hkern g1="b,o,p,oacute" 	g2="comma,period,ellipsis" 	k="20" />
<hkern g1="b,o,p,oacute" 	g2="a,aogonek" 	k="29" />
<hkern g1="b,o,p,oacute" 	g2="backslash" 	k="53" />
<hkern g1="b,o,p,oacute" 	g2="registered" 	k="14" />
<hkern g1="b,o,p,oacute" 	g2="V" 	k="39" />
<hkern g1="b,o,p,oacute" 	g2="X" 	k="8" />
<hkern g1="b,o,p,oacute" 	g2="question" 	k="25" />
<hkern g1="b,o,p,oacute" 	g2="quoteleft,quotedblleft" 	k="29" />
<hkern g1="b,o,p,oacute" 	g2="v" 	k="8" />
<hkern g1="b,o,p,oacute" 	g2="x" 	k="35" />
<hkern g1="b,o,p,oacute" 	g2="hyphen,endash,emdash" 	k="-12" />
<hkern g1="b,o,p,oacute" 	g2="z,zacute,zdotaccent" 	k="12" />
<hkern g1="quoteleft,quotedblleft" 	g2="Y" 	k="-18" />
<hkern g1="quoteleft,quotedblleft" 	g2="g" 	k="68" />
<hkern g1="quoteleft,quotedblleft" 	g2="comma,period,ellipsis" 	k="170" />
<hkern g1="quoteleft,quotedblleft" 	g2="A,Aogonek" 	k="113" />
<hkern g1="quoteleft,quotedblleft" 	g2="a,aogonek" 	k="88" />
<hkern g1="quoteleft,quotedblleft" 	g2="f" 	k="29" />
<hkern g1="quoteleft,quotedblleft" 	g2="c,d,e,o,q,oacute,cacute,eogonek" 	k="68" />
<hkern g1="quoteleft,quotedblleft" 	g2="X" 	k="14" />
<hkern g1="r" 	g2="g" 	k="20" />
<hkern g1="r" 	g2="j" 	k="12" />
<hkern g1="r" 	g2="w" 	k="-27" />
<hkern g1="r" 	g2="y" 	k="-39" />
<hkern g1="r" 	g2="quoteright,quotedblright" 	k="14" />
<hkern g1="r" 	g2="comma,period,ellipsis" 	k="117" />
<hkern g1="r" 	g2="A,Aogonek" 	k="39" />
<hkern g1="r" 	g2="Z,Zacute,Zdotaccent" 	k="20" />
<hkern g1="r" 	g2="a,aogonek" 	k="51" />
<hkern g1="r" 	g2="c,d,e,o,q,oacute,cacute,eogonek" 	k="20" />
<hkern g1="r" 	g2="J" 	k="113" />
<hkern g1="r" 	g2="backslash" 	k="-27" />
<hkern g1="r" 	g2="registered" 	k="-127" />
<hkern g1="r" 	g2="slash" 	k="70" />
<hkern g1="r" 	g2="quoteleft,quotedblleft" 	k="-70" />
<hkern g1="r" 	g2="v" 	k="-39" />
<hkern g1="r" 	g2="hyphen,endash,emdash" 	k="49" />
<hkern g1="r" 	g2="guillemotleft,guilsinglleft" 	k="41" />
<hkern g1="r" 	g2="s,sacute" 	k="20" />
<hkern g1="r" 	g2="z,zacute,zdotaccent" 	k="20" />
<hkern g1="s,sacute" 	g2="T" 	k="49" />
<hkern g1="s,sacute" 	g2="Y" 	k="41" />
<hkern g1="s,sacute" 	g2="quoteright,quotedblright" 	k="23" />
<hkern g1="s,sacute" 	g2="asterisk" 	k="100" />
<hkern g1="s,sacute" 	g2="V" 	k="20" />
<hkern g1="s,sacute" 	g2="question" 	k="23" />
<hkern g1="s,sacute" 	g2="hyphen,endash,emdash" 	k="-20" />
<hkern g1="t" 	g2="T" 	k="29" />
<hkern g1="t" 	g2="Y" 	k="8" />
<hkern g1="t" 	g2="g" 	k="20" />
<hkern g1="t" 	g2="comma,period,ellipsis" 	k="-29" />
<hkern g1="t" 	g2="a,aogonek" 	k="37" />
<hkern g1="t" 	g2="c,d,e,o,q,oacute,cacute,eogonek" 	k="20" />
<hkern g1="t" 	g2="u" 	k="12" />
<hkern g1="t" 	g2="registered" 	k="-70" />
<hkern g1="t" 	g2="slash" 	k="-29" />
<hkern g1="t" 	g2="question" 	k="53" />
<hkern g1="t" 	g2="hyphen,endash,emdash" 	k="53" />
<hkern g1="t" 	g2="guillemotleft,guilsinglleft" 	k="37" />
<hkern g1="t" 	g2="colon,semicolon" 	k="-29" />
<hkern g1="q,u" 	g2="T" 	k="41" />
<hkern g1="q,u" 	g2="Y" 	k="61" />
<hkern g1="q,u" 	g2="asterisk" 	k="49" />
<hkern g1="q,u" 	g2="V" 	k="29" />
<hkern g1="w" 	g2="T" 	k="49" />
<hkern g1="w" 	g2="Y" 	k="23" />
<hkern g1="w" 	g2="j" 	k="20" />
<hkern g1="w" 	g2="comma,period,ellipsis" 	k="84" />
<hkern g1="w" 	g2="A,Aogonek" 	k="8" />
<hkern g1="w" 	g2="a,aogonek" 	k="20" />
<hkern g1="w" 	g2="c,d,e,o,q,oacute,cacute,eogonek" 	k="8" />
<hkern g1="w" 	g2="J" 	k="61" />
<hkern g1="w" 	g2="asterisk" 	k="16" />
<hkern g1="w" 	g2="registered" 	k="-78" />
<hkern g1="w" 	g2="trademark" 	k="-29" />
<hkern g1="w" 	g2="slash" 	k="16" />
<hkern g1="w" 	g2="V" 	k="8" />
<hkern g1="w" 	g2="X" 	k="29" />
<hkern g1="w" 	g2="z,zacute,zdotaccent" 	k="35" />
<hkern g1="y" 	g2="T" 	k="41" />
<hkern g1="y" 	g2="Y" 	k="14" />
<hkern g1="y" 	g2="j" 	k="20" />
<hkern g1="y" 	g2="comma,period,ellipsis" 	k="72" />
<hkern g1="y" 	g2="a,aogonek" 	k="41" />
<hkern g1="y" 	g2="c,d,e,o,q,oacute,cacute,eogonek" 	k="8" />
<hkern g1="y" 	g2="J" 	k="82" />
<hkern g1="y" 	g2="registered" 	k="-92" />
<hkern g1="y" 	g2="trademark" 	k="-27" />
<hkern g1="y" 	g2="slash" 	k="29" />
<hkern g1="y" 	g2="V" 	k="8" />
<hkern g1="y" 	g2="X" 	k="8" />
<hkern g1="y" 	g2="z,zacute,zdotaccent" 	k="49" />
<hkern g1="z,zacute,zdotaccent" 	g2="T" 	k="53" />
<hkern g1="z,zacute,zdotaccent" 	g2="Y" 	k="8" />
<hkern g1="z,zacute,zdotaccent" 	g2="g" 	k="12" />
<hkern g1="z,zacute,zdotaccent" 	g2="y" 	k="8" />
<hkern g1="z,zacute,zdotaccent" 	g2="a,aogonek" 	k="47" />
<hkern g1="z,zacute,zdotaccent" 	g2="c,d,e,o,q,oacute,cacute,eogonek" 	k="20" />
<hkern g1="z,zacute,zdotaccent" 	g2="u" 	k="20" />
<hkern g1="z,zacute,zdotaccent" 	g2="registered" 	k="-51" />
<hkern g1="z,zacute,zdotaccent" 	g2="trademark" 	k="-27" />
<hkern g1="z,zacute,zdotaccent" 	g2="v" 	k="8" />
<hkern g1="z,zacute,zdotaccent" 	g2="hyphen,endash,emdash" 	k="33" />
<hkern g1="F" 	g2="W" 	k="-8" />
<hkern g1="F" 	g2="g" 	k="49" />
<hkern g1="F" 	g2="w" 	k="33" />
<hkern g1="F" 	g2="y" 	k="33" />
<hkern g1="F" 	g2="comma,period,ellipsis" 	k="147" />
<hkern g1="F" 	g2="A,Aogonek" 	k="76" />
<hkern g1="F" 	g2="S,Sacute" 	k="41" />
<hkern g1="F" 	g2="Z,Zacute,Zdotaccent" 	k="61" />
<hkern g1="F" 	g2="C,G,O,Q,Oacute,Cacute" 	k="20" />
<hkern g1="F" 	g2="a,aogonek" 	k="70" />
<hkern g1="F" 	g2="c,d,e,o,q,oacute,cacute,eogonek" 	k="29" />
<hkern g1="F" 	g2="J" 	k="283" />
<hkern g1="F" 	g2="t" 	k="20" />
<hkern g1="F" 	g2="u" 	k="33" />
<hkern g1="F" 	g2="guillemotleft,guilsinglleft" 	k="41" />
<hkern g1="F" 	g2="m,n,p,r,nacute" 	k="41" />
<hkern g1="F" 	g2="s,sacute" 	k="41" />
<hkern g1="F" 	g2="z,zacute,zdotaccent" 	k="61" />
<hkern g1="J" 	g2="comma,period,ellipsis" 	k="49" />
<hkern g1="J" 	g2="J" 	k="80" />
<hkern g1="P" 	g2="T" 	k="49" />
<hkern g1="P" 	g2="Y" 	k="20" />
<hkern g1="P" 	g2="g" 	k="61" />
<hkern g1="P" 	g2="comma,period,ellipsis" 	k="229" />
<hkern g1="P" 	g2="A,Aogonek" 	k="102" />
<hkern g1="P" 	g2="S,Sacute" 	k="20" />
<hkern g1="P" 	g2="Z,Zacute,Zdotaccent" 	k="160" />
<hkern g1="P" 	g2="a,aogonek" 	k="88" />
<hkern g1="P" 	g2="c,d,e,o,q,oacute,cacute,eogonek" 	k="49" />
<hkern g1="P" 	g2="J" 	k="299" />
<hkern g1="P" 	g2="hyphen,endash,emdash" 	k="51" />
<hkern g1="P" 	g2="guillemotleft,guilsinglleft" 	k="41" />
<hkern g1="P" 	g2="s,sacute" 	k="20" />
<hkern g1="P" 	g2="z,zacute,zdotaccent" 	k="41" />
<hkern g1="V" 	g2="U" 	k="20" />
<hkern g1="V" 	g2="g" 	k="43" />
<hkern g1="V" 	g2="w" 	k="18" />
<hkern g1="V" 	g2="y" 	k="18" />
<hkern g1="V" 	g2="comma,period,ellipsis" 	k="133" />
<hkern g1="V" 	g2="A,Aogonek" 	k="29" />
<hkern g1="V" 	g2="S,Sacute" 	k="33" />
<hkern g1="V" 	g2="Z,Zacute,Zdotaccent" 	k="39" />
<hkern g1="V" 	g2="C,G,O,Q,Oacute,Cacute" 	k="20" />
<hkern g1="V" 	g2="a,aogonek" 	k="45" />
<hkern g1="V" 	g2="c,d,e,o,q,oacute,cacute,eogonek" 	k="31" />
<hkern g1="V" 	g2="J" 	k="150" />
<hkern g1="V" 	g2="i" 	k="6" />
<hkern g1="V" 	g2="u" 	k="61" />
<hkern g1="V" 	g2="hyphen,endash,emdash" 	k="39" />
<hkern g1="V" 	g2="guillemotleft,guilsinglleft" 	k="43" />
<hkern g1="V" 	g2="m,n,p,r,nacute" 	k="41" />
<hkern g1="V" 	g2="s,sacute" 	k="25" />
<hkern g1="V" 	g2="z,zacute,zdotaccent" 	k="51" />
<hkern g1="V" 	g2="guillemotright,guilsinglright" 	k="39" />
<hkern g1="X" 	g2="T" 	k="41" />
<hkern g1="X" 	g2="U" 	k="20" />
<hkern g1="X" 	g2="w" 	k="29" />
<hkern g1="X" 	g2="y" 	k="33" />
<hkern g1="X" 	g2="quoteright,quotedblright" 	k="14" />
<hkern g1="X" 	g2="A,Aogonek" 	k="-6" />
<hkern g1="X" 	g2="S,Sacute" 	k="29" />
<hkern g1="X" 	g2="C,G,O,Q,Oacute,Cacute" 	k="35" />
<hkern g1="X" 	g2="a,aogonek" 	k="20" />
<hkern g1="X" 	g2="f" 	k="33" />
<hkern g1="X" 	g2="c,d,e,o,q,oacute,cacute,eogonek" 	k="14" />
<hkern g1="X" 	g2="J" 	k="10" />
<hkern g1="X" 	g2="t" 	k="33" />
<hkern g1="X" 	g2="u" 	k="20" />
<hkern g1="X" 	g2="quotedbl,quotesingle" 	k="8" />
<hkern g1="X" 	g2="quoteleft,quotedblleft" 	k="14" />
<hkern g1="X" 	g2="hyphen,endash,emdash" 	k="55" />
<hkern g1="X" 	g2="guillemotleft,guilsinglleft" 	k="29" />
<hkern g1="X" 	g2="z,zacute,zdotaccent" 	k="29" />
<hkern g1="X" 	g2="guillemotright,guilsinglright" 	k="14" />
<hkern g1="parenleft,bracketleft,braceleft" 	g2="j" 	k="-164" />
<hkern g1="parenleft,bracketleft,braceleft" 	g2="J" 	k="41" />
<hkern g1="hyphen,endash,emdash" 	g2="T" 	k="51" />
<hkern g1="hyphen,endash,emdash" 	g2="W" 	k="8" />
<hkern g1="hyphen,endash,emdash" 	g2="Y" 	k="135" />
<hkern g1="hyphen,endash,emdash" 	g2="Z,Zacute,Zdotaccent" 	k="41" />
<hkern g1="hyphen,endash,emdash" 	g2="V" 	k="53" />
<hkern g1="hyphen,endash,emdash" 	g2="X" 	k="53" />
<hkern g1="hyphen,endash,emdash" 	g2="v" 	k="8" />
<hkern g1="hyphen,endash,emdash" 	g2="x" 	k="29" />
<hkern g1="guillemotleft,guilsinglleft" 	g2="T" 	k="82" />
<hkern g1="guillemotleft,guilsinglleft" 	g2="W" 	k="35" />
<hkern g1="guillemotleft,guilsinglleft" 	g2="Y" 	k="92" />
<hkern g1="guillemotleft,guilsinglleft" 	g2="V" 	k="35" />
<hkern g1="guillemotleft,guilsinglleft" 	g2="X" 	k="14" />
<hkern g1="guillemotleft,guilsinglleft" 	g2="x" 	k="41" />
<hkern g1="guillemotright,guilsinglright" 	g2="T" 	k="94" />
<hkern g1="guillemotright,guilsinglright" 	g2="W" 	k="20" />
<hkern g1="guillemotright,guilsinglright" 	g2="Y" 	k="113" />
<hkern g1="guillemotright,guilsinglright" 	g2="S,Sacute" 	k="61" />
<hkern g1="guillemotright,guilsinglright" 	g2="Z,Zacute,Zdotaccent" 	k="37" />
<hkern g1="guillemotright,guilsinglright" 	g2="J" 	k="61" />
<hkern g1="guillemotright,guilsinglright" 	g2="V" 	k="43" />
<hkern g1="guillemotright,guilsinglright" 	g2="X" 	k="29" />
<hkern g1="guillemotright,guilsinglright" 	g2="x" 	k="49" />
<hkern g1="question" 	g2="quoteright,quotedblright" 	k="43" />
<hkern g1="quotedbl,quotesingle" 	g2="comma,period,ellipsis" 	k="236" />
<hkern g1="quotedbl,quotesingle" 	g2="A,Aogonek" 	k="113" />
<hkern g1="quotedbl,quotesingle" 	g2="X" 	k="8" />
<hkern g1="quotedbl,quotesingle" 	g2="s,sacute" 	k="41" />
<hkern g1="quoteright,quotedblright" 	g2="g" 	k="68" />
<hkern g1="quoteright,quotedblright" 	g2="comma,period,ellipsis" 	k="270" />
<hkern g1="quoteright,quotedblright" 	g2="A,Aogonek" 	k="119" />
<hkern g1="quoteright,quotedblright" 	g2="a,aogonek" 	k="70" />
<hkern g1="quoteright,quotedblright" 	g2="f" 	k="33" />
<hkern g1="quoteright,quotedblright" 	g2="c,d,e,o,q,oacute,cacute,eogonek" 	k="68" />
<hkern g1="quoteright,quotedblright" 	g2="X" 	k="14" />
<hkern g1="quoteright,quotedblright" 	g2="s,sacute" 	k="100" />
<hkern g1="v" 	g2="T" 	k="41" />
<hkern g1="v" 	g2="Y" 	k="14" />
<hkern g1="v" 	g2="j" 	k="20" />
<hkern g1="v" 	g2="comma,period,ellipsis" 	k="72" />
<hkern g1="v" 	g2="A,Aogonek" 	k="23" />
<hkern g1="v" 	g2="Z,Zacute,Zdotaccent" 	k="8" />
<hkern g1="v" 	g2="a,aogonek" 	k="41" />
<hkern g1="v" 	g2="c,d,e,o,q,oacute,cacute,eogonek" 	k="8" />
<hkern g1="v" 	g2="J" 	k="82" />
<hkern g1="v" 	g2="hyphen,endash,emdash" 	k="14" />
<hkern g1="v" 	g2="z,zacute,zdotaccent" 	k="49" />
<hkern g1="x" 	g2="T" 	k="68" />
<hkern g1="x" 	g2="Y" 	k="31" />
<hkern g1="x" 	g2="y" 	k="29" />
<hkern g1="x" 	g2="S,Sacute" 	k="8" />
<hkern g1="x" 	g2="C,G,O,Q,Oacute,Cacute" 	k="20" />
<hkern g1="x" 	g2="a,aogonek" 	k="20" />
<hkern g1="x" 	g2="c,d,e,o,q,oacute,cacute,eogonek" 	k="35" />
<hkern g1="x" 	g2="hyphen,endash,emdash" 	k="29" />
<hkern g1="x" 	g2="guillemotleft,guilsinglleft" 	k="49" />
<hkern g1="x" 	g2="guillemotright,guilsinglright" 	k="41" />
</font>
</defs></svg> 