<?xml version="1.0" standalone="no"?>
<!DOCTYPE svg PUBLIC "-//W3C//DTD SVG 1.1//EN" "http://www.w3.org/Graphics/SVG/1.1/DTD/svg11.dtd" >
<svg xmlns="http://www.w3.org/2000/svg">
<metadata></metadata>
<defs>
<font id="roboto_condensedregular" horiz-adv-x="1011" >
<font-face units-per-em="2048" ascent="1536" descent="-512" />
<missing-glyph horiz-adv-x="469" />
<glyph horiz-adv-x="40" />
<glyph horiz-adv-x="40" />
<glyph unicode="&#xd;" horiz-adv-x="469" />
<glyph horiz-adv-x="40" />
<glyph unicode=" "  horiz-adv-x="469" />
<glyph unicode="&#x09;" horiz-adv-x="469" />
<glyph unicode="&#xa0;" horiz-adv-x="469" />
<glyph unicode="!" horiz-adv-x="503" d="M156 93q0 45 25 75.5t76 30.5q50 0 75.5 -30.5t25.5 -75.5t-25.5 -74.5t-75.5 -29.5q-51 0 -76 29.5t-25 74.5zM160 1456h186l-14 -1045h-159z" />
<glyph unicode="&#x22;" horiz-adv-x="655" d="M136 1042l1 494h140v-136l-30 -358h-111zM406 1042l1 494h140v-136l-30 -358h-111z" />
<glyph unicode="#" horiz-adv-x="1122" d="M131 410v137h218l59 354h-213v139h236l69 416h134l-69 -416h206l69 416h135l-69 -416h162v-139h-185l-59 -354h181v-137h-204l-68 -410h-135l68 410h-206l-68 -410h-134l68 410h-195zM483 547h206l59 354h-206z" />
<glyph unicode="$" d="M111 429h176q0 -139 56 -214t158 -75q104 0 163.5 62.5t59.5 172.5q0 91 -50 153.5t-172 115.5q-179 65 -261 169.5t-82 265.5q0 164 79.5 267.5t216.5 125.5v220h141v-221q140 -25 216.5 -142.5t76.5 -320.5h-175q0 139 -51 223t-140 84t-138.5 -61t-49.5 -172 q0 -101 53.5 -161.5t174.5 -111.5q181 -68 259.5 -169.5t78.5 -262.5q0 -164 -84 -268t-241 -125v-192h-139v192q-158 23 -242 138t-84 307z" />
<glyph unicode="%" horiz-adv-x="1296" d="M107 1105v71q0 130 70.5 215.5t183.5 85.5q112 0 183.5 -84t71.5 -221v-73q0 -131 -70.5 -215t-182.5 -84t-184 84t-72 221zM236 1099q0 -80 35 -129.5t92 -49.5q55 0 89.5 48.5t34.5 134.5v73q0 81 -35 130.5t-91 49.5q-57 0 -91 -50t-34 -133v-74zM302 176l597 1138 l98 -66l-598 -1138zM695 284v73q0 131 71 215.5t183 84.5t184 -84t72 -223v-71q0 -132 -72 -216t-182 -84q-112 0 -184 84t-72 221zM824 279q0 -81 35 -130.5t92 -49.5q56 0 90 50t34 133v75q0 81 -35 130t-91 49q-55 0 -90 -48.5t-35 -133.5v-75z" />
<glyph unicode="&#x26;" horiz-adv-x="1113" d="M103 391q0 103 49.5 190.5t189.5 203.5q-82 115 -112.5 189.5t-30.5 147.5q0 167 85.5 260.5t229.5 93.5q132 0 217 -88t85 -220q0 -86 -34 -159t-120 -148l-103 -88l256 -369q47 119 47 268h158q0 -252 -102 -416l178 -256h-212l-74 107q-57 -59 -138 -93t-168 -34 q-183 0 -292 114t-109 297zM279 391q0 -116 60 -188t165 -72q117 0 215 110l-289 421l-30 -25q-121 -115 -121 -246zM375 1128q0 -54 27 -111t70 -121l77 66q61 49 83 94.5t22 111.5t-40 111t-101 45q-65 0 -101.5 -56t-36.5 -140z" />
<glyph unicode="'" horiz-adv-x="357" d="M103 1057l1 479h149v-111l-21 -368h-129z" />
<glyph unicode="(" horiz-adv-x="643" d="M129 591q0 262 71 493t201 405q79 105 152 154l35 -122q-120 -115 -197 -346.5t-84 -514.5l-1 -81q0 -352 99 -622q75 -203 183 -314l-35 -113q-92 62 -187 204q-237 357 -237 857z" />
<glyph unicode=")" horiz-adv-x="652" d="M54 -357q126 121 203 369.5t79 544.5v36q0 380 -125 680q-69 164 -157 257l35 113q110 -74 213 -243q211 -348 211 -819q0 -446 -200 -789q-108 -184 -224 -262z" />
<glyph unicode="*" horiz-adv-x="882" d="M28 1073l46 151l302 -112l-9 344h153l-10 -349l297 110l46 -152l-307 -91l198 -271l-124 -94l-186 288l-180 -281l-125 91l201 276z" />
<glyph unicode="+" horiz-adv-x="1017" d="M86 606v175h332v425h178v-425h329v-175h-329v-460h-178v460h-332z" />
<glyph unicode="," horiz-adv-x="402" d="M29 -218q94 131 98 270v167h181v-145q0 -101 -49.5 -202t-124.5 -162z" />
<glyph unicode="-" horiz-adv-x="508" d="M47 543v151h413v-151h-413z" />
<glyph unicode="." horiz-adv-x="539" d="M144 97q0 48 28.5 80t85.5 32t86.5 -32t29.5 -80q0 -46 -29.5 -77t-86.5 -31t-85.5 31t-28.5 77z" />
<glyph unicode="/" horiz-adv-x="759" d="M31 -125l511 1581h149l-510 -1581h-150z" />
<glyph unicode="0" d="M115 593v250q0 319 94.5 476t294.5 157q197 0 291.5 -149t99.5 -451v-255q0 -322 -94 -481.5t-295 -159.5q-195 0 -291 153t-100 460zM291 592q0 -230 53 -345.5t162 -115.5q108 0 159 109t53 333v301q0 231 -51 340.5t-163 109.5q-109 0 -160 -107.5t-53 -324.5v-300z " />
<glyph unicode="1" d="M160 1096v168l456 199h28v-1463h-178v1233z" />
<glyph unicode="2" d="M94 1027q0 201 110 325t299 124q174 0 274 -106.5t100 -283.5q0 -216 -225 -511l-324 -424h603v-151h-814v133l415 550q94 127 130.5 208.5t36.5 172.5q0 116 -54 188t-142 72q-111 0 -171.5 -76.5t-60.5 -220.5h-177z" />
<glyph unicode="3" d="M98 384h177q0 -116 56 -184.5t153 -68.5q99 0 157.5 67t58.5 204q0 265 -251 265h-106v151h113q109 0 168 67t59 183q0 256 -198 256q-95 0 -149 -69t-54 -181h-176q0 175 106.5 288.5t272.5 113.5q172 0 273 -107.5t101 -304.5q0 -101 -52.5 -188.5t-136.5 -128.5 q206 -76 206 -341q0 -195 -108.5 -310.5t-283.5 -115.5q-173 0 -279.5 109.5t-106.5 294.5z" />
<glyph unicode="4" d="M60 338v109l541 1009h186v-967h162v-151h-162v-338h-177v338h-550zM256 489h354v692z" />
<glyph unicode="5" d="M145 383h166q15 -125 71.5 -188.5t147.5 -63.5q103 0 161 89.5t58 241.5q0 143 -62.5 233t-168.5 90q-88 0 -141 -46l-47 -47l-141 38l63 726h633v-171h-484l-34 -397q90 63 194 63q170 0 267 -132t97 -355q0 -226 -105.5 -355t-289.5 -129q-164 0 -267 107t-118 296z " />
<glyph unicode="6" d="M132 554v71q0 300 65 478t191.5 264.5t314.5 89.5h30v-157h-29q-177 -4 -277 -119.5t-115 -347.5q97 122 248 122q161 0 255.5 -132.5t94.5 -347.5q0 -229 -104.5 -362t-280.5 -133q-177 0 -285 157t-108 417zM309 533q0 -177 62.5 -288.5t153.5 -111.5q99 0 155 91.5 t56 241.5q0 148 -56 241.5t-150 93.5q-72 0 -133 -55t-88 -140v-73z" />
<glyph unicode="7" d="M85 1304v152h835v-104l-501 -1352h-185l500 1304h-649z" />
<glyph unicode="8" d="M116 393q0 120 54.5 214.5t148.5 142.5q-82 48 -129 132.5t-47 193.5q0 184 99.5 292t262.5 108q162 0 261.5 -107t99.5 -293q0 -109 -48.5 -194t-130.5 -133q97 -50 152 -143.5t55 -212.5q0 -188 -106.5 -300.5t-282.5 -112.5t-282.5 112.5t-106.5 300.5zM292 397 q0 -126 55.5 -196t157.5 -70t157 70t55 196q0 125 -59 200.5t-155 75.5q-98 0 -154.5 -76t-56.5 -200zM320 1073q0 -114 51 -181t134 -67q85 0 135 68t50 180q0 111 -52 181t-133 70q-85 0 -135 -69t-50 -182z" />
<glyph unicode="9" d="M104 972q0 228 102.5 366t279.5 138q184 0 287.5 -159.5t103.5 -441.5v-55q0 -242 -36.5 -392t-107.5 -242t-181 -139.5t-275 -47.5v156h31q188 4 285.5 114.5t105.5 352.5q-106 -135 -248 -135q-159 0 -253 134t-94 351zM277 982q0 -151 55 -246.5t149 -95.5 q64 0 125 53.5t95 140.5v78q0 181 -63 295.5t-152 114.5q-96 0 -152.5 -94.5t-56.5 -245.5z" />
<glyph unicode=":" horiz-adv-x="478" d="M138 97q0 48 28.5 80t85.5 32t86.5 -32t29.5 -80q0 -46 -29.5 -77t-86.5 -31t-85.5 31t-28.5 77zM139 980q0 48 28.5 80t85.5 32t86.5 -32t29.5 -80q0 -46 -29.5 -77t-86.5 -31t-85.5 31t-28.5 77z" />
<glyph unicode=";" horiz-adv-x="415" d="M43 -218q94 131 98 270v167h181v-145q0 -101 -49.5 -202t-124.5 -162zM115 980q0 48 28.5 80t85.5 32t86.5 -32t29.5 -80q0 -46 -29.5 -77t-86.5 -31t-85.5 31t-28.5 77z" />
<glyph unicode="&#x3c;" horiz-adv-x="913" d="M79 574v146l684 378v-196l-510 -258l510 -253v-196z" />
<glyph unicode="=" horiz-adv-x="981" d="M148 399v160h701v-160h-701zM148 814v161h701v-161h-701z" />
<glyph unicode="&#x3e;" horiz-adv-x="942" d="M136 196v192l542 263l-542 258v190l720 -378v-146z" />
<glyph unicode="?" horiz-adv-x="864" d="M80 1115q2 165 100 263t253 98q161 0 253 -101t92 -279q0 -170 -139 -341l-92 -111q-57 -81 -57 -234h-176q0 120 25 195t122 191l70 90q70 98 70 204q0 105 -43.5 164.5t-124.5 59.5q-76 0 -126.5 -54t-50.5 -145h-176zM310 93q0 45 24.5 75.5t75.5 30.5 q50 0 75.5 -30.5t25.5 -75.5t-25.5 -74.5t-75.5 -29.5q-51 0 -75.5 29.5t-24.5 74.5z" />
<glyph unicode="@" horiz-adv-x="1575" d="M116 478q9 275 102.5 495t252.5 339t359 119q206 0 356.5 -112.5t223.5 -322t64 -494.5q-8 -235 -99.5 -378.5t-250.5 -143.5q-155 0 -203 159q-45 -80 -100.5 -119.5t-112.5 -39.5q-122 0 -183 116.5t-45 320.5q12 163 63.5 293.5t131.5 204.5t167 74q71 0 126 -22 t123 -84l-45 -554q-16 -231 99 -231q89 0 145.5 108t63.5 296q15 391 -120.5 594t-407.5 203q-168 0 -294 -99.5t-198.5 -287t-80.5 -434.5q-14 -379 123.5 -592.5t395.5 -213.5q77 0 153.5 22.5t125.5 56.5l33 -115q-53 -39 -139.5 -64t-175.5 -25q-209 0 -360.5 112 t-226.5 323.5t-66 495.5zM630 417q-11 -142 22 -218t102 -76q44 0 84.5 48t67.5 138l2 20l39 509q-44 23 -89 23q-93 0 -154 -120t-74 -324z" />
<glyph unicode="A" horiz-adv-x="1180" d="M43 0l469 1456h157l470 -1456h-188l-115 380h-492l-113 -380h-188zM392 538h397l-199 662z" />
<glyph unicode="B" horiz-adv-x="1117" d="M157 0v1456h415q199 0 299.5 -97t100.5 -291q0 -102 -51 -180t-138 -121q100 -30 158.5 -123t58.5 -224q0 -196 -107.5 -308t-306.5 -112h-429zM340 157h250q104 0 165 68.5t61 192.5q0 263 -222 263h-254v-524zM340 835h235q95 0 153.5 64t58.5 170q0 120 -53 174.5 t-162 54.5h-232v-463z" />
<glyph unicode="C" horiz-adv-x="1161" d="M124 598v264q0 284 132.5 449t361.5 165q211 0 326.5 -126.5t125.5 -361.5h-185q-12 178 -75 254t-192 76q-149 0 -229 -116.5t-80 -341.5v-267q0 -221 74.5 -339t217.5 -118t206 71t78 255h185q-12 -234 -131.5 -358t-337.5 -124q-219 0 -348 166.5t-129 451.5z" />
<glyph unicode="D" horiz-adv-x="1169" d="M157 0v1456h347q255 0 396 -159.5t141 -448.5v-244q0 -289 -143 -446.5t-415 -157.5h-326zM340 157h147q193 0 282 110.5t91 327.5v258q0 230 -88.5 337.5t-267.5 107.5h-164v-1141z" />
<glyph unicode="E" horiz-adv-x="1017" d="M157 0v1456h773v-158h-590v-468h515v-157h-515v-516h600v-157h-783z" />
<glyph unicode="F" horiz-adv-x="984" d="M157 0v1456h758v-158h-575v-498h492v-157h-492v-643h-183z" />
<glyph unicode="G" horiz-adv-x="1210" d="M124 579v286q0 306 122.5 458.5t366.5 152.5q208 0 325.5 -116t129.5 -331h-183q-11 136 -75.5 212.5t-195.5 76.5q-157 0 -230 -102.5t-76 -327.5v-297q0 -220 84 -337.5t241 -117.5q148 0 225 72l27 25v336h-266v156h449v-544l-32 -40q-138 -161 -404 -161 q-236 0 -370.5 156.5t-137.5 442.5z" />
<glyph unicode="H" horiz-adv-x="1270" d="M157 0v1456h183v-626h586v626h184v-1456h-184v673h-586v-673h-183z" />
<glyph unicode="I" horiz-adv-x="512" d="M165 0v1456h183v-1456h-183z" />
<glyph unicode="J" horiz-adv-x="990" d="M59 402h183q0 -125 55 -195t153 -70q95 0 152 76t57 213v1030h184v-1031q0 -209 -106.5 -327t-286.5 -118q-185 0 -288 112t-103 310z" />
<glyph unicode="K" horiz-adv-x="1116" d="M157 0v1456h183v-703l120 159l392 544h220l-473 -641l510 -815h-219l-407 671l-143 -173v-498h-183z" />
<glyph unicode="L" horiz-adv-x="973" d="M157 0v1456h184v-1299h571v-157h-755z" />
<glyph unicode="M" horiz-adv-x="1547" d="M157 0v1456h236l380 -1188l380 1188h236v-1456h-183v567l17 568l-381 -1135h-140l-379 1131l17 -564v-567h-183z" />
<glyph unicode="N" horiz-adv-x="1268" d="M157 0v1456h184l585 -1127v1127h182v-1456h-184l-583 1122v-1122h-184z" />
<glyph unicode="O" horiz-adv-x="1230" d="M125 579v274q0 292 129 457.5t360 165.5q230 0 358.5 -158.5t131.5 -452.5v-265q0 -298 -127 -459t-361 -161q-225 0 -355.5 156.5t-135.5 442.5zM307 600q0 -223 77.5 -340t231.5 -117t228 108t77 331v273q0 231 -75.5 343.5t-231.5 112.5q-151 0 -228.5 -114 t-78.5 -336v-261z" />
<glyph unicode="P" horiz-adv-x="1135" d="M157 0v1456h464q203 0 319 -121.5t116 -323.5q0 -210 -110.5 -323.5t-311.5 -117.5h-294v-570h-183zM340 727h281q122 0 187 73t65 209q0 131 -67 210t-184 79h-282v-571z" />
<glyph unicode="Q" horiz-adv-x="1230" d="M116 588v265q0 294 129 458.5t360 164.5q233 0 361 -160.5t130 -454.5v-260q0 -192 -51.5 -324.5t-146.5 -206.5l217 -195l-124 -121l-262 239q-63 -13 -122 -13q-227 0 -357.5 159.5t-133.5 448.5zM299 601q0 -224 77.5 -341t230.5 -117q152 0 227 106t79 327v279 q0 231 -75.5 343.5t-232.5 112.5q-150 0 -227.5 -114t-78.5 -336v-260z" />
<glyph unicode="R" horiz-adv-x="1087" d="M157 0v1456h408q214 0 324 -111.5t110 -326.5q0 -135 -59.5 -235.5t-168.5 -151.5l282 -619v-12h-197l-259 589h-256v-589h-184zM341 746h222q115 0 183.5 74t68.5 198q0 280 -254 280h-220v-552z" />
<glyph unicode="S" horiz-adv-x="1061" d="M85 422h184q0 -135 75.5 -210t205.5 -75q121 0 182 62t61 169q0 109 -59 167t-213 113t-235.5 115.5t-122 138t-40.5 177.5q0 173 115.5 285t302.5 112q128 0 228 -57.5t154 -159.5t54 -224h-184q0 135 -65 209t-187 74q-111 0 -172 -62t-61 -174q0 -92 66 -154t204 -111 q215 -71 307.5 -175t92.5 -272q0 -177 -115 -283.5t-313 -106.5q-127 0 -234.5 55.5t-169 156t-61.5 230.5z" />
<glyph unicode="T" horiz-adv-x="1066" d="M60 1298v158h948v-158h-383v-1298h-183v1298h-382z" />
<glyph unicode="U" horiz-adv-x="1150" d="M130 421v1035h182v-1028q0 -147 62.5 -219.5t201.5 -72.5q140 0 202.5 72.5t62.5 219.5v1028h184v-1035q-2 -207 -120 -324t-329 -117q-216 0 -330 114.5t-116 326.5z" />
<glyph unicode="V" horiz-adv-x="1147" d="M42 1456h200l331 -1175l333 1175h201l-453 -1456h-160z" />
<glyph unicode="W" horiz-adv-x="1560" d="M71 1456h183l181 -997l19 -163l29 144l233 1016h153l226 -1016l29 -148l21 168l178 996h183l-290 -1456h-165l-243 1061l-15 86l-15 -86l-252 -1061h-166z" />
<glyph unicode="X" horiz-adv-x="1128" d="M68 0l389 734l-381 722h214l276 -558l274 558h215l-379 -722l387 -734h-217l-280 568l-281 -568h-217z" />
<glyph unicode="Y" horiz-adv-x="1074" d="M30 1456h208l298 -731l298 731h207l-414 -913v-543h-183v543z" />
<glyph unicode="Z" horiz-adv-x="1070" d="M91 0v144l663 1154h-656v158h860v-141l-664 -1158h691v-157h-894z" />
<glyph unicode="[" horiz-adv-x="513" d="M137 -312v1976h332v-152h-155v-1672h155v-152h-332z" />
<glyph unicode="\" horiz-adv-x="756" d="M51 1456h167l510 -1581h-166z" />
<glyph unicode="]" horiz-adv-x="513" d="M30 -160h157v1672h-157v152h333v-1976h-333v152z" />
<glyph unicode="^" horiz-adv-x="760" d="M69 729l252 727h118l250 -727h-161l-149 482l-147 -482h-163z" />
<glyph unicode="_" horiz-adv-x="829" d="M24 0h781v-151h-781v151z" />
<glyph unicode="`" horiz-adv-x="633" d="M57 1534h223l194 -294h-159z" />
<glyph unicode="a" horiz-adv-x="981" d="M114 295q0 165 112 262t307 99h130v115q0 97 -43 138t-131 41q-80 0 -130 -47.5t-50 -120.5h-177q0 83 49 158.5t132 118.5t185 43q166 0 252.5 -82.5t88.5 -240.5v-546q1 -125 34 -217v-16h-184q-16 35 -23 118q-94 -138 -240 -138q-147 0 -229.5 82.5t-82.5 232.5z M291 316q0 -92 37 -133.5t125 -41.5q65 0 124 36t86 90v258h-100q-126 -2 -199 -56.5t-73 -152.5z" />
<glyph unicode="b" horiz-adv-x="1010" d="M133 0v1536h176v-573q87 139 250 139q178 0 267 -126t90 -380v-107q0 -253 -91 -381t-264 -128q-172 0 -258 148l-9 -128h-161zM309 282q66 -146 206 -146q120 0 172 84t53 261v109q0 192 -53.5 273.5t-173.5 81.5q-137 0 -204 -148v-515z" />
<glyph unicode="c" horiz-adv-x="946" d="M96 483v119q0 245 105 372.5t306 127.5q166 0 263.5 -105t103.5 -287h-167q-6 120 -57.5 180t-142.5 60q-118 0 -175 -77.5t-59 -254.5v-138q0 -191 56.5 -270t178.5 -79q88 0 141 54.5t58 155.5h167q-6 -156 -110.5 -258.5t-255.5 -102.5q-201 0 -306.5 126.5 t-105.5 376.5z" />
<glyph unicode="d" horiz-adv-x="1016" d="M95 479v111q0 250 93.5 381t268.5 131q155 0 242 -126v560h177v-1536h-162l-9 116q-87 -136 -249 -136q-168 0 -263.5 130.5t-97.5 368.5zM272 489q0 -182 54 -267.5t176 -85.5q132 0 197 133v546q-68 130 -196 130q-122 0 -176 -85.5t-55 -262.5v-108z" />
<glyph unicode="e" horiz-adv-x="959" d="M99 454v131q0 242 105.5 379.5t294.5 137.5q190 0 284 -121t96 -377v-116h-604v-25q0 -174 65.5 -253t188.5 -79q78 0 137.5 29.5t111.5 93.5l92 -112q-115 -162 -351 -162q-202 0 -310 120.5t-110 353.5zM276 640h426v24q-7 154 -55.5 220t-147.5 66q-110 0 -163 -75.5 t-60 -234.5z" />
<glyph unicode="f" horiz-adv-x="648" d="M69 939v143h141v125q3 165 83.5 257.5t227.5 92.5q53 0 107 -17l-9 -150q-38 9 -81 9q-151 0 -151 -215v-102h185v-143h-185v-939h-177v939h-141z" />
<glyph unicode="g" horiz-adv-x="1009" d="M97 470v120q0 253 92 382.5t269 129.5q165 0 251 -141l9 121h160v-1092q0 -201 -103 -308.5t-287 -107.5q-80 0 -179.5 39.5t-149.5 97.5l72 122q110 -108 243 -108q221 0 227 241v141q-86 -127 -244 -127q-168 0 -262 126.5t-98 363.5zM274 489q0 -182 53.5 -267.5 t175.5 -85.5q132 0 198 135v541q-69 133 -196 133q-122 0 -176 -85.5t-55 -262.5v-108z" />
<glyph unicode="h" horiz-adv-x="989" d="M132 0v1536h177v-565q101 131 258 131q287 0 291 -383v-719h-176v711q0 127 -42.5 180.5t-127.5 53.5q-66 0 -118.5 -44t-84.5 -115v-786h-177z" />
<glyph unicode="i" horiz-adv-x="469" d="M136 1369q0 45 25 76t75 31t75.5 -31.5t25.5 -75.5q0 -45 -25 -75t-76 -30q-50 0 -75 30t-25 75zM146 0v1082h177v-1082h-177z" />
<glyph unicode="j" horiz-adv-x="458" d="M-23 -271q27 -8 69 -8q45 0 67.5 33.5t22.5 116.5v1211h177v-1218q-3 -301 -238 -301q-54 0 -97 18zM121 1369q0 45 24.5 76t74.5 31t75.5 -31.5t25.5 -75.5q0 -45 -25 -75t-76 -30q-50 0 -74.5 30t-24.5 75z" />
<glyph unicode="k" horiz-adv-x="923" d="M133 0v1536h177v-919l337 465h212l-344 -452l389 -630h-206l-294 495l-94 -108v-387h-177z" />
<glyph unicode="l" horiz-adv-x="469" d="M146 0v1536h177v-1536h-177z" />
<glyph unicode="m" horiz-adv-x="1541" d="M133 0v1082h166l4 -100q99 120 261 120q181 0 253 -157q102 157 284 157q299 0 306 -373v-729h-176v712q0 118 -42 175.5t-142 57.5q-80 0 -130 -62t-58 -158v-725h-178v720q-3 225 -183 225q-134 0 -189 -134v-811h-176z" />
<glyph unicode="n" horiz-adv-x="991" d="M132 0v1082h167l5 -117q103 137 263 137q287 0 291 -383v-719h-176v711q0 127 -42.5 180.5t-127.5 53.5q-66 0 -118.5 -44t-84.5 -115v-786h-177z" />
<glyph unicode="o" horiz-adv-x="1028" d="M95 473v118q0 236 114.5 373.5t302.5 137.5t302.5 -134t117.5 -365v-114q0 -235 -114 -372t-304 -137q-188 0 -301.5 133t-117.5 360zM272 489q0 -167 65.5 -262.5t176.5 -95.5q234 0 241 338v122q0 166 -66 262.5t-177 96.5q-109 0 -174.5 -96.5t-65.5 -261.5v-103z" />
<glyph unicode="p" horiz-adv-x="1010" d="M133 -416v1498h160l9 -120q89 140 255 140q178 0 266 -124t91 -371v-118q0 -257 -92.5 -383t-261.5 -126q-163 0 -251 123v-519h-176zM309 255q65 -124 195 -124q120 0 176.5 86.5t57.5 264.5v108q0 182 -56 268.5t-180 86.5q-127 0 -193 -127v-563z" />
<glyph unicode="q" horiz-adv-x="1025" d="M95 479v111q0 253 92 382.5t274 129.5q157 0 244 -126l8 106h162v-1498h-177v511q-86 -115 -238 -115q-175 0 -269 127.5t-96 371.5zM272 489q0 -182 56 -270t178 -88q124 0 192 119v580q-72 120 -191 120q-122 0 -178 -88t-57 -265v-108z" />
<glyph unicode="r" horiz-adv-x="623" d="M132 0v1082h172l3 -110q71 130 201 130q42 0 70 -14l1 -172q-37 7 -80 7q-136 0 -190 -149v-774h-177z" />
<glyph unicode="s" horiz-adv-x="933" d="M99 323h178q3 -90 55 -141t146 -51q88 0 134 39.5t46 106.5q0 57 -43 98t-166 96q-143 59 -201.5 101t-87.5 95.5t-29 127.5q0 132 96.5 219.5t246.5 87.5q158 0 254 -92t96 -236h-176q0 73 -49 124.5t-125 51.5q-78 0 -122.5 -40.5t-44.5 -108.5q0 -54 32.5 -87 t156.5 -87q197 -77 268 -150.5t71 -186.5q0 -141 -97 -225.5t-260 -84.5q-169 0 -274 97t-105 246z" />
<glyph unicode="t" horiz-adv-x="605" d="M23 939v143h165v262h176v-262h163v-143h-163v-671q0 -64 21 -97t72 -33q35 0 71 12l-2 -150q-60 -20 -123 -20q-105 0 -160 75t-55 212v672h-165z" />
<glyph unicode="u" horiz-adv-x="990" d="M129 377v705h176v-692q0 -253 152 -253q161 0 222 144v801h177v-1082h-168l-4 95q-88 -115 -257 -115q-147 0 -222 101.5t-76 295.5z" />
<glyph unicode="v" horiz-adv-x="876" d="M46 1082h180l213 -813l205 813h180l-321 -1082h-132z" />
<glyph unicode="w" horiz-adv-x="1331" d="M50 1082h174l168 -752l201 752h140l206 -771l164 771h175l-265 -1082h-141l-211 774l-206 -774h-142z" />
<glyph unicode="x" horiz-adv-x="899" d="M52 0l301 547l-293 535h203l182 -395l185 395h205l-294 -535l301 -547h-203l-191 405l-192 -405h-204z" />
<glyph unicode="y" horiz-adv-x="853" d="M35 1082h193l200 -788l197 788h188l-354 -1235q-40 -139 -113 -211.5t-166 -72.5q-36 0 -92 16v150l39 -4q77 0 120.5 36.5t70.5 126.5l35 121z" />
<glyph unicode="z" horiz-adv-x="899" d="M94 0v136l496 793h-492v153h700v-131l-502 -800h522v-151h-724z" />
<glyph unicode="{" horiz-adv-x="627" d="M72 543v145q172 0 172 241v206q1 184 76 297.5t229 164.5l36 -115q-160 -63 -164 -335v-216q0 -226 -147 -316q147 -90 147 -317v-219q5 -268 163 -330l-35 -115q-151 50 -227.5 163t-77.5 298v207q0 241 -172 241z" />
<glyph unicode="|" horiz-adv-x="499" d="M175 -270v1726h149v-1726h-149z" />
<glyph unicode="}" horiz-adv-x="627" d="M39 -251q160 63 165 331v221q0 231 159 314q-159 82 -159 318v207q-2 278 -165 342l36 115q150 -49 225.5 -159.5t79.5 -288.5v-236q5 -225 172 -225v-145q-172 0 -172 -241v-204q0 -364 -305 -464z" />
<glyph unicode="~" horiz-adv-x="1207" d="M125 436q0 158 80.5 262t200.5 104q72 0 130 -36.5t120 -102.5q41 -50 74.5 -74t72.5 -24q59 0 98 58.5t39 152.5l144 1q0 -155 -81.5 -265t-199.5 -110q-64 0 -122 30.5t-129 108.5q-40 47 -74 72.5t-72 25.5q-62 0 -95 -53.5t-33 -147.5z" />
<glyph unicode="&#xa2;" horiz-adv-x="982" d="M104 525v37q0 207 82 349t230 179v228h176v-224q126 -25 204.5 -129.5t84.5 -254.5h-167q-6 105 -61 172.5t-139 67.5q-113 0 -173.5 -99.5t-60.5 -295.5v-35q0 -191 60 -290t174 -99q78 0 136 60t64 150h167q-6 -125 -88 -224.5t-201 -127.5v-234h-176v237 q-147 35 -229.5 175.5t-82.5 357.5z" />
<glyph unicode="&#xa3;" horiz-adv-x="1046" d="M96 622v157h126l-7 260q0 198 106.5 317.5t279.5 119.5q161 0 256.5 -105.5t95.5 -283.5h-182q0 110 -51 170.5t-136 60.5q-82 0 -133.5 -78t-51.5 -201l8 -260h260v-157h-256l7 -220q-2 -153 -55 -245h615l-1 -157h-878v157h58q34 10 55 77.5t21 166.5l-6 221h-131z" />
<glyph unicode="&#xa5;" horiz-adv-x="1087" d="M42 1456h209l287 -640l287 640h209l-347 -720h251v-125h-311v-165h311v-124h-311v-322h-185v322h-306v124h306v165h-306v125h254z" />
<glyph unicode="&#xa8;" horiz-adv-x="856" d="M102 1371q0 45 27.5 75.5t81.5 30.5t82 -30.5t28 -75.5t-28 -75t-82 -30t-81.5 30t-27.5 75zM532 1369q0 45 27.5 76t81.5 31t82 -31t28 -76t-28 -75t-82 -30t-81.5 30t-27.5 75z" />
<glyph unicode="&#xa9;" horiz-adv-x="1609" d="M91 729q0 202 93.5 375t259 272.5t357.5 99.5t357 -99.5t258.5 -272.5t93.5 -375q0 -197 -90 -369t-255.5 -276.5t-363.5 -104.5q-197 0 -362.5 103.5t-256.5 275.5t-91 371zM206 729q0 -172 80 -318.5t217.5 -229.5t297.5 -83t297 83t217 229.5t80 318.5q0 170 -79 315 t-216.5 228.5t-298.5 83.5q-160 0 -298 -82.5t-217.5 -228.5t-79.5 -316zM442 676v110q0 176 95.5 281.5t250.5 105.5q160 0 246 -82t86 -231h-146q0 99 -47.5 141.5t-138.5 42.5q-94 0 -148 -69t-54 -192v-113q0 -120 54 -189t148 -69q92 0 138.5 42t46.5 143h146 q0 -153 -86.5 -233.5t-244.5 -80.5q-157 0 -251.5 105.5t-94.5 287.5z" />
<glyph unicode="&#xab;" horiz-adv-x="856" d="M99 539v19l248 389h129l-211 -399l211 -397h-129zM383 539v19l248 389h129l-211 -399l211 -397h-129z" />
<glyph unicode="&#xad;" horiz-adv-x="508" d="M47 543v151h413v-151h-413z" />
<glyph unicode="&#xae;" horiz-adv-x="1610" d="M90 729q0 202 93.5 375t259 272.5t357.5 99.5t357 -99.5t258.5 -272.5t93.5 -375q0 -197 -90 -369t-255.5 -276.5t-363.5 -104.5q-197 0 -362.5 103.5t-256.5 275.5t-91 371zM205 729q0 -172 80 -318.5t217.5 -229.5t297.5 -83q161 0 299 84.5t216.5 229.5t78.5 317 q0 171 -78.5 315.5t-216.5 228t-299 83.5q-160 0 -298 -82.5t-217.5 -228.5t-79.5 -316zM512 316v849h276q153 0 237.5 -65.5t84.5 -190.5q0 -123 -128 -188q122 -50 123 -204v-61q0 -86 17 -124v-16h-145q-14 36 -14 128.5t-3 109.5q-16 96 -131 100h-176v-338h-141z M653 782h156q72 2 116 35t44 87q0 73 -39 103.5t-139 30.5h-138v-256z" />
<glyph unicode="&#xb4;" horiz-adv-x="642" d="M123 1240l193 294h224l-268 -294h-149z" />
<glyph unicode="&#xb8;" horiz-adv-x="469" d="M119 -134l28 134h125l-10 -52q60 -13 92 -58t32 -115q0 -96 -66.5 -153t-190.5 -57l-6 107q128 0 128 99q0 45 -26.5 65.5t-105.5 29.5z" />
<glyph unicode="&#xbb;" horiz-adv-x="856" d="M101 152l211 398l-211 399h131l248 -389v-19l-248 -389h-131zM404 152l211 398l-211 399h131l248 -389v-19l-248 -389h-131z" />
<glyph unicode="&#xd3;" horiz-adv-x="1230" d="M125 579v274q0 292 129 457.5t360 165.5q230 0 358.5 -158.5t131.5 -452.5v-265q0 -298 -127 -459t-361 -161q-225 0 -355.5 156.5t-135.5 442.5zM307 600q0 -223 77.5 -340t231.5 -117t228 108t77 331v273q0 231 -75.5 343.5t-231.5 112.5q-151 0 -228.5 -114 t-78.5 -336v-261zM516 1552l193 294h224l-268 -294h-149z" />
<glyph unicode="&#xf3;" horiz-adv-x="1028" d="M95 473v118q0 236 114.5 373.5t302.5 137.5t302.5 -134t117.5 -365v-114q0 -235 -114 -372t-304 -137q-188 0 -301.5 133t-117.5 360zM272 489q0 -167 65.5 -262.5t176.5 -95.5q234 0 241 338v122q0 166 -66 262.5t-177 96.5q-109 0 -174.5 -96.5t-65.5 -261.5v-103z M402 1240l193 294h224l-268 -294h-149z" />
<glyph unicode="&#x104;" horiz-adv-x="1180" d="M43 0l469 1456h157l470 -1456h-38q-79 -70 -110 -121.5t-31 -100.5q0 -72 63 -72q38 0 83 26l10 -121q-62 -44 -140 -44q-77 0 -122.5 51.5t-45.5 138.5q0 146 141 249l-113 374h-492l-113 -380h-188zM392 538h397l-199 662z" />
<glyph unicode="&#x105;" horiz-adv-x="981" d="M114 295q0 165 112 262t307 99h130v115q0 97 -43 138t-131 41q-80 0 -130 -47.5t-50 -120.5h-177q0 83 49 158.5t132 118.5t185 43q166 0 252.5 -82.5t88.5 -240.5v-546q1 -125 34 -217v-16h-33q-79 -70 -110 -121.5t-31 -100.5q0 -72 63 -72q38 0 83 26l10 -121 q-62 -44 -140 -44q-77 0 -122.5 51.5t-45.5 138.5q0 146 140 248q-17 41 -21 113q-94 -138 -240 -138q-147 0 -229.5 82.5t-82.5 232.5zM291 316q0 -92 37 -133.5t125 -41.5q65 0 124 36t86 90v258h-100q-126 -2 -199 -56.5t-73 -152.5z" />
<glyph unicode="&#x106;" horiz-adv-x="1161" d="M124 598v264q0 284 132.5 449t361.5 165q211 0 326.5 -126.5t125.5 -361.5h-185q-12 178 -75 254t-192 76q-149 0 -229 -116.5t-80 -341.5v-267q0 -221 74.5 -339t217.5 -118t206 71t78 255h185q-12 -234 -131.5 -358t-337.5 -124q-219 0 -348 166.5t-129 451.5z M489 1583l193 294h224l-268 -294h-149z" />
<glyph unicode="&#x107;" horiz-adv-x="946" d="M96 483v119q0 245 105 372.5t306 127.5q166 0 263.5 -105t103.5 -287h-167q-6 120 -57.5 180t-142.5 60q-118 0 -175 -77.5t-59 -254.5v-138q0 -191 56.5 -270t178.5 -79q88 0 141 54.5t58 155.5h167q-6 -156 -110.5 -258.5t-255.5 -102.5q-201 0 -306.5 126.5 t-105.5 376.5zM362 1240l193 294h224l-268 -294h-149z" />
<glyph unicode="&#x118;" horiz-adv-x="1017" d="M157 0v1456h773v-158h-590v-468h515v-157h-515v-516h600v-157h-63q-79 -70 -110 -121.5t-31 -100.5q0 -72 63 -72q38 0 83 26l10 -121q-62 -44 -140 -44q-77 0 -122.5 51.5t-45.5 138.5q0 143 133 243h-560z" />
<glyph unicode="&#x119;" horiz-adv-x="959" d="M99 450v135q0 242 105.5 379.5t294.5 137.5q190 0 284 -121t96 -377v-116h-604v-25q0 -174 65.5 -253t188.5 -79q78 0 137.5 29.5t111.5 93.5l92 -112q-74 -103 -197 -141q-115 -105 -115 -198q0 -72 63 -72q38 0 83 26l10 -121q-62 -44 -140 -44q-77 0 -122.5 51.5 t-45.5 138.5q0 112 83 199q-185 8 -286 127.5t-104 341.5zM276 640h426v24q-7 154 -55.5 220t-147.5 66q-110 0 -163 -75.5t-60 -234.5z" />
<glyph unicode="&#x141;" horiz-adv-x="973" d="M53 615v125l104 39v677h184v-607l207 78v-125l-207 -78v-567h571v-157h-755v654z" />
<glyph unicode="&#x142;" horiz-adv-x="512" d="M51 620v123l110 50v743h177v-663l126 57v-123l-126 -57v-750h-177v670z" />
<glyph unicode="&#x143;" horiz-adv-x="1268" d="M157 0v1456h184l585 -1127v1127h182v-1456h-184l-583 1122v-1122h-184zM528 1550l193 294h224l-268 -294h-149z" />
<glyph unicode="&#x144;" horiz-adv-x="991" d="M132 0v1082h167l5 -117q103 137 263 137q287 0 291 -383v-719h-176v711q0 127 -42.5 180.5t-127.5 53.5q-66 0 -118.5 -44t-84.5 -115v-786h-177zM398 1240l193 294h224l-268 -294h-149z" />
<glyph unicode="&#x15a;" horiz-adv-x="1061" d="M85 422h184q0 -135 75.5 -210t205.5 -75q121 0 182 62t61 169q0 109 -59 167t-213 113t-235.5 115.5t-122 138t-40.5 177.5q0 173 115.5 285t302.5 112q128 0 228 -57.5t154 -159.5t54 -224h-184q0 135 -65 209t-187 74q-111 0 -172 -62t-61 -174q0 -92 66 -154t204 -111 q215 -71 307.5 -175t92.5 -272q0 -177 -115 -283.5t-313 -106.5q-127 0 -234.5 55.5t-169 156t-61.5 230.5zM439 1552l193 294h224l-268 -294h-149z" />
<glyph unicode="&#x15b;" horiz-adv-x="933" d="M99 323h178q3 -90 55 -141t146 -51q88 0 134 39.5t46 106.5q0 57 -43 98t-166 96q-143 59 -201.5 101t-87.5 95.5t-29 127.5q0 132 96.5 219.5t246.5 87.5q158 0 254 -92t96 -236h-176q0 73 -49 124.5t-125 51.5q-78 0 -122.5 -40.5t-44.5 -108.5q0 -54 32.5 -87 t156.5 -87q197 -77 268 -150.5t71 -186.5q0 -141 -97 -225.5t-260 -84.5q-169 0 -274 97t-105 246zM398 1240l193 294h224l-268 -294h-149z" />
<glyph unicode="&#x179;" horiz-adv-x="1070" d="M91 0v144l663 1154h-656v158h860v-141l-664 -1158h691v-157h-894zM437 1550l193 294h224l-268 -294h-149z" />
<glyph unicode="&#x17a;" horiz-adv-x="899" d="M94 0v136l496 793h-492v153h700v-131l-502 -800h522v-151h-724zM350 1240l193 294h224l-268 -294h-149z" />
<glyph unicode="&#x17b;" horiz-adv-x="1070" d="M91 0v144l663 1154h-656v158h860v-141l-664 -1158h691v-157h-894zM431 1677q0 45 27.5 76t81.5 31t82 -31t28 -76t-28 -75t-82 -30t-81.5 30t-27.5 75z" />
<glyph unicode="&#x17c;" horiz-adv-x="899" d="M94 0v136l496 793h-492v153h700v-131l-502 -800h522v-151h-724zM344 1367q0 45 27.5 76t81.5 31t82 -31t28 -76t-28 -75t-82 -30t-81.5 30t-27.5 75z" />
<glyph unicode="&#x2c6;" horiz-adv-x="877" d="M165 1252v12l209 272h105l210 -274v-10h-142l-120 170l-120 -170h-142z" />
<glyph unicode="&#x2da;" horiz-adv-x="685" d="M121 1408q0 86 61.5 147t153.5 61t153.5 -61t61.5 -147q0 -87 -62 -145.5t-153 -58.5q-92 0 -153.5 59t-61.5 145zM220 1408q0 -47 33.5 -81t82.5 -34q48 0 82 33t34 82t-33.5 83.5t-82.5 34.5q-50 0 -83 -35t-33 -83z" />
<glyph unicode="&#x2dc;" horiz-adv-x="875" d="M129 1248q0 109 53 178t132 69q30 0 54 -11.5t60.5 -37.5t59.5 -36.5t50 -10.5q34 0 57 32.5t23 80.5l115 -12q0 -105 -52 -173.5t-134 -68.5q-35 0 -60 10.5t-65 41t-58 37t-41 6.5q-34 0 -56.5 -32t-22.5 -80z" />
<glyph unicode="&#x2000;" horiz-adv-x="938" />
<glyph unicode="&#x2001;" horiz-adv-x="1877" />
<glyph unicode="&#x2002;" horiz-adv-x="938" />
<glyph unicode="&#x2003;" horiz-adv-x="1877" />
<glyph unicode="&#x2004;" horiz-adv-x="625" />
<glyph unicode="&#x2005;" horiz-adv-x="469" />
<glyph unicode="&#x2006;" horiz-adv-x="312" />
<glyph unicode="&#x2007;" horiz-adv-x="312" />
<glyph unicode="&#x2008;" horiz-adv-x="234" />
<glyph unicode="&#x2009;" horiz-adv-x="375" />
<glyph unicode="&#x200a;" horiz-adv-x="104" />
<glyph unicode="&#x2010;" horiz-adv-x="508" d="M47 543v151h413v-151h-413z" />
<glyph unicode="&#x2011;" horiz-adv-x="508" d="M47 543v151h413v-151h-413z" />
<glyph unicode="&#x2012;" horiz-adv-x="508" d="M47 543v151h413v-151h-413z" />
<glyph unicode="&#x2013;" horiz-adv-x="1172" d="M154 651v151h842v-151h-842z" />
<glyph unicode="&#x2014;" horiz-adv-x="1389" d="M99 651v151h1122v-151h-1122z" />
<glyph unicode="&#x2018;" horiz-adv-x="398" d="M100 1073v116q0 101 44 202.5t113 163.5l100 -72q-79 -130 -82 -272v-138h-175z" />
<glyph unicode="&#x2019;" horiz-adv-x="398" d="M56 1118q78 131 81 272v146h175v-135q-2 -96 -44.5 -194.5t-112.5 -160.5z" />
<glyph unicode="&#x201a;" horiz-adv-x="399" d="M48 -210q80 131 80 283v108h177v-100q0 -98 -43 -198.5t-114 -165.5z" />
<glyph unicode="&#x201c;" horiz-adv-x="684" d="M109 1073v116q0 101 44 202.5t113 163.5l100 -72q-79 -130 -82 -272v-138h-175zM394 1073v116q0 101 44 202.5t113 163.5l100 -72q-79 -130 -82 -272v-138h-175z" />
<glyph unicode="&#x201d;" horiz-adv-x="691" d="M68 1118q78 131 81 272v146h175v-135q-2 -96 -44.5 -194.5t-112.5 -160.5zM346 1118q78 131 81 272v146h175v-135q-2 -96 -44.5 -194.5t-112.5 -160.5z" />
<glyph unicode="&#x201e;" horiz-adv-x="668" d="M48 -229q77 136 80 288v187h177v-164q0 -105 -43 -209.5t-114 -173.5zM317 -229q77 136 80 288v187h177v-164q0 -105 -43.5 -210.5t-114.5 -172.5z" />
<glyph unicode="&#x2022;" horiz-adv-x="690" d="M138 734v38q0 87 55.5 143t147.5 56q91 0 148 -54.5t57 -147.5v-37q0 -87 -55 -142t-149 -55q-93 0 -148.5 55.5t-55.5 143.5z" />
<glyph unicode="&#x2026;" horiz-adv-x="1209" d="M143 97q0 48 28.5 80t85.5 32t86.5 -32t29.5 -80q0 -46 -29.5 -77t-86.5 -31t-85.5 31t-28.5 77zM517 97q0 48 28.5 80t85.5 32t86.5 -32t29.5 -80q0 -46 -29.5 -77t-86.5 -31t-85.5 31t-28.5 77zM873 97q0 48 28.5 80t85.5 32t86.5 -32t29.5 -80q0 -46 -29.5 -77 t-86.5 -31t-85.5 31t-28.5 77z" />
<glyph unicode="&#x202f;" horiz-adv-x="375" />
<glyph unicode="&#x2039;" horiz-adv-x="557" d="M111 541v19l248 389h129l-211 -399l211 -397h-129z" />
<glyph unicode="&#x203a;" horiz-adv-x="557" d="M92 152l211 398l-211 399h131l248 -389v-19l-248 -389h-131z" />
<glyph unicode="&#x205f;" horiz-adv-x="469" />
<glyph unicode="&#x20ac;" d="M103 541v124h146v137h-146v125h146q8 257 126.5 403t325.5 146q91 0 206 -31l-20 -162q-92 35 -184 35q-121 0 -193 -96t-78 -295h311v-125h-311v-137h311v-124h-311q2 -192 72 -298.5t200 -106.5q99 0 183 34l20 -160q-103 -30 -205 -30q-208 0 -328.5 147t-124.5 414 h-146z" />
<glyph unicode="&#x2122;" horiz-adv-x="1121" d="M105 1375v81h323v-81h-120v-456h-82v456h-121zM493 919v537h101l116 -399l116 399h101v-537h-81v394l-114 -394h-44l-114 393v-393h-81z" />
<glyph unicode="&#x25fc;" horiz-adv-x="1080" d="M0 0v1080h1080v-1080h-1080z" />
<hkern u1="&#x20;" u2="T" k="40" />
<hkern u1="&#x22;" u2="w" k="-11" />
<hkern u1="&#x27;" u2="w" k="-11" />
<hkern u1="&#x28;" u2="Y" k="-22" />
<hkern u1="&#x28;" u2="W" k="-18" />
<hkern u1="&#x28;" u2="V" k="-20" />
<hkern u1="&#x2f;" u2="&#x2f;" k="224" />
<hkern u1="A" u2="w" k="33" />
<hkern u1="A" u2="t" k="17" />
<hkern u1="A" u2="&#x3f;" k="61" />
<hkern u1="C" u2="&#x7d;" k="17" />
<hkern u1="C" u2="]" k="12" />
<hkern u1="C" u2="&#x29;" k="26" />
<hkern u1="E" u2="w" k="22" />
<hkern u1="E" u2="f" k="18" />
<hkern u1="F" u2="&#x2026;" k="234" />
<hkern u1="F" u2="&#x201e;" k="234" />
<hkern u1="F" u2="&#x201a;" k="234" />
<hkern u1="F" u2="&#x119;" k="21" />
<hkern u1="F" u2="&#x107;" k="21" />
<hkern u1="F" u2="&#x105;" k="34" />
<hkern u1="F" u2="&#x104;" k="170" />
<hkern u1="F" u2="&#xf3;" k="21" />
<hkern u1="F" u2="y" k="24" />
<hkern u1="F" u2="v" k="24" />
<hkern u1="F" u2="u" k="22" />
<hkern u1="F" u2="r" k="26" />
<hkern u1="F" u2="q" k="21" />
<hkern u1="F" u2="o" k="21" />
<hkern u1="F" u2="g" k="21" />
<hkern u1="F" u2="e" k="21" />
<hkern u1="F" u2="d" k="21" />
<hkern u1="F" u2="c" k="21" />
<hkern u1="F" u2="a" k="34" />
<hkern u1="F" u2="T" k="-20" />
<hkern u1="F" u2="J" k="264" />
<hkern u1="F" u2="A" k="170" />
<hkern u1="F" u2="&#x2e;" k="234" />
<hkern u1="F" u2="&#x2c;" k="234" />
<hkern u1="K" u2="w" k="63" />
<hkern u1="L" u2="w" k="92" />
<hkern u1="P" u2="t" k="-14" />
<hkern u1="Q" u2="Y" k="35" />
<hkern u1="Q" u2="W" k="20" />
<hkern u1="Q" u2="V" k="28" />
<hkern u1="Q" u2="T" k="43" />
<hkern u1="R" u2="Y" k="48" />
<hkern u1="R" u2="V" k="19" />
<hkern u1="R" u2="T" k="80" />
<hkern u1="T" u2="&#xbb;" k="216" />
<hkern u1="T" u2="&#xab;" k="328" />
<hkern u1="T" u2="w" k="57" />
<hkern u1="T" u2="r" k="75" />
<hkern u1="T" u2="&#x20;" k="40" />
<hkern u1="V" u2="&#x7d;" k="-19" />
<hkern u1="V" u2="r" k="30" />
<hkern u1="V" u2="]" k="-17" />
<hkern u1="V" u2="&#x29;" k="-20" />
<hkern u1="W" u2="&#x7d;" k="-14" />
<hkern u1="W" u2="r" k="21" />
<hkern u1="W" u2="]" k="-12" />
<hkern u1="W" u2="&#x29;" k="-15" />
<hkern u1="Y" u2="&#x2022;" k="45" />
<hkern u1="Y" u2="&#xbb;" k="51" />
<hkern u1="Y" u2="&#xab;" k="82" />
<hkern u1="Y" u2="&#x7d;" k="-19" />
<hkern u1="Y" u2="t" k="22" />
<hkern u1="Y" u2="r" k="40" />
<hkern u1="Y" u2="f" k="22" />
<hkern u1="Y" u2="]" k="-18" />
<hkern u1="Y" u2="&#x2a;" k="49" />
<hkern u1="Y" u2="&#x29;" k="-20" />
<hkern u1="Y" u2="&#x26;" k="30" />
<hkern u1="Z" u2="w" k="27" />
<hkern u1="[" u2="U" k="18" />
<hkern u1="[" u2="J" k="18" />
<hkern u1="e" u2="&#x2019;" k="80" />
<hkern u1="f" u2="&#x201d;" k="-16" />
<hkern u1="f" u2="&#x201c;" k="-16" />
<hkern u1="f" u2="&#x2019;" k="-16" />
<hkern u1="f" u2="&#x2018;" k="-16" />
<hkern u1="f" u2="&#x119;" k="24" />
<hkern u1="f" u2="&#x107;" k="24" />
<hkern u1="f" u2="&#x7d;" k="-19" />
<hkern u1="f" u2="q" k="24" />
<hkern u1="f" u2="g" k="24" />
<hkern u1="f" u2="e" k="24" />
<hkern u1="f" u2="d" k="24" />
<hkern u1="f" u2="c" k="24" />
<hkern u1="f" u2="]" k="-18" />
<hkern u1="f" u2="&#x29;" k="-20" />
<hkern u1="f" u2="&#x27;" k="-16" />
<hkern u1="f" u2="&#x22;" k="-16" />
<hkern u1="h" u2="&#x2019;" k="80" />
<hkern u1="k" u2="&#x119;" k="20" />
<hkern u1="k" u2="&#x107;" k="20" />
<hkern u1="k" u2="q" k="20" />
<hkern u1="k" u2="g" k="20" />
<hkern u1="k" u2="e" k="20" />
<hkern u1="k" u2="d" k="20" />
<hkern u1="k" u2="c" k="20" />
<hkern u1="m" u2="&#x2019;" k="80" />
<hkern u1="n" u2="&#x2019;" k="80" />
<hkern u1="o" u2="&#x2019;" k="80" />
<hkern u1="r" u2="w" k="-17" />
<hkern u1="r" u2="t" k="-50" />
<hkern u1="r" u2="f" k="-15" />
<hkern u1="t" u2="&#xf3;" k="20" />
<hkern u1="t" u2="o" k="20" />
<hkern u1="v" u2="f" k="-13" />
<hkern u1="w" u2="&#x2026;" k="124" />
<hkern u1="w" u2="&#x201e;" k="124" />
<hkern u1="w" u2="&#x201a;" k="124" />
<hkern u1="w" u2="&#x2e;" k="124" />
<hkern u1="w" u2="&#x2c;" k="124" />
<hkern u1="y" u2="f" k="-13" />
<hkern u1="&#x7b;" u2="U" k="20" />
<hkern u1="&#x7b;" u2="J" k="20" />
<hkern u1="&#xf3;" u2="&#x2019;" k="80" />
<hkern u1="&#x104;" u2="w" k="33" />
<hkern u1="&#x104;" u2="t" k="17" />
<hkern u1="&#x104;" u2="&#x3f;" k="61" />
<hkern u1="&#x106;" u2="&#x7d;" k="17" />
<hkern u1="&#x106;" u2="]" k="12" />
<hkern u1="&#x106;" u2="&#x29;" k="26" />
<hkern u1="&#x118;" u2="w" k="22" />
<hkern u1="&#x118;" u2="f" k="18" />
<hkern u1="&#x119;" u2="&#x2019;" k="80" />
<hkern u1="&#x144;" u2="&#x2019;" k="80" />
<hkern u1="&#x179;" u2="w" k="27" />
<hkern u1="&#x17b;" u2="w" k="27" />
<hkern u1="&#x2018;" u2="w" k="-11" />
<hkern u1="&#x2019;" u2="&#x15b;" k="112" />
<hkern u1="&#x2019;" u2="&#xf3;" k="128" />
<hkern u1="&#x2019;" u2="w" k="-11" />
<hkern u1="&#x2019;" u2="s" k="112" />
<hkern u1="&#x2019;" u2="o" k="128" />
<hkern u1="&#x2019;" u2="l" k="-32" />
<hkern u1="&#x2019;" u2="k" k="-32" />
<hkern u1="&#x2019;" u2="h" k="-32" />
<hkern u1="&#x201c;" u2="w" k="-11" />
<hkern u1="&#x201d;" u2="w" k="-11" />
<hkern g1="B" 	g2="T" 	k="27" />
<hkern g1="B" 	g2="V" 	k="24" />
<hkern g1="B" 	g2="Y" 	k="55" />
<hkern g1="H,I,M,N,Nacute" 	g2="T" 	k="29" />
<hkern g1="H,I,M,N,Nacute" 	g2="Y" 	k="28" />
<hkern g1="H,I,M,N,Nacute" 	g2="A,Aogonek" 	k="-18" />
<hkern g1="H,I,M,N,Nacute" 	g2="X" 	k="-17" />
<hkern g1="D,O,Oacute" 	g2="T" 	k="27" />
<hkern g1="D,O,Oacute" 	g2="V" 	k="22" />
<hkern g1="D,O,Oacute" 	g2="Y" 	k="43" />
<hkern g1="D,O,Oacute" 	g2="A,Aogonek" 	k="21" />
<hkern g1="D,O,Oacute" 	g2="X" 	k="22" />
<hkern g1="D,O,Oacute" 	g2="comma,period,quotesinglbase,quotedblbase,ellipsis" 	k="102" />
<hkern g1="D,O,Oacute" 	g2="Z,Zacute,Zdotaccent" 	k="23" />
<hkern g1="C,Cacute" 	g2="T" 	k="29" />
<hkern g1="E,Eogonek" 	g2="v,y" 	k="26" />
<hkern g1="E,Eogonek" 	g2="o,oacute" 	k="19" />
<hkern g1="E,Eogonek" 	g2="T" 	k="-20" />
<hkern g1="E,Eogonek" 	g2="u" 	k="17" />
<hkern g1="E,Eogonek" 	g2="c,d,e,g,q,cacute,eogonek" 	k="19" />
<hkern g1="T" 	g2="v,y" 	k="72" />
<hkern g1="T" 	g2="C,G,O,Q,Oacute,Cacute" 	k="28" />
<hkern g1="T" 	g2="o,oacute" 	k="99" />
<hkern g1="T" 	g2="W" 	k="-15" />
<hkern g1="T" 	g2="T" 	k="-16" />
<hkern g1="T" 	g2="u" 	k="95" />
<hkern g1="T" 	g2="z,zacute,zdotaccent" 	k="60" />
<hkern g1="T" 	g2="V" 	k="-16" />
<hkern g1="T" 	g2="Y" 	k="-16" />
<hkern g1="T" 	g2="A,Aogonek" 	k="79" />
<hkern g1="T" 	g2="comma,period,quotesinglbase,quotedblbase,ellipsis" 	k="218" />
<hkern g1="T" 	g2="c,d,e,g,q,cacute,eogonek" 	k="99" />
<hkern g1="T" 	g2="x" 	k="77" />
<hkern g1="T" 	g2="hyphen,endash,emdash" 	k="232" />
<hkern g1="T" 	g2="m,n,p,nacute" 	k="109" />
<hkern g1="T" 	g2="S,Sacute" 	k="16" />
<hkern g1="T" 	g2="a,aogonek" 	k="113" />
<hkern g1="T" 	g2="s,sacute" 	k="116" />
<hkern g1="T" 	g2="J" 	k="240" />
<hkern g1="K" 	g2="v,y" 	k="40" />
<hkern g1="K" 	g2="C,G,O,Q,Oacute,Cacute" 	k="31" />
<hkern g1="K" 	g2="o,oacute" 	k="27" />
<hkern g1="K" 	g2="u" 	k="23" />
<hkern g1="K" 	g2="c,d,e,g,q,cacute,eogonek" 	k="26" />
<hkern g1="K" 	g2="hyphen,endash,emdash" 	k="64" />
<hkern g1="K" 	g2="m,n,p,nacute" 	k="23" />
<hkern g1="L" 	g2="v,y" 	k="133" />
<hkern g1="L" 	g2="C,G,O,Q,Oacute,Cacute" 	k="65" />
<hkern g1="L" 	g2="U" 	k="54" />
<hkern g1="L" 	g2="quotedbl,quotesingle,quoteleft,quoteright,quotedblleft,quotedblright" 	k="336" />
<hkern g1="L" 	g2="W" 	k="143" />
<hkern g1="L" 	g2="T" 	k="275" />
<hkern g1="L" 	g2="u" 	k="44" />
<hkern g1="L" 	g2="V" 	k="175" />
<hkern g1="L" 	g2="Y" 	k="239" />
<hkern g1="L" 	g2="A,Aogonek" 	k="-19" />
<hkern g1="P" 	g2="v,y" 	k="-15" />
<hkern g1="P" 	g2="o,oacute" 	k="13" />
<hkern g1="P" 	g2="A,Aogonek" 	k="138" />
<hkern g1="P" 	g2="X" 	k="31" />
<hkern g1="P" 	g2="comma,period,quotesinglbase,quotedblbase,ellipsis" 	k="324" />
<hkern g1="P" 	g2="Z,Zacute,Zdotaccent" 	k="26" />
<hkern g1="P" 	g2="c,d,e,g,q,cacute,eogonek" 	k="13" />
<hkern g1="P" 	g2="a,aogonek" 	k="11" />
<hkern g1="P" 	g2="J" 	k="200" />
<hkern g1="J,U" 	g2="A,Aogonek" 	k="22" />
<hkern g1="V" 	g2="v,y" 	k="11" />
<hkern g1="V" 	g2="C,G,O,Q,Oacute,Cacute" 	k="13" />
<hkern g1="V" 	g2="o,oacute" 	k="46" />
<hkern g1="V" 	g2="u" 	k="28" />
<hkern g1="V" 	g2="A,Aogonek" 	k="75" />
<hkern g1="V" 	g2="comma,period,quotesinglbase,quotedblbase,ellipsis" 	k="225" />
<hkern g1="V" 	g2="c,d,e,g,q,cacute,eogonek" 	k="44" />
<hkern g1="V" 	g2="hyphen,endash,emdash" 	k="37" />
<hkern g1="V" 	g2="a,aogonek" 	k="46" />
<hkern g1="X" 	g2="v,y" 	k="31" />
<hkern g1="X" 	g2="C,G,O,Q,Oacute,Cacute" 	k="25" />
<hkern g1="X" 	g2="o,oacute" 	k="21" />
<hkern g1="X" 	g2="u" 	k="21" />
<hkern g1="X" 	g2="V" 	k="-14" />
<hkern g1="X" 	g2="c,d,e,g,q,cacute,eogonek" 	k="26" />
<hkern g1="X" 	g2="hyphen,endash,emdash" 	k="46" />
<hkern g1="Y" 	g2="v,y" 	k="20" />
<hkern g1="Y" 	g2="C,G,O,Q,Oacute,Cacute" 	k="29" />
<hkern g1="Y" 	g2="U" 	k="96" />
<hkern g1="Y" 	g2="o,oacute" 	k="65" />
<hkern g1="Y" 	g2="W" 	k="-17" />
<hkern g1="Y" 	g2="T" 	k="-17" />
<hkern g1="Y" 	g2="u" 	k="39" />
<hkern g1="Y" 	g2="z,zacute,zdotaccent" 	k="30" />
<hkern g1="Y" 	g2="V" 	k="-18" />
<hkern g1="Y" 	g2="Y" 	k="-18" />
<hkern g1="Y" 	g2="A,Aogonek" 	k="94" />
<hkern g1="Y" 	g2="X" 	k="-13" />
<hkern g1="Y" 	g2="comma,period,quotesinglbase,quotedblbase,ellipsis" 	k="211" />
<hkern g1="Y" 	g2="c,d,e,g,q,cacute,eogonek" 	k="65" />
<hkern g1="Y" 	g2="x" 	k="23" />
<hkern g1="Y" 	g2="hyphen,endash,emdash" 	k="52" />
<hkern g1="Y" 	g2="m,n,p,nacute" 	k="40" />
<hkern g1="Y" 	g2="S,Sacute" 	k="16" />
<hkern g1="Y" 	g2="a,aogonek" 	k="73" />
<hkern g1="Y" 	g2="s,sacute" 	k="58" />
<hkern g1="Y" 	g2="J" 	k="96" />
<hkern g1="W" 	g2="o,oacute" 	k="31" />
<hkern g1="W" 	g2="T" 	k="-14" />
<hkern g1="W" 	g2="u" 	k="19" />
<hkern g1="W" 	g2="A,Aogonek" 	k="43" />
<hkern g1="W" 	g2="comma,period,quotesinglbase,quotedblbase,ellipsis" 	k="123" />
<hkern g1="W" 	g2="c,d,e,g,q,cacute,eogonek" 	k="31" />
<hkern g1="W" 	g2="hyphen,endash,emdash" 	k="60" />
<hkern g1="W" 	g2="a,aogonek" 	k="33" />
<hkern g1="Z,Zacute,Zdotaccent" 	g2="v,y" 	k="27" />
<hkern g1="Z,Zacute,Zdotaccent" 	g2="C,G,O,Q,Oacute,Cacute" 	k="26" />
<hkern g1="Z,Zacute,Zdotaccent" 	g2="o,oacute" 	k="21" />
<hkern g1="Z,Zacute,Zdotaccent" 	g2="u" 	k="19" />
<hkern g1="Z,Zacute,Zdotaccent" 	g2="A,Aogonek" 	k="-13" />
<hkern g1="Z,Zacute,Zdotaccent" 	g2="c,d,e,g,q,cacute,eogonek" 	k="21" />
<hkern g1="a,aogonek" 	g2="v,y" 	k="15" />
<hkern g1="a,aogonek" 	g2="quotedbl,quotesingle,quoteleft,quoteright,quotedblleft,quotedblright" 	k="67" />
<hkern g1="c,cacute" 	g2="quotedbl,quotesingle,quoteleft,quoteright,quotedblleft,quotedblright" 	k="11" />
<hkern g1="b,p" 	g2="v,y" 	k="11" />
<hkern g1="b,p" 	g2="quotedbl,quotesingle,quoteleft,quoteright,quotedblleft,quotedblright" 	k="29" />
<hkern g1="b,p" 	g2="z,zacute,zdotaccent" 	k="15" />
<hkern g1="b,p" 	g2="x" 	k="15" />
<hkern g1="e,eogonek" 	g2="v,y" 	k="13" />
<hkern g1="e,eogonek" 	g2="quotedbl,quotesingle,quoteleft,quoteright,quotedblleft,quotedblright" 	k="14" />
<hkern g1="h,m,n,nacute" 	g2="quotedbl,quotesingle,quoteleft,quoteright,quotedblleft,quotedblright" 	k="104" />
<hkern g1="o,oacute" 	g2="v,y" 	k="15" />
<hkern g1="o,oacute" 	g2="quotedbl,quotesingle,quoteleft,quoteright,quotedblleft,quotedblright" 	k="136" />
<hkern g1="o,oacute" 	g2="z,zacute,zdotaccent" 	k="16" />
<hkern g1="o,oacute" 	g2="x" 	k="21" />
<hkern g1="v,y" 	g2="quotedbl,quotesingle,quoteleft,quoteright,quotedblleft,quotedblright" 	k="-15" />
<hkern g1="v,y" 	g2="o,oacute" 	k="15" />
<hkern g1="v,y" 	g2="comma,period,quotesinglbase,quotedblbase,ellipsis" 	k="107" />
<hkern g1="v,y" 	g2="c,d,e,g,q,cacute,eogonek" 	k="13" />
<hkern g1="v,y" 	g2="a,aogonek" 	k="15" />
<hkern g1="r" 	g2="v,y" 	k="-18" />
<hkern g1="r" 	g2="quotedbl,quotesingle,quoteleft,quoteright,quotedblleft,quotedblright" 	k="-16" />
<hkern g1="r" 	g2="o,oacute" 	k="20" />
<hkern g1="r" 	g2="comma,period,quotesinglbase,quotedblbase,ellipsis" 	k="123" />
<hkern g1="r" 	g2="c,d,e,g,q,cacute,eogonek" 	k="19" />
<hkern g1="r" 	g2="a,aogonek" 	k="40" />
<hkern g1="x" 	g2="o,oacute" 	k="20" />
<hkern g1="x" 	g2="c,d,e,g,q,cacute,eogonek" 	k="20" />
<hkern g1="z,zacute,zdotaccent" 	g2="o,oacute" 	k="16" />
<hkern g1="z,zacute,zdotaccent" 	g2="c,d,e,g,q,cacute,eogonek" 	k="16" />
<hkern g1="quotedbl,quotesingle,quoteleft,quoteright,quotedblleft,quotedblright" 	g2="quotedbl,quotesingle,quoteleft,quoteright,quotedblleft,quotedblright" 	k="107" />
<hkern g1="quotedbl,quotesingle,quoteleft,quoteright,quotedblleft,quotedblright" 	g2="o,oacute" 	k="61" />
<hkern g1="quotedbl,quotesingle,quoteleft,quoteright,quotedblleft,quotedblright" 	g2="A,Aogonek" 	k="120" />
<hkern g1="quotedbl,quotesingle,quoteleft,quoteright,quotedblleft,quotedblright" 	g2="c,d,e,g,q,cacute,eogonek" 	k="59" />
<hkern g1="quotedbl,quotesingle,quoteleft,quoteright,quotedblleft,quotedblright" 	g2="m,n,p,nacute" 	k="20" />
<hkern g1="quotedbl,quotesingle,quoteleft,quoteright,quotedblleft,quotedblright" 	g2="a,aogonek" 	k="50" />
<hkern g1="quotedbl,quotesingle,quoteleft,quoteright,quotedblleft,quotedblright" 	g2="s,sacute" 	k="80" />
<hkern g1="comma,period,quotesinglbase,quotedblbase,ellipsis" 	g2="quotedbl,quotesingle,quoteleft,quoteright,quotedblleft,quotedblright" 	k="170" />
</font>
</defs></svg> 